xmllint.c:3116
xmllint.c:3123
xmllint.c:3123
xmllint.c:3126
xmllint.c:3123
xmllint.c:3134
parser.c:14668
threads.c:419
threads.c:851
threads.c:852
threads.c:172
parser.c:14682
threads.c:782
threads.c:784
dict.c:174
dict.c:177
threads.c:172
threads.c:222
threads.c:250
threads.c:782
threads.c:784
xmlmemory.c:957
threads.c:172
xmlmemory.c:962
xmlmemory.c:966
encoding.c:1424
encoding.c:1429
encoding.c:1430
encoding.c:1436
encoding.c:1351
encoding.c:1357
encoding.c:1364
encoding.c:1364
encoding.c:1364
encoding.c:1364
encoding.c:1364
encoding.c:1364
xmlstring.c:117
xmlstring.c:90
xmlstring.c:92
encoding.c:1368
encoding.c:1378
encoding.c:1510
encoding.c:1511
encoding.c:1517
encoding.c:1351
encoding.c:1357
encoding.c:1364
encoding.c:1364
encoding.c:1364
encoding.c:1364
encoding.c:1364
encoding.c:1364
encoding.c:1364
encoding.c:1364
encoding.c:1364
xmlstring.c:117
xmlstring.c:90
xmlstring.c:92
encoding.c:1368
encoding.c:1378
encoding.c:1510
encoding.c:1511
encoding.c:1517
encoding.c:1351
encoding.c:1357
encoding.c:1364
encoding.c:1364
encoding.c:1364
encoding.c:1364
encoding.c:1364
encoding.c:1364
encoding.c:1364
encoding.c:1364
encoding.c:1364
xmlstring.c:117
xmlstring.c:90
xmlstring.c:92
encoding.c:1368
encoding.c:1378
encoding.c:1510
encoding.c:1511
encoding.c:1517
encoding.c:1351
encoding.c:1357
encoding.c:1364
encoding.c:1364
encoding.c:1364
encoding.c:1364
encoding.c:1364
encoding.c:1364
encoding.c:1364
xmlstring.c:117
xmlstring.c:90
xmlstring.c:92
encoding.c:1368
encoding.c:1378
encoding.c:1510
encoding.c:1511
encoding.c:1517
encoding.c:1351
encoding.c:1357
encoding.c:1364
encoding.c:1364
encoding.c:1364
encoding.c:1364
encoding.c:1364
encoding.c:1364
encoding.c:1364
encoding.c:1364
encoding.c:1364
encoding.c:1364
encoding.c:1364
xmlstring.c:117
xmlstring.c:90
xmlstring.c:92
encoding.c:1368
encoding.c:1378
encoding.c:1510
encoding.c:1511
encoding.c:1517
encoding.c:1351
encoding.c:1357
encoding.c:1364
encoding.c:1364
encoding.c:1364
encoding.c:1364
encoding.c:1364
encoding.c:1364
xmlstring.c:117
xmlstring.c:90
xmlstring.c:92
encoding.c:1368
encoding.c:1378
encoding.c:1510
encoding.c:1511
encoding.c:1517
encoding.c:1351
encoding.c:1357
encoding.c:1364
encoding.c:1364
encoding.c:1364
encoding.c:1364
encoding.c:1364
encoding.c:1364
encoding.c:1364
encoding.c:1364
encoding.c:1364
xmlstring.c:117
xmlstring.c:90
xmlstring.c:92
encoding.c:1368
encoding.c:1378
encoding.c:1510
encoding.c:1511
encoding.c:1517
encoding.c:1351
encoding.c:1357
encoding.c:1364
encoding.c:1364
encoding.c:1364
encoding.c:1364
encoding.c:1364
xmlstring.c:117
xmlstring.c:90
xmlstring.c:92
encoding.c:1368
encoding.c:1378
encoding.c:1510
encoding.c:1511
encoding.c:1517
threads.c:782
threads.c:784
SAX2.c:2863
SAX2.c:2864
xmlIO.c:2244
xmlIO.c:2198
xmlIO.c:2198
xmlIO.c:2198
xmlIO.c:2198
threads.c:782
threads.c:784
threads.c:492
parserInternals.c:66
parserInternals.c:74
