0x410dfe: file encoding.c, line 1364.
[Thread debugging using libthread_db enabled]
Using host libthread_db library "/lib/x86_64-linux-gnu/libthread_db.so.1".
encoding.c:1364
1364		if (upper[i] == 0) break;
encoding.c:1364
1364		if (upper[i] == 0) break;
upper = "U", '\000' <repeats 207 times>...
i = 0
1365	    }
encoding.c:1365
1365	    }
upper = "U", '\000' <repeats 207 times>...
i = 0
1362	    for (i = 0;i < 499;i++) {
encoding.c:1362
1362	    for (i = 0;i < 499;i++) {
upper = "U", '\000' <repeats 207 times>...
i = 0
1363	        upper[i] = toupper(name[i]);
encoding.c:1363
1363	        upper[i] = toupper(name[i]);
upper = "U", '\000' <repeats 207 times>...
i = 1
encoding.c:1364
1364		if (upper[i] == 0) break;
encoding.c:1364
1364		if (upper[i] == 0) break;
upper = "UT", '\000' <repeats 206 times>...
i = 1
1365	    }
encoding.c:1365
1365	    }
upper = "UT", '\000' <repeats 206 times>...
i = 1
encoding.c:1364
1364		if (upper[i] == 0) break;
encoding.c:1364
1364		if (upper[i] == 0) break;
upper = "UTF", '\000' <repeats 205 times>...
i = 2
1365	    }
encoding.c:1365
1365	    }
upper = "UTF", '\000' <repeats 205 times>...
i = 2
1362	    for (i = 0;i < 499;i++) {
encoding.c:1362
1362	    for (i = 0;i < 499;i++) {
upper = "UTF", '\000' <repeats 205 times>...
i = 2
1363	        upper[i] = toupper(name[i]);
encoding.c:1363
1363	        upper[i] = toupper(name[i]);
upper = "UTF", '\000' <repeats 205 times>...
i = 3
encoding.c:1364
1364		if (upper[i] == 0) break;
encoding.c:1364
1364		if (upper[i] == 0) break;
upper = "UTF-", '\000' <repeats 204 times>...
i = 3
1365	    }
encoding.c:1365
1365	    }
upper = "UTF-", '\000' <repeats 204 times>...
i = 3
encoding.c:1364
1364		if (upper[i] == 0) break;
encoding.c:1364
1364		if (upper[i] == 0) break;
upper = "UTF-8", '\000' <repeats 203 times>...
i = 4
1365	    }
encoding.c:1365
1365	    }
upper = "UTF-8", '\000' <repeats 203 times>...
i = 4
1362	    for (i = 0;i < 499;i++) {
encoding.c:1362
1362	    for (i = 0;i < 499;i++) {
upper = "UTF-8", '\000' <repeats 203 times>...
i = 4
1363	        upper[i] = toupper(name[i]);
encoding.c:1363
1363	        upper[i] = toupper(name[i]);
upper = "UTF-8", '\000' <repeats 203 times>...
i = 5
encoding.c:1364
1364		if (upper[i] == 0) break;
encoding.c:1364
1364		if (upper[i] == 0) break;
upper = "UTF-8", '\000' <repeats 203 times>...
i = 5
1366	    upper[i] = 0;
encoding.c:1366
1366	    upper[i] = 0;
upper = "UTF-8", '\000' <repeats 203 times>...
i = 5
encoding.c:1364
1364		if (upper[i] == 0) break;
encoding.c:1364
1364		if (upper[i] == 0) break;
upper = "UTF-8", '\000' <repeats 203 times>...
i = 0
1365	    }
encoding.c:1365
1365	    }
upper = "UTF-8", '\000' <repeats 203 times>...
i = 0
1362	    for (i = 0;i < 499;i++) {
encoding.c:1362
1362	    for (i = 0;i < 499;i++) {
upper = "UTF-8", '\000' <repeats 203 times>...
i = 0
1363	        upper[i] = toupper(name[i]);
encoding.c:1363
1363	        upper[i] = toupper(name[i]);
upper = "UTF-8", '\000' <repeats 203 times>...
i = 1
encoding.c:1364
1364		if (upper[i] == 0) break;
encoding.c:1364
1364		if (upper[i] == 0) break;
upper = "UTF-8", '\000' <repeats 203 times>...
i = 1
1365	    }
encoding.c:1365
1365	    }
upper = "UTF-8", '\000' <repeats 203 times>...
i = 1
encoding.c:1364
1364		if (upper[i] == 0) break;
encoding.c:1364
1364		if (upper[i] == 0) break;
upper = "UTF-8", '\000' <repeats 203 times>...
i = 2
1365	    }
encoding.c:1365
1365	    }
upper = "UTF-8", '\000' <repeats 203 times>...
i = 2
1362	    for (i = 0;i < 499;i++) {
encoding.c:1362
1362	    for (i = 0;i < 499;i++) {
upper = "UTF-8", '\000' <repeats 203 times>...
i = 2
1363	        upper[i] = toupper(name[i]);
encoding.c:1363
1363	        upper[i] = toupper(name[i]);
upper = "UTF-8", '\000' <repeats 203 times>...
i = 3
encoding.c:1364
1364		if (upper[i] == 0) break;
encoding.c:1364
1364		if (upper[i] == 0) break;
upper = "UTF-8", '\000' <repeats 203 times>...
i = 3
1365	    }
encoding.c:1365
1365	    }
upper = "UTF-8", '\000' <repeats 203 times>...
i = 3
encoding.c:1364
1364		if (upper[i] == 0) break;
encoding.c:1364
1364		if (upper[i] == 0) break;
upper = "UTF-1", '\000' <repeats 203 times>...
i = 4
1365	    }
encoding.c:1365
1365	    }
upper = "UTF-1", '\000' <repeats 203 times>...
i = 4
1362	    for (i = 0;i < 499;i++) {
encoding.c:1362
1362	    for (i = 0;i < 499;i++) {
upper = "UTF-1", '\000' <repeats 203 times>...
i = 4
1363	        upper[i] = toupper(name[i]);
encoding.c:1363
1363	        upper[i] = toupper(name[i]);
upper = "UTF-1", '\000' <repeats 203 times>...
i = 5
encoding.c:1364
1364		if (upper[i] == 0) break;
encoding.c:1364
1364		if (upper[i] == 0) break;
upper = "UTF-16", '\000' <repeats 202 times>...
i = 5
1365	    }
encoding.c:1365
1365	    }
upper = "UTF-16", '\000' <repeats 202 times>...
i = 5
encoding.c:1364
1364		if (upper[i] == 0) break;
encoding.c:1364
1364		if (upper[i] == 0) break;
upper = "UTF-16L", '\000' <repeats 201 times>...
i = 6
1365	    }
encoding.c:1365
1365	    }
upper = "UTF-16L", '\000' <repeats 201 times>...
i = 6
1362	    for (i = 0;i < 499;i++) {
encoding.c:1362
1362	    for (i = 0;i < 499;i++) {
upper = "UTF-16L", '\000' <repeats 201 times>...
i = 6
1363	        upper[i] = toupper(name[i]);
encoding.c:1363
1363	        upper[i] = toupper(name[i]);
upper = "UTF-16L", '\000' <repeats 201 times>...
i = 7
encoding.c:1364
1364		if (upper[i] == 0) break;
encoding.c:1364
1364		if (upper[i] == 0) break;
upper = "UTF-16LE", '\000' <repeats 200 times>...
i = 7
1365	    }
encoding.c:1365
1365	    }
upper = "UTF-16LE", '\000' <repeats 200 times>...
i = 7
encoding.c:1364
1364		if (upper[i] == 0) break;
encoding.c:1364
1364		if (upper[i] == 0) break;
upper = "UTF-16LE", '\000' <repeats 200 times>...
i = 8
1366	    upper[i] = 0;
encoding.c:1366
1366	    upper[i] = 0;
upper = "UTF-16LE", '\000' <repeats 200 times>...
i = 8
1367	    up = xmlMemStrdup(upper);
encoding.c:1367
1367	    up = xmlMemStrdup(upper);
upper = "UTF-16LE", '\000' <repeats 200 times>...
i = 8
1368	    if (up == NULL) {
encoding.c:1368
1368	    if (up == NULL) {
upper = "UTF-16LE", '\000' <repeats 200 times>...
i = 8
1377	              xmlMalloc(sizeof(xmlCharEncodingHandler));
encoding.c:1377
1377	              xmlMalloc(sizeof(xmlCharEncodingHandler));
upper = "UTF-16LE", '\000' <repeats 200 times>...
i = 8
1376	    handler = (xmlCharEncodingHandlerPtr)
encoding.c:1376
1376	    handler = (xmlCharEncodingHandlerPtr)
upper = "UTF-16LE", '\000' <repeats 200 times>...
i = 8
encoding.c:1364
1364		if (upper[i] == 0) break;
encoding.c:1364
1364		if (upper[i] == 0) break;
upper = "UTF-16LE", '\000' <repeats 200 times>...
i = 0
1365	    }
encoding.c:1365
1365	    }
upper = "UTF-16LE", '\000' <repeats 200 times>...
i = 0
1362	    for (i = 0;i < 499;i++) {
encoding.c:1362
1362	    for (i = 0;i < 499;i++) {
upper = "UTF-16LE", '\000' <repeats 200 times>...
i = 0
1363	        upper[i] = toupper(name[i]);
encoding.c:1363
1363	        upper[i] = toupper(name[i]);
upper = "UTF-16LE", '\000' <repeats 200 times>...
i = 1
encoding.c:1364
1364		if (upper[i] == 0) break;
encoding.c:1364
1364		if (upper[i] == 0) break;
upper = "UTF-16LE", '\000' <repeats 200 times>...
i = 1
1365	    }
encoding.c:1365
1365	    }
upper = "UTF-16LE", '\000' <repeats 200 times>...
i = 1
encoding.c:1364
1364		if (upper[i] == 0) break;
encoding.c:1364
1364		if (upper[i] == 0) break;
upper = "UTF-16LE", '\000' <repeats 200 times>...
i = 2
1365	    }
encoding.c:1365
1365	    }
upper = "UTF-16LE", '\000' <repeats 200 times>...
i = 2
1362	    for (i = 0;i < 499;i++) {
encoding.c:1362
1362	    for (i = 0;i < 499;i++) {
upper = "UTF-16LE", '\000' <repeats 200 times>...
i = 2
1363	        upper[i] = toupper(name[i]);
encoding.c:1363
1363	        upper[i] = toupper(name[i]);
upper = "UTF-16LE", '\000' <repeats 200 times>...
i = 3
encoding.c:1364
1364		if (upper[i] == 0) break;
encoding.c:1364
1364		if (upper[i] == 0) break;
upper = "UTF-16LE", '\000' <repeats 200 times>...
i = 3
1365	    }
encoding.c:1365
1365	    }
upper = "UTF-16LE", '\000' <repeats 200 times>...
i = 3
encoding.c:1364
1364		if (upper[i] == 0) break;
encoding.c:1364
1364		if (upper[i] == 0) break;
upper = "UTF-16LE", '\000' <repeats 200 times>...
i = 4
1365	    }
encoding.c:1365
1365	    }
upper = "UTF-16LE", '\000' <repeats 200 times>...
i = 4
1362	    for (i = 0;i < 499;i++) {
encoding.c:1362
1362	    for (i = 0;i < 499;i++) {
upper = "UTF-16LE", '\000' <repeats 200 times>...
i = 4
1363	        upper[i] = toupper(name[i]);
encoding.c:1363
1363	        upper[i] = toupper(name[i]);
upper = "UTF-16LE", '\000' <repeats 200 times>...
i = 5
encoding.c:1364
1364		if (upper[i] == 0) break;
encoding.c:1364
1364		if (upper[i] == 0) break;
upper = "UTF-16LE", '\000' <repeats 200 times>...
i = 5
1365	    }
encoding.c:1365
1365	    }
upper = "UTF-16LE", '\000' <repeats 200 times>...
i = 5
encoding.c:1364
1364		if (upper[i] == 0) break;
encoding.c:1364
1364		if (upper[i] == 0) break;
upper = "UTF-16BE", '\000' <repeats 200 times>...
i = 6
1365	    }
encoding.c:1365
1365	    }
upper = "UTF-16BE", '\000' <repeats 200 times>...
i = 6
1362	    for (i = 0;i < 499;i++) {
encoding.c:1362
1362	    for (i = 0;i < 499;i++) {
upper = "UTF-16BE", '\000' <repeats 200 times>...
i = 6
1363	        upper[i] = toupper(name[i]);
encoding.c:1363
1363	        upper[i] = toupper(name[i]);
upper = "UTF-16BE", '\000' <repeats 200 times>...
i = 7
encoding.c:1364
1364		if (upper[i] == 0) break;
encoding.c:1364
1364		if (upper[i] == 0) break;
upper = "UTF-16BE", '\000' <repeats 200 times>...
i = 7
1365	    }
encoding.c:1365
1365	    }
upper = "UTF-16BE", '\000' <repeats 200 times>...
i = 7
encoding.c:1364
1364		if (upper[i] == 0) break;
encoding.c:1364
1364		if (upper[i] == 0) break;
upper = "UTF-16BE", '\000' <repeats 200 times>...
i = 8
1366	    upper[i] = 0;
encoding.c:1366
1366	    upper[i] = 0;
upper = "UTF-16BE", '\000' <repeats 200 times>...
i = 8
1367	    up = xmlMemStrdup(upper);
encoding.c:1367
1367	    up = xmlMemStrdup(upper);
upper = "UTF-16BE", '\000' <repeats 200 times>...
i = 8
1368	    if (up == NULL) {
encoding.c:1368
1368	    if (up == NULL) {
upper = "UTF-16BE", '\000' <repeats 200 times>...
i = 8
1377	              xmlMalloc(sizeof(xmlCharEncodingHandler));
encoding.c:1377
1377	              xmlMalloc(sizeof(xmlCharEncodingHandler));
upper = "UTF-16BE", '\000' <repeats 200 times>...
i = 8
1376	    handler = (xmlCharEncodingHandlerPtr)
encoding.c:1376
1376	    handler = (xmlCharEncodingHandlerPtr)
upper = "UTF-16BE", '\000' <repeats 200 times>...
i = 8
encoding.c:1364
1364		if (upper[i] == 0) break;
encoding.c:1364
1364		if (upper[i] == 0) break;
upper = "UTF-16BE", '\000' <repeats 200 times>...
i = 0
1365	    }
encoding.c:1365
1365	    }
upper = "UTF-16BE", '\000' <repeats 200 times>...
i = 0
1362	    for (i = 0;i < 499;i++) {
encoding.c:1362
1362	    for (i = 0;i < 499;i++) {
upper = "UTF-16BE", '\000' <repeats 200 times>...
i = 0
1363	        upper[i] = toupper(name[i]);
encoding.c:1363
1363	        upper[i] = toupper(name[i]);
upper = "UTF-16BE", '\000' <repeats 200 times>...
i = 1
encoding.c:1364
1364		if (upper[i] == 0) break;
encoding.c:1364
1364		if (upper[i] == 0) break;
upper = "UTF-16BE", '\000' <repeats 200 times>...
i = 1
1365	    }
encoding.c:1365
1365	    }
upper = "UTF-16BE", '\000' <repeats 200 times>...
i = 1
encoding.c:1364
1364		if (upper[i] == 0) break;
encoding.c:1364
1364		if (upper[i] == 0) break;
upper = "UTF-16BE", '\000' <repeats 200 times>...
i = 2
1365	    }
encoding.c:1365
1365	    }
upper = "UTF-16BE", '\000' <repeats 200 times>...
i = 2
1362	    for (i = 0;i < 499;i++) {
encoding.c:1362
1362	    for (i = 0;i < 499;i++) {
upper = "UTF-16BE", '\000' <repeats 200 times>...
i = 2
1363	        upper[i] = toupper(name[i]);
encoding.c:1363
1363	        upper[i] = toupper(name[i]);
upper = "UTF-16BE", '\000' <repeats 200 times>...
i = 3
encoding.c:1364
1364		if (upper[i] == 0) break;
encoding.c:1364
1364		if (upper[i] == 0) break;
upper = "UTF-16BE", '\000' <repeats 200 times>...
i = 3
1365	    }
encoding.c:1365
1365	    }
upper = "UTF-16BE", '\000' <repeats 200 times>...
i = 3
encoding.c:1364
1364		if (upper[i] == 0) break;
encoding.c:1364
1364		if (upper[i] == 0) break;
upper = "UTF-16BE", '\000' <repeats 200 times>...
i = 4
1365	    }
encoding.c:1365
1365	    }
upper = "UTF-16BE", '\000' <repeats 200 times>...
i = 4
1362	    for (i = 0;i < 499;i++) {
encoding.c:1362
1362	    for (i = 0;i < 499;i++) {
upper = "UTF-16BE", '\000' <repeats 200 times>...
i = 4
1363	        upper[i] = toupper(name[i]);
encoding.c:1363
1363	        upper[i] = toupper(name[i]);
upper = "UTF-16BE", '\000' <repeats 200 times>...
i = 5
encoding.c:1364
1364		if (upper[i] == 0) break;
encoding.c:1364
1364		if (upper[i] == 0) break;
upper = "UTF-16BE", '\000' <repeats 200 times>...
i = 5
1365	    }
encoding.c:1365
1365	    }
upper = "UTF-16BE", '\000' <repeats 200 times>...
i = 5
encoding.c:1364
1364		if (upper[i] == 0) break;
encoding.c:1364
1364		if (upper[i] == 0) break;
upper = "UTF-16\000E", '\000' <repeats 200 times>...
i = 6
1366	    upper[i] = 0;
encoding.c:1366
1366	    upper[i] = 0;
upper = "UTF-16\000E", '\000' <repeats 200 times>...
i = 6
1367	    up = xmlMemStrdup(upper);
encoding.c:1367
1367	    up = xmlMemStrdup(upper);
upper = "UTF-16\000E", '\000' <repeats 200 times>...
i = 6
1368	    if (up == NULL) {
encoding.c:1368
1368	    if (up == NULL) {
upper = "UTF-16\000E", '\000' <repeats 200 times>...
i = 6
1377	              xmlMalloc(sizeof(xmlCharEncodingHandler));
encoding.c:1377
1377	              xmlMalloc(sizeof(xmlCharEncodingHandler));
upper = "UTF-16\000E", '\000' <repeats 200 times>...
i = 6
1376	    handler = (xmlCharEncodingHandlerPtr)
encoding.c:1376
1376	    handler = (xmlCharEncodingHandlerPtr)
upper = "UTF-16\000E", '\000' <repeats 200 times>...
i = 6
encoding.c:1364
1364		if (upper[i] == 0) break;
encoding.c:1364
1364		if (upper[i] == 0) break;
upper = "ITF-16\000E", '\000' <repeats 200 times>...
i = 0
1365	    }
encoding.c:1365
1365	    }
upper = "ITF-16\000E", '\000' <repeats 200 times>...
i = 0
1362	    for (i = 0;i < 499;i++) {
encoding.c:1362
1362	    for (i = 0;i < 499;i++) {
upper = "ITF-16\000E", '\000' <repeats 200 times>...
i = 0
1363	        upper[i] = toupper(name[i]);
encoding.c:1363
1363	        upper[i] = toupper(name[i]);
upper = "ITF-16\000E", '\000' <repeats 200 times>...
i = 1
encoding.c:1364
1364		if (upper[i] == 0) break;
encoding.c:1364
1364		if (upper[i] == 0) break;
upper = "ISF-16\000E", '\000' <repeats 200 times>...
i = 1
1365	    }
encoding.c:1365
1365	    }
upper = "ISF-16\000E", '\000' <repeats 200 times>...
i = 1
encoding.c:1364
1364		if (upper[i] == 0) break;
encoding.c:1364
1364		if (upper[i] == 0) break;
upper = "ISO-16\000E", '\000' <repeats 200 times>...
i = 2
1365	    }
encoding.c:1365
1365	    }
upper = "ISO-16\000E", '\000' <repeats 200 times>...
i = 2
1362	    for (i = 0;i < 499;i++) {
encoding.c:1362
1362	    for (i = 0;i < 499;i++) {
upper = "ISO-16\000E", '\000' <repeats 200 times>...
i = 2
1363	        upper[i] = toupper(name[i]);
encoding.c:1363
1363	        upper[i] = toupper(name[i]);
upper = "ISO-16\000E", '\000' <repeats 200 times>...
i = 3
encoding.c:1364
1364		if (upper[i] == 0) break;
encoding.c:1364
1364		if (upper[i] == 0) break;
upper = "ISO-16\000E", '\000' <repeats 200 times>...
i = 3
1365	    }
encoding.c:1365
1365	    }
upper = "ISO-16\000E", '\000' <repeats 200 times>...
i = 3
encoding.c:1364
1364		if (upper[i] == 0) break;
encoding.c:1364
1364		if (upper[i] == 0) break;
upper = "ISO-86\000E", '\000' <repeats 200 times>...
i = 4
1365	    }
encoding.c:1365
1365	    }
upper = "ISO-86\000E", '\000' <repeats 200 times>...
i = 4
1362	    for (i = 0;i < 499;i++) {
encoding.c:1362
1362	    for (i = 0;i < 499;i++) {
upper = "ISO-86\000E", '\000' <repeats 200 times>...
i = 4
1363	        upper[i] = toupper(name[i]);
encoding.c:1363
1363	        upper[i] = toupper(name[i]);
upper = "ISO-86\000E", '\000' <repeats 200 times>...
i = 5
encoding.c:1364
1364		if (upper[i] == 0) break;
encoding.c:1364
1364		if (upper[i] == 0) break;
upper = "ISO-88\000E", '\000' <repeats 200 times>...
i = 5
1365	    }
encoding.c:1365
1365	    }
upper = "ISO-88\000E", '\000' <repeats 200 times>...
i = 5
encoding.c:1364
1364		if (upper[i] == 0) break;
encoding.c:1364
1364		if (upper[i] == 0) break;
upper = "ISO-885E", '\000' <repeats 200 times>...
i = 6
1365	    }
encoding.c:1365
1365	    }
upper = "ISO-885E", '\000' <repeats 200 times>...
i = 6
1362	    for (i = 0;i < 499;i++) {
encoding.c:1362
1362	    for (i = 0;i < 499;i++) {
upper = "ISO-885E", '\000' <repeats 200 times>...
i = 6
1363	        upper[i] = toupper(name[i]);
encoding.c:1363
1363	        upper[i] = toupper(name[i]);
upper = "ISO-885E", '\000' <repeats 200 times>...
i = 7
encoding.c:1364
1364		if (upper[i] == 0) break;
encoding.c:1364
1364		if (upper[i] == 0) break;
upper = "ISO-8859", '\000' <repeats 200 times>...
i = 7
1365	    }
encoding.c:1365
1365	    }
upper = "ISO-8859", '\000' <repeats 200 times>...
i = 7
encoding.c:1364
1364		if (upper[i] == 0) break;
encoding.c:1364
1364		if (upper[i] == 0) break;
upper = "ISO-8859-", '\000' <repeats 199 times>...
i = 8
1365	    }
encoding.c:1365
1365	    }
upper = "ISO-8859-", '\000' <repeats 199 times>...
i = 8
1362	    for (i = 0;i < 499;i++) {
encoding.c:1362
1362	    for (i = 0;i < 499;i++) {
upper = "ISO-8859-", '\000' <repeats 199 times>...
i = 8
1363	        upper[i] = toupper(name[i]);
encoding.c:1363
1363	        upper[i] = toupper(name[i]);
upper = "ISO-8859-", '\000' <repeats 199 times>...
i = 9
encoding.c:1364
1364		if (upper[i] == 0) break;
encoding.c:1364
1364		if (upper[i] == 0) break;
upper = "ISO-8859-1", '\000' <repeats 198 times>...
i = 9
1365	    }
encoding.c:1365
1365	    }
upper = "ISO-8859-1", '\000' <repeats 198 times>...
i = 9
encoding.c:1364
1364		if (upper[i] == 0) break;
encoding.c:1364
1364		if (upper[i] == 0) break;
upper = "ISO-8859-1", '\000' <repeats 198 times>...
i = 10
1366	    upper[i] = 0;
encoding.c:1366
1366	    upper[i] = 0;
upper = "ISO-8859-1", '\000' <repeats 198 times>...
i = 10
1367	    up = xmlMemStrdup(upper);
encoding.c:1367
1367	    up = xmlMemStrdup(upper);
upper = "ISO-8859-1", '\000' <repeats 198 times>...
i = 10
1368	    if (up == NULL) {
encoding.c:1368
1368	    if (up == NULL) {
upper = "ISO-8859-1", '\000' <repeats 198 times>...
i = 10
1377	              xmlMalloc(sizeof(xmlCharEncodingHandler));
encoding.c:1377
1377	              xmlMalloc(sizeof(xmlCharEncodingHandler));
upper = "ISO-8859-1", '\000' <repeats 198 times>...
i = 10
1376	    handler = (xmlCharEncodingHandlerPtr)
encoding.c:1376
1376	    handler = (xmlCharEncodingHandlerPtr)
upper = "ISO-8859-1", '\000' <repeats 198 times>...
i = 10
encoding.c:1364
1364		if (upper[i] == 0) break;
encoding.c:1364
1364		if (upper[i] == 0) break;
upper = "ASO-8859-1", '\000' <repeats 198 times>...
i = 0
1365	    }
encoding.c:1365
1365	    }
upper = "ASO-8859-1", '\000' <repeats 198 times>...
i = 0
1362	    for (i = 0;i < 499;i++) {
encoding.c:1362
1362	    for (i = 0;i < 499;i++) {
upper = "ASO-8859-1", '\000' <repeats 198 times>...
i = 0
1363	        upper[i] = toupper(name[i]);
encoding.c:1363
1363	        upper[i] = toupper(name[i]);
upper = "ASO-8859-1", '\000' <repeats 198 times>...
i = 1
encoding.c:1364
1364		if (upper[i] == 0) break;
encoding.c:1364
1364		if (upper[i] == 0) break;
upper = "ASO-8859-1", '\000' <repeats 198 times>...
i = 1
1365	    }
encoding.c:1365
1365	    }
upper = "ASO-8859-1", '\000' <repeats 198 times>...
i = 1
encoding.c:1364
1364		if (upper[i] == 0) break;
encoding.c:1364
1364		if (upper[i] == 0) break;
upper = "ASC-8859-1", '\000' <repeats 198 times>...
i = 2
1365	    }
encoding.c:1365
1365	    }
upper = "ASC-8859-1", '\000' <repeats 198 times>...
i = 2
1362	    for (i = 0;i < 499;i++) {
encoding.c:1362
1362	    for (i = 0;i < 499;i++) {
upper = "ASC-8859-1", '\000' <repeats 198 times>...
i = 2
1363	        upper[i] = toupper(name[i]);
encoding.c:1363
1363	        upper[i] = toupper(name[i]);
upper = "ASC-8859-1", '\000' <repeats 198 times>...
i = 3
encoding.c:1364
1364		if (upper[i] == 0) break;
encoding.c:1364
1364		if (upper[i] == 0) break;
upper = "ASCI8859-1", '\000' <repeats 198 times>...
i = 3
1365	    }
encoding.c:1365
1365	    }
upper = "ASCI8859-1", '\000' <repeats 198 times>...
i = 3
encoding.c:1364
1364		if (upper[i] == 0) break;
encoding.c:1364
1364		if (upper[i] == 0) break;
upper = "ASCII859-1", '\000' <repeats 198 times>...
i = 4
1365	    }
encoding.c:1365
1365	    }
upper = "ASCII859-1", '\000' <repeats 198 times>...
i = 4
1362	    for (i = 0;i < 499;i++) {
encoding.c:1362
1362	    for (i = 0;i < 499;i++) {
upper = "ASCII859-1", '\000' <repeats 198 times>...
i = 4
1363	        upper[i] = toupper(name[i]);
encoding.c:1363
1363	        upper[i] = toupper(name[i]);
upper = "ASCII859-1", '\000' <repeats 198 times>...
i = 5
encoding.c:1364
1364		if (upper[i] == 0) break;
encoding.c:1364
1364		if (upper[i] == 0) break;
upper = "ASCII\000\065\071-1", '\000' <repeats 198 times>...
i = 5
1366	    upper[i] = 0;
encoding.c:1366
1366	    upper[i] = 0;
upper = "ASCII\000\065\071-1", '\000' <repeats 198 times>...
i = 5
encoding.c:1364
1364		if (upper[i] == 0) break;
encoding.c:1364
1364		if (upper[i] == 0) break;
upper = "USCII\000\065\071-1", '\000' <repeats 198 times>...
i = 0
1365	    }
encoding.c:1365
1365	    }
upper = "USCII\000\065\071-1", '\000' <repeats 198 times>...
i = 0
1362	    for (i = 0;i < 499;i++) {
encoding.c:1362
1362	    for (i = 0;i < 499;i++) {
upper = "USCII\000\065\071-1", '\000' <repeats 198 times>...
i = 0
1363	        upper[i] = toupper(name[i]);
encoding.c:1363
1363	        upper[i] = toupper(name[i]);
upper = "USCII\000\065\071-1", '\000' <repeats 198 times>...
i = 1
encoding.c:1364
1364		if (upper[i] == 0) break;
encoding.c:1364
1364		if (upper[i] == 0) break;
upper = "USCII\000\065\071-1", '\000' <repeats 198 times>...
i = 1
1365	    }
encoding.c:1365
1365	    }
upper = "USCII\000\065\071-1", '\000' <repeats 198 times>...
i = 1
encoding.c:1364
1364		if (upper[i] == 0) break;
encoding.c:1364
1364		if (upper[i] == 0) break;
upper = "US-II\000\065\071-1", '\000' <repeats 198 times>...
i = 2
1365	    }
encoding.c:1365
1365	    }
upper = "US-II\000\065\071-1", '\000' <repeats 198 times>...
i = 2
1362	    for (i = 0;i < 499;i++) {
encoding.c:1362
1362	    for (i = 0;i < 499;i++) {
upper = "US-II\000\065\071-1", '\000' <repeats 198 times>...
i = 2
1363	        upper[i] = toupper(name[i]);
encoding.c:1363
1363	        upper[i] = toupper(name[i]);
upper = "US-II\000\065\071-1", '\000' <repeats 198 times>...
i = 3
encoding.c:1364
1364		if (upper[i] == 0) break;
encoding.c:1364
1364		if (upper[i] == 0) break;
upper = "US-AI\000\065\071-1", '\000' <repeats 198 times>...
i = 3
1365	    }
encoding.c:1365
1365	    }
upper = "US-AI\000\065\071-1", '\000' <repeats 198 times>...
i = 3
encoding.c:1364
1364		if (upper[i] == 0) break;
encoding.c:1364
1364		if (upper[i] == 0) break;
upper = "US-AS\000\065\071-1", '\000' <repeats 198 times>...
i = 4
1365	    }
encoding.c:1365
1365	    }
upper = "US-AS\000\065\071-1", '\000' <repeats 198 times>...
i = 4
1362	    for (i = 0;i < 499;i++) {
encoding.c:1362
1362	    for (i = 0;i < 499;i++) {
upper = "US-AS\000\065\071-1", '\000' <repeats 198 times>...
i = 4
1363	        upper[i] = toupper(name[i]);
encoding.c:1363
1363	        upper[i] = toupper(name[i]);
upper = "US-AS\000\065\071-1", '\000' <repeats 198 times>...
i = 5
encoding.c:1364
1364		if (upper[i] == 0) break;
encoding.c:1364
1364		if (upper[i] == 0) break;
upper = "US-ASC59-1", '\000' <repeats 198 times>...
i = 5
1365	    }
encoding.c:1365
1365	    }
upper = "US-ASC59-1", '\000' <repeats 198 times>...
i = 5
encoding.c:1364
1364		if (upper[i] == 0) break;
encoding.c:1364
1364		if (upper[i] == 0) break;
upper = "US-ASCI9-1", '\000' <repeats 198 times>...
i = 6
1365	    }
encoding.c:1365
1365	    }
upper = "US-ASCI9-1", '\000' <repeats 198 times>...
i = 6
1362	    for (i = 0;i < 499;i++) {
encoding.c:1362
1362	    for (i = 0;i < 499;i++) {
upper = "US-ASCI9-1", '\000' <repeats 198 times>...
i = 6
1363	        upper[i] = toupper(name[i]);
encoding.c:1363
1363	        upper[i] = toupper(name[i]);
upper = "US-ASCI9-1", '\000' <repeats 198 times>...
i = 7
encoding.c:1364
1364		if (upper[i] == 0) break;
encoding.c:1364
1364		if (upper[i] == 0) break;
upper = "US-ASCII-1", '\000' <repeats 198 times>...
i = 7
1365	    }
encoding.c:1365
1365	    }
upper = "US-ASCII-1", '\000' <repeats 198 times>...
i = 7
encoding.c:1364
1364		if (upper[i] == 0) break;
encoding.c:1364
1364		if (upper[i] == 0) break;
upper = "US-ASCII\000\061", '\000' <repeats 198 times>...
i = 8
1366	    upper[i] = 0;
encoding.c:1366
1366	    upper[i] = 0;
upper = "US-ASCII\000\061", '\000' <repeats 198 times>...
i = 8
1367	    up = xmlMemStrdup(upper);
encoding.c:1367
1367	    up = xmlMemStrdup(upper);
upper = "US-ASCII\000\061", '\000' <repeats 198 times>...
i = 8
1368	    if (up == NULL) {
encoding.c:1368
1368	    if (up == NULL) {
upper = "US-ASCII\000\061", '\000' <repeats 198 times>...
i = 8
1377	              xmlMalloc(sizeof(xmlCharEncodingHandler));
encoding.c:1377
1377	              xmlMalloc(sizeof(xmlCharEncodingHandler));
upper = "US-ASCII\000\061", '\000' <repeats 198 times>...
i = 8
1376	    handler = (xmlCharEncodingHandlerPtr)
encoding.c:1376
1376	    handler = (xmlCharEncodingHandlerPtr)
upper = "US-ASCII\000\061", '\000' <repeats 198 times>...
i = 8
encoding.c:1364
1364		if (upper[i] == 0) break;
encoding.c:1364
1364		if (upper[i] == 0) break;
upper = "HS-ASCII\000\061", '\000' <repeats 198 times>...
i = 0
1365	    }
encoding.c:1365
1365	    }
upper = "HS-ASCII\000\061", '\000' <repeats 198 times>...
i = 0
1362	    for (i = 0;i < 499;i++) {
encoding.c:1362
1362	    for (i = 0;i < 499;i++) {
upper = "HS-ASCII\000\061", '\000' <repeats 198 times>...
i = 0
1363	        upper[i] = toupper(name[i]);
encoding.c:1363
1363	        upper[i] = toupper(name[i]);
upper = "HS-ASCII\000\061", '\000' <repeats 198 times>...
i = 1
encoding.c:1364
1364		if (upper[i] == 0) break;
encoding.c:1364
1364		if (upper[i] == 0) break;
upper = "HT-ASCII\000\061", '\000' <repeats 198 times>...
i = 1
1365	    }
encoding.c:1365
1365	    }
upper = "HT-ASCII\000\061", '\000' <repeats 198 times>...
i = 1
encoding.c:1364
1364		if (upper[i] == 0) break;
encoding.c:1364
1364		if (upper[i] == 0) break;
upper = "HTMASCII\000\061", '\000' <repeats 198 times>...
i = 2
1365	    }
encoding.c:1365
1365	    }
upper = "HTMASCII\000\061", '\000' <repeats 198 times>...
i = 2
1362	    for (i = 0;i < 499;i++) {
encoding.c:1362
1362	    for (i = 0;i < 499;i++) {
upper = "HTMASCII\000\061", '\000' <repeats 198 times>...
i = 2
1363	        upper[i] = toupper(name[i]);
encoding.c:1363
1363	        upper[i] = toupper(name[i]);
upper = "HTMASCII\000\061", '\000' <repeats 198 times>...
i = 3
encoding.c:1364
1364		if (upper[i] == 0) break;
encoding.c:1364
1364		if (upper[i] == 0) break;
upper = "HTMLSCII\000\061", '\000' <repeats 198 times>...
i = 3
1365	    }
encoding.c:1365
1365	    }
upper = "HTMLSCII\000\061", '\000' <repeats 198 times>...
i = 3
encoding.c:1364
1364		if (upper[i] == 0) break;
encoding.c:1364
1364		if (upper[i] == 0) break;
upper = "HTML\000CII\000\061", '\000' <repeats 198 times>...
i = 4
1366	    upper[i] = 0;
encoding.c:1366
1366	    upper[i] = 0;
upper = "HTML\000CII\000\061", '\000' <repeats 198 times>...
i = 4
1367	    up = xmlMemStrdup(upper);
encoding.c:1367
1367	    up = xmlMemStrdup(upper);
upper = "HTML\000CII\000\061", '\000' <repeats 198 times>...
i = 4
1368	    if (up == NULL) {
encoding.c:1368
1368	    if (up == NULL) {
upper = "HTML\000CII\000\061", '\000' <repeats 198 times>...
i = 4
1377	              xmlMalloc(sizeof(xmlCharEncodingHandler));
encoding.c:1377
1377	              xmlMalloc(sizeof(xmlCharEncodingHandler));
upper = "HTML\000CII\000\061", '\000' <repeats 198 times>...
i = 4
1376	    handler = (xmlCharEncodingHandlerPtr)
encoding.c:1376
1376	    handler = (xmlCharEncodingHandlerPtr)
upper = "HTML\000CII\000\061", '\000' <repeats 198 times>...
i = 4
[Inferior 1 (process 5110) exited with code 01]
