0x403e6b: file src/shuf.c, line 311.
src/shuf.c:311
311	      if (fwrite (p[0], sizeof *p[0], len, stdout) != len)
src/shuf.c:311
311	      if (fwrite (p[0], sizeof *p[0], len, stdout) != len)
n_lines = 41
len = 10
i = 0
313	    }
src/shuf.c:313
313	    }
n_lines = 41
len = 10
i = 0
307	  for (size_t i = 0; i < n_lines; i++)
src/shuf.c:307
307	  for (size_t i = 0; i < n_lines; i++)
n_lines = 41
i = 0
309	      char *const *p = line + permutation[i];
src/shuf.c:309
309	      char *const *p = line + permutation[i];
n_lines = 41
len = 10
i = 1
310	      size_t len = p[1] - p[0];
src/shuf.c:310
310	      size_t len = p[1] - p[0];
n_lines = 41
len = 10
i = 1
src/shuf.c:311
311	      if (fwrite (p[0], sizeof *p[0], len, stdout) != len)
src/shuf.c:311
311	      if (fwrite (p[0], sizeof *p[0], len, stdout) != len)
n_lines = 41
len = 54
i = 1
src/shuf.c:311
311	      if (fwrite (p[0], sizeof *p[0], len, stdout) != len)
src/shuf.c:311
311	      if (fwrite (p[0], sizeof *p[0], len, stdout) != len)
n_lines = 41
len = 35
i = 2
313	    }
src/shuf.c:313
313	    }
n_lines = 41
len = 35
i = 2
307	  for (size_t i = 0; i < n_lines; i++)
src/shuf.c:307
307	  for (size_t i = 0; i < n_lines; i++)
n_lines = 41
i = 2
309	      char *const *p = line + permutation[i];
src/shuf.c:309
309	      char *const *p = line + permutation[i];
n_lines = 41
len = 35
i = 3
310	      size_t len = p[1] - p[0];
src/shuf.c:310
310	      size_t len = p[1] - p[0];
n_lines = 41
len = 35
i = 3
src/shuf.c:311
311	      if (fwrite (p[0], sizeof *p[0], len, stdout) != len)
src/shuf.c:311
311	      if (fwrite (p[0], sizeof *p[0], len, stdout) != len)
n_lines = 41
len = 47
i = 3
src/shuf.c:311
311	      if (fwrite (p[0], sizeof *p[0], len, stdout) != len)
src/shuf.c:311
311	      if (fwrite (p[0], sizeof *p[0], len, stdout) != len)
n_lines = 41
len = 8
i = 4
313	    }
src/shuf.c:313
313	    }
n_lines = 41
len = 8
i = 4
307	  for (size_t i = 0; i < n_lines; i++)
src/shuf.c:307
307	  for (size_t i = 0; i < n_lines; i++)
n_lines = 41
i = 4
309	      char *const *p = line + permutation[i];
src/shuf.c:309
309	      char *const *p = line + permutation[i];
n_lines = 41
len = 8
i = 5
310	      size_t len = p[1] - p[0];
src/shuf.c:310
310	      size_t len = p[1] - p[0];
n_lines = 41
len = 8
i = 5
src/shuf.c:311
311	      if (fwrite (p[0], sizeof *p[0], len, stdout) != len)
src/shuf.c:311
311	      if (fwrite (p[0], sizeof *p[0], len, stdout) != len)
n_lines = 41
len = 23
i = 5
src/shuf.c:311
311	      if (fwrite (p[0], sizeof *p[0], len, stdout) != len)
src/shuf.c:311
311	      if (fwrite (p[0], sizeof *p[0], len, stdout) != len)
n_lines = 41
len = 29
i = 6
313	    }
src/shuf.c:313
313	    }
n_lines = 41
len = 29
i = 6
307	  for (size_t i = 0; i < n_lines; i++)
src/shuf.c:307
307	  for (size_t i = 0; i < n_lines; i++)
n_lines = 41
i = 6
309	      char *const *p = line + permutation[i];
src/shuf.c:309
309	      char *const *p = line + permutation[i];
n_lines = 41
len = 29
i = 7
310	      size_t len = p[1] - p[0];
src/shuf.c:310
310	      size_t len = p[1] - p[0];
n_lines = 41
len = 29
i = 7
src/shuf.c:311
311	      if (fwrite (p[0], sizeof *p[0], len, stdout) != len)
src/shuf.c:311
311	      if (fwrite (p[0], sizeof *p[0], len, stdout) != len)
n_lines = 41
len = 36
i = 7
src/shuf.c:311
311	      if (fwrite (p[0], sizeof *p[0], len, stdout) != len)
src/shuf.c:311
311	      if (fwrite (p[0], sizeof *p[0], len, stdout) != len)
n_lines = 41
len = 20
i = 8
313	    }
src/shuf.c:313
313	    }
n_lines = 41
len = 20
i = 8
307	  for (size_t i = 0; i < n_lines; i++)
src/shuf.c:307
307	  for (size_t i = 0; i < n_lines; i++)
n_lines = 41
i = 8
309	      char *const *p = line + permutation[i];
src/shuf.c:309
309	      char *const *p = line + permutation[i];
n_lines = 41
len = 20
i = 9
310	      size_t len = p[1] - p[0];
src/shuf.c:310
310	      size_t len = p[1] - p[0];
n_lines = 41
len = 20
i = 9
src/shuf.c:311
311	      if (fwrite (p[0], sizeof *p[0], len, stdout) != len)
src/shuf.c:311
311	      if (fwrite (p[0], sizeof *p[0], len, stdout) != len)
n_lines = 41
len = 50
i = 9
src/shuf.c:311
311	      if (fwrite (p[0], sizeof *p[0], len, stdout) != len)
src/shuf.c:311
311	      if (fwrite (p[0], sizeof *p[0], len, stdout) != len)
n_lines = 41
len = 11
i = 10
313	    }
src/shuf.c:313
313	    }
n_lines = 41
len = 11
i = 10
307	  for (size_t i = 0; i < n_lines; i++)
src/shuf.c:307
307	  for (size_t i = 0; i < n_lines; i++)
n_lines = 41
i = 10
309	      char *const *p = line + permutation[i];
src/shuf.c:309
309	      char *const *p = line + permutation[i];
n_lines = 41
len = 11
i = 11
310	      size_t len = p[1] - p[0];
src/shuf.c:310
310	      size_t len = p[1] - p[0];
n_lines = 41
len = 11
i = 11
src/shuf.c:311
311	      if (fwrite (p[0], sizeof *p[0], len, stdout) != len)
src/shuf.c:311
311	      if (fwrite (p[0], sizeof *p[0], len, stdout) != len)
n_lines = 41
len = 48
i = 11
src/shuf.c:311
311	      if (fwrite (p[0], sizeof *p[0], len, stdout) != len)
src/shuf.c:311
311	      if (fwrite (p[0], sizeof *p[0], len, stdout) != len)
n_lines = 41
len = 54
i = 12
313	    }
src/shuf.c:313
313	    }
n_lines = 41
len = 54
i = 12
307	  for (size_t i = 0; i < n_lines; i++)
src/shuf.c:307
307	  for (size_t i = 0; i < n_lines; i++)
n_lines = 41
i = 12
309	      char *const *p = line + permutation[i];
src/shuf.c:309
309	      char *const *p = line + permutation[i];
n_lines = 41
len = 54
i = 13
310	      size_t len = p[1] - p[0];
src/shuf.c:310
310	      size_t len = p[1] - p[0];
n_lines = 41
len = 54
i = 13
src/shuf.c:311
311	      if (fwrite (p[0], sizeof *p[0], len, stdout) != len)
src/shuf.c:311
311	      if (fwrite (p[0], sizeof *p[0], len, stdout) != len)
n_lines = 41
len = 31
i = 13
src/shuf.c:311
311	      if (fwrite (p[0], sizeof *p[0], len, stdout) != len)
src/shuf.c:311
311	      if (fwrite (p[0], sizeof *p[0], len, stdout) != len)
n_lines = 41
len = 13
i = 14
313	    }
src/shuf.c:313
313	    }
n_lines = 41
len = 13
i = 14
307	  for (size_t i = 0; i < n_lines; i++)
src/shuf.c:307
307	  for (size_t i = 0; i < n_lines; i++)
n_lines = 41
i = 14
309	      char *const *p = line + permutation[i];
src/shuf.c:309
309	      char *const *p = line + permutation[i];
n_lines = 41
len = 13
i = 15
310	      size_t len = p[1] - p[0];
src/shuf.c:310
310	      size_t len = p[1] - p[0];
n_lines = 41
len = 13
i = 15
src/shuf.c:311
311	      if (fwrite (p[0], sizeof *p[0], len, stdout) != len)
src/shuf.c:311
311	      if (fwrite (p[0], sizeof *p[0], len, stdout) != len)
n_lines = 41
len = 60
i = 15
src/shuf.c:311
311	      if (fwrite (p[0], sizeof *p[0], len, stdout) != len)
src/shuf.c:311
311	      if (fwrite (p[0], sizeof *p[0], len, stdout) != len)
n_lines = 41
len = 33
i = 16
313	    }
src/shuf.c:313
313	    }
n_lines = 41
len = 33
i = 16
307	  for (size_t i = 0; i < n_lines; i++)
src/shuf.c:307
307	  for (size_t i = 0; i < n_lines; i++)
n_lines = 41
i = 16
309	      char *const *p = line + permutation[i];
src/shuf.c:309
309	      char *const *p = line + permutation[i];
n_lines = 41
len = 33
i = 17
310	      size_t len = p[1] - p[0];
src/shuf.c:310
310	      size_t len = p[1] - p[0];
n_lines = 41
len = 33
i = 17
src/shuf.c:311
311	      if (fwrite (p[0], sizeof *p[0], len, stdout) != len)
src/shuf.c:311
311	      if (fwrite (p[0], sizeof *p[0], len, stdout) != len)
n_lines = 41
len = 43
i = 17
src/shuf.c:311
311	      if (fwrite (p[0], sizeof *p[0], len, stdout) != len)
src/shuf.c:311
311	      if (fwrite (p[0], sizeof *p[0], len, stdout) != len)
n_lines = 41
len = 31
i = 18
313	    }
src/shuf.c:313
313	    }
n_lines = 41
len = 31
i = 18
307	  for (size_t i = 0; i < n_lines; i++)
src/shuf.c:307
307	  for (size_t i = 0; i < n_lines; i++)
n_lines = 41
i = 18
309	      char *const *p = line + permutation[i];
src/shuf.c:309
309	      char *const *p = line + permutation[i];
n_lines = 41
len = 31
i = 19
310	      size_t len = p[1] - p[0];
src/shuf.c:310
310	      size_t len = p[1] - p[0];
n_lines = 41
len = 31
i = 19
src/shuf.c:311
311	      if (fwrite (p[0], sizeof *p[0], len, stdout) != len)
src/shuf.c:311
311	      if (fwrite (p[0], sizeof *p[0], len, stdout) != len)
n_lines = 41
len = 38
i = 19
src/shuf.c:311
311	      if (fwrite (p[0], sizeof *p[0], len, stdout) != len)
src/shuf.c:311
311	      if (fwrite (p[0], sizeof *p[0], len, stdout) != len)
n_lines = 41
len = 40
i = 20
313	    }
src/shuf.c:313
313	    }
n_lines = 41
len = 40
i = 20
307	  for (size_t i = 0; i < n_lines; i++)
src/shuf.c:307
307	  for (size_t i = 0; i < n_lines; i++)
n_lines = 41
i = 20
309	      char *const *p = line + permutation[i];
src/shuf.c:309
309	      char *const *p = line + permutation[i];
n_lines = 41
len = 40
i = 21
310	      size_t len = p[1] - p[0];
src/shuf.c:310
310	      size_t len = p[1] - p[0];
n_lines = 41
len = 40
i = 21
src/shuf.c:311
311	      if (fwrite (p[0], sizeof *p[0], len, stdout) != len)
src/shuf.c:311
311	      if (fwrite (p[0], sizeof *p[0], len, stdout) != len)
n_lines = 41
len = 39
i = 21
src/shuf.c:311
311	      if (fwrite (p[0], sizeof *p[0], len, stdout) != len)
src/shuf.c:311
311	      if (fwrite (p[0], sizeof *p[0], len, stdout) != len)
n_lines = 41
len = 45
i = 22
313	    }
src/shuf.c:313
313	    }
n_lines = 41
len = 45
i = 22
307	  for (size_t i = 0; i < n_lines; i++)
src/shuf.c:307
307	  for (size_t i = 0; i < n_lines; i++)
n_lines = 41
i = 22
309	      char *const *p = line + permutation[i];
src/shuf.c:309
309	      char *const *p = line + permutation[i];
n_lines = 41
len = 45
i = 23
310	      size_t len = p[1] - p[0];
src/shuf.c:310
310	      size_t len = p[1] - p[0];
n_lines = 41
len = 45
i = 23
src/shuf.c:311
311	      if (fwrite (p[0], sizeof *p[0], len, stdout) != len)
src/shuf.c:311
311	      if (fwrite (p[0], sizeof *p[0], len, stdout) != len)
n_lines = 41
len = 20
i = 23
src/shuf.c:311
311	      if (fwrite (p[0], sizeof *p[0], len, stdout) != len)
src/shuf.c:311
311	      if (fwrite (p[0], sizeof *p[0], len, stdout) != len)
n_lines = 41
len = 42
i = 24
313	    }
src/shuf.c:313
313	    }
n_lines = 41
len = 42
i = 24
307	  for (size_t i = 0; i < n_lines; i++)
src/shuf.c:307
307	  for (size_t i = 0; i < n_lines; i++)
n_lines = 41
i = 24
309	      char *const *p = line + permutation[i];
src/shuf.c:309
309	      char *const *p = line + permutation[i];
n_lines = 41
len = 42
i = 25
310	      size_t len = p[1] - p[0];
src/shuf.c:310
310	      size_t len = p[1] - p[0];
n_lines = 41
len = 42
i = 25
src/shuf.c:311
311	      if (fwrite (p[0], sizeof *p[0], len, stdout) != len)
src/shuf.c:311
311	      if (fwrite (p[0], sizeof *p[0], len, stdout) != len)
n_lines = 41
len = 47
i = 25
src/shuf.c:311
311	      if (fwrite (p[0], sizeof *p[0], len, stdout) != len)
src/shuf.c:311
311	      if (fwrite (p[0], sizeof *p[0], len, stdout) != len)
n_lines = 41
len = 23
i = 26
313	    }
src/shuf.c:313
313	    }
n_lines = 41
len = 23
i = 26
307	  for (size_t i = 0; i < n_lines; i++)
src/shuf.c:307
307	  for (size_t i = 0; i < n_lines; i++)
n_lines = 41
i = 26
309	      char *const *p = line + permutation[i];
src/shuf.c:309
309	      char *const *p = line + permutation[i];
n_lines = 41
len = 23
i = 27
310	      size_t len = p[1] - p[0];
src/shuf.c:310
310	      size_t len = p[1] - p[0];
n_lines = 41
len = 23
i = 27
src/shuf.c:311
311	      if (fwrite (p[0], sizeof *p[0], len, stdout) != len)
src/shuf.c:311
311	      if (fwrite (p[0], sizeof *p[0], len, stdout) != len)
n_lines = 41
len = 29
i = 27
src/shuf.c:311
311	      if (fwrite (p[0], sizeof *p[0], len, stdout) != len)
src/shuf.c:311
311	      if (fwrite (p[0], sizeof *p[0], len, stdout) != len)
n_lines = 41
len = 46
i = 28
313	    }
src/shuf.c:313
313	    }
n_lines = 41
len = 46
i = 28
307	  for (size_t i = 0; i < n_lines; i++)
src/shuf.c:307
307	  for (size_t i = 0; i < n_lines; i++)
n_lines = 41
i = 28
309	      char *const *p = line + permutation[i];
src/shuf.c:309
309	      char *const *p = line + permutation[i];
n_lines = 41
len = 46
i = 29
310	      size_t len = p[1] - p[0];
src/shuf.c:310
310	      size_t len = p[1] - p[0];
n_lines = 41
len = 46
i = 29
src/shuf.c:311
311	      if (fwrite (p[0], sizeof *p[0], len, stdout) != len)
src/shuf.c:311
311	      if (fwrite (p[0], sizeof *p[0], len, stdout) != len)
n_lines = 41
len = 35
i = 29
src/shuf.c:311
311	      if (fwrite (p[0], sizeof *p[0], len, stdout) != len)
src/shuf.c:311
311	      if (fwrite (p[0], sizeof *p[0], len, stdout) != len)
n_lines = 41
len = 7
i = 30
313	    }
src/shuf.c:313
313	    }
n_lines = 41
len = 7
i = 30
307	  for (size_t i = 0; i < n_lines; i++)
src/shuf.c:307
307	  for (size_t i = 0; i < n_lines; i++)
n_lines = 41
i = 30
309	      char *const *p = line + permutation[i];
src/shuf.c:309
309	      char *const *p = line + permutation[i];
n_lines = 41
len = 7
i = 31
310	      size_t len = p[1] - p[0];
src/shuf.c:310
310	      size_t len = p[1] - p[0];
n_lines = 41
len = 7
i = 31
src/shuf.c:311
311	      if (fwrite (p[0], sizeof *p[0], len, stdout) != len)
src/shuf.c:311
311	      if (fwrite (p[0], sizeof *p[0], len, stdout) != len)
n_lines = 41
len = 26
i = 31
src/shuf.c:311
311	      if (fwrite (p[0], sizeof *p[0], len, stdout) != len)
src/shuf.c:311
311	      if (fwrite (p[0], sizeof *p[0], len, stdout) != len)
n_lines = 41
len = 9
i = 32
313	    }
src/shuf.c:313
313	    }
n_lines = 41
len = 9
i = 32
307	  for (size_t i = 0; i < n_lines; i++)
src/shuf.c:307
307	  for (size_t i = 0; i < n_lines; i++)
n_lines = 41
i = 32
309	      char *const *p = line + permutation[i];
src/shuf.c:309
309	      char *const *p = line + permutation[i];
n_lines = 41
len = 9
i = 33
310	      size_t len = p[1] - p[0];
src/shuf.c:310
310	      size_t len = p[1] - p[0];
n_lines = 41
len = 9
i = 33
src/shuf.c:311
311	      if (fwrite (p[0], sizeof *p[0], len, stdout) != len)
src/shuf.c:311
311	      if (fwrite (p[0], sizeof *p[0], len, stdout) != len)
n_lines = 41
len = 28
i = 33
src/shuf.c:311
311	      if (fwrite (p[0], sizeof *p[0], len, stdout) != len)
src/shuf.c:311
311	      if (fwrite (p[0], sizeof *p[0], len, stdout) != len)
n_lines = 41
len = 36
i = 34
313	    }
src/shuf.c:313
313	    }
n_lines = 41
len = 36
i = 34
307	  for (size_t i = 0; i < n_lines; i++)
src/shuf.c:307
307	  for (size_t i = 0; i < n_lines; i++)
n_lines = 41
i = 34
309	      char *const *p = line + permutation[i];
src/shuf.c:309
309	      char *const *p = line + permutation[i];
n_lines = 41
len = 36
i = 35
310	      size_t len = p[1] - p[0];
src/shuf.c:310
310	      size_t len = p[1] - p[0];
n_lines = 41
len = 36
i = 35
src/shuf.c:311
311	      if (fwrite (p[0], sizeof *p[0], len, stdout) != len)
src/shuf.c:311
311	      if (fwrite (p[0], sizeof *p[0], len, stdout) != len)
n_lines = 41
len = 42
i = 35
src/shuf.c:311
311	      if (fwrite (p[0], sizeof *p[0], len, stdout) != len)
src/shuf.c:311
311	      if (fwrite (p[0], sizeof *p[0], len, stdout) != len)
n_lines = 41
len = 24
i = 36
313	    }
src/shuf.c:313
313	    }
n_lines = 41
len = 24
i = 36
307	  for (size_t i = 0; i < n_lines; i++)
src/shuf.c:307
307	  for (size_t i = 0; i < n_lines; i++)
n_lines = 41
i = 36
309	      char *const *p = line + permutation[i];
src/shuf.c:309
309	      char *const *p = line + permutation[i];
n_lines = 41
len = 24
i = 37
310	      size_t len = p[1] - p[0];
src/shuf.c:310
310	      size_t len = p[1] - p[0];
n_lines = 41
len = 24
i = 37
src/shuf.c:311
311	      if (fwrite (p[0], sizeof *p[0], len, stdout) != len)
src/shuf.c:311
311	      if (fwrite (p[0], sizeof *p[0], len, stdout) != len)
n_lines = 41
len = 12
i = 37
src/shuf.c:311
311	      if (fwrite (p[0], sizeof *p[0], len, stdout) != len)
src/shuf.c:311
311	      if (fwrite (p[0], sizeof *p[0], len, stdout) != len)
n_lines = 41
len = 18
i = 38
313	    }
src/shuf.c:313
313	    }
n_lines = 41
len = 18
i = 38
307	  for (size_t i = 0; i < n_lines; i++)
src/shuf.c:307
307	  for (size_t i = 0; i < n_lines; i++)
n_lines = 41
i = 38
309	      char *const *p = line + permutation[i];
src/shuf.c:309
309	      char *const *p = line + permutation[i];
n_lines = 41
len = 18
i = 39
310	      size_t len = p[1] - p[0];
src/shuf.c:310
310	      size_t len = p[1] - p[0];
n_lines = 41
len = 18
i = 39
src/shuf.c:311
311	      if (fwrite (p[0], sizeof *p[0], len, stdout) != len)
src/shuf.c:311
311	      if (fwrite (p[0], sizeof *p[0], len, stdout) != len)
n_lines = 41
len = 41
i = 39
src/shuf.c:311
311	      if (fwrite (p[0], sizeof *p[0], len, stdout) != len)
src/shuf.c:311
311	      if (fwrite (p[0], sizeof *p[0], len, stdout) != len)
n_lines = 41
len = 21
i = 40
313	    }
src/shuf.c:313
313	    }
n_lines = 41
len = 21
i = 40
307	  for (size_t i = 0; i < n_lines; i++)
src/shuf.c:307
307	  for (size_t i = 0; i < n_lines; i++)
n_lines = 41
i = 40
315	  return 0;
src/shuf.c:315
315	  return 0;
n_lines = 41
No locals.
316	}
src/shuf.c:316
316	}
n_lines = 41
No locals.
src/shuf.c:595
595	  if (i != 0)
src/shuf.c:595
595	  if (i != 0)
argc = 4
echo = false
input_range = false
lo_input = 18446744073709551615
hi_input = 0
head_lines = 18446744073709551615
eolbyte = 10 '\n'
use_reservoir_sampling = false
= false
optc = -1
n_operands = 1
n_lines = 41
i = 0
ahead_lines = 41
    </oX>
          <N courage="special">-919862943.3066909</N>
    <G religious="horse">J2BUd</G>
          <qh6pi from="leaving">)UB}5$</qh6pi>
</root>
      <Ma8>?z{1\</Ma8>
    <zFld1>447929656</zFld1>
        <n theory="represent">5</n>
    <jf5>`i+l</jf5>
      <Dy_dvk women="receive">C hJw}W{S]</Dy_dvk>
      </O>
      <lFc0C4-W05 future="half">~j</lFc0C4-W05>
      <sE forgotten="distance">1728256145.438043</sE>
    <gk is="discovery">r3</gk>
        </j>
          <UiVB3oiUPX load="speech">X7\BLX9ge@</UiVB3oiUPX>
        <L62qTRe play="rabbit"/>
          <x0Vh>-1123570460.5906513</x0Vh>
          <WRY>09{\MPfDg</WRY>
          <ghIRpF57rn>OJ</ghIRpF57rn>
      <Zit-GCiv4d>=atvU|2w</Zit-GCiv4d>
        <s85hUdgX>951169982</s85hUdgX>
        <URBxeio exactly="waste">2</URBxeio>
    <oX pile="hit">
          <EHR-OdOz>~ECz |#fi+</EHR-OdOz>
      <Y3UvO6Tqo ready="mice">X!@Q</Y3UvO6Tqo>
        <X> Gml62H</X>
    <t0VWFc>S.MEay%</t0VWFc>
        <kUM baby="progress">"@5xmXSL)0</kUM>
          <UN-4a>ocka6Y:2C</UN-4a>
<root>
      <O adult="captain">
  </Let>
  <bczWFw9c>kuXJ</bczWFw9c>
    <u satisfied="service">zWPh</u>
    <jc-6z toy="forgot">446718912</jc-6z>
      <b>-388540848</b>
        <j>
  <b>'},{[.8O</b>
        <TF3 send="dug">-832737649</TF3>
  <Let heavy="from">
