Breakpoint 1 at 0x4539e0: file sqlite3.c, line 103734.
[Thread debugging using libthread_db enabled]
Using host libthread_db library "/lib/x86_64-linux-gnu/libthread_db.so.1".

Breakpoint 1, sqlite3ExprDelete (db=0x50f2d8, p=0x51d178) at sqlite3.c:103734
103734	  if( p ) sqlite3ExprDeleteNN(db, p);
#0  sqlite3ExprDelete (db=0x50f2d8, p=0x51d178) at sqlite3.c:103734
103734	  if( p ) sqlite3ExprDeleteNN(db, p);
db = 0x50f2d8
p = 0x51d178
No locals.
103735	}
#0  sqlite3ExprDelete (db=0x50f2d8, p=0x51d178) at sqlite3.c:103735
103735	}
db = 0x50f2d8
p = 0x51d178
No locals.
exprListDeleteNN (db=0x50f2d8, pList=0x51d0f8) at sqlite3.c:104510
104510	    sqlite3DbFree(db, pItem->zEName);
#0  exprListDeleteNN (db=0x50f2d8, pList=0x51d0f8) at sqlite3.c:104510
104510	    sqlite3DbFree(db, pItem->zEName);
db = 0x50f2d8
pList = 0x51d0f8
i = 1
pItem = 0x51d100
104511	    pItem++;
#0  exprListDeleteNN (db=0x50f2d8, pList=0x51d0f8) at sqlite3.c:104511
104511	    pItem++;
db = 0x50f2d8
pList = 0x51d0f8
i = 1
pItem = 0x51d100
104512	  }while( --i>0 );
#0  exprListDeleteNN (db=0x50f2d8, pList=0x51d0f8) at sqlite3.c:104512
104512	  }while( --i>0 );
db = 0x50f2d8
pList = 0x51d0f8
i = 1
pItem = 0x51d118
104513	  sqlite3DbFreeNN(db, pList);
#0  exprListDeleteNN (db=0x50f2d8, pList=0x51d0f8) at sqlite3.c:104513
104513	  sqlite3DbFreeNN(db, pList);
db = 0x50f2d8
pList = 0x51d0f8
i = 0
pItem = 0x51d118
104514	}
#0  exprListDeleteNN (db=0x50f2d8, pList=0x51d0f8) at sqlite3.c:104514
104514	}
db = 0x50f2d8
pList = 0x51d0f8
i = 0
pItem = 0x51d118
sqlite3ExprListDelete (db=0x50f2d8, pList=0x51d0f8) at sqlite3.c:104517
104517	}
#0  sqlite3ExprListDelete (db=0x50f2d8, pList=0x51d0f8) at sqlite3.c:104517
104517	}
db = 0x50f2d8
pList = 0x51d0f8
No locals.

Breakpoint 1, sqlite3ExprDelete (db=0x50f2d8, p=0x0) at sqlite3.c:103734
103734	  if( p ) sqlite3ExprDeleteNN(db, p);
#0  sqlite3ExprDelete (db=0x50f2d8, p=0x0) at sqlite3.c:103734
103734	  if( p ) sqlite3ExprDeleteNN(db, p);
db = 0x50f2d8
p = 0x0
No locals.
103735	}
#0  sqlite3ExprDelete (db=0x50f2d8, p=0x0) at sqlite3.c:103735
103735	}
db = 0x50f2d8
p = 0x0
No locals.
lookupName (pParse=0x7fffffffbf38, zDb=0x0, zTab=0x0, zCol=0x51cdc0 "type", pNC=0x7fffffffab68, pExpr=0x51cd78) at sqlite3.c:101076
101076	    pExpr->pLeft = 0;
#0  lookupName (pParse=0x7fffffffbf38, zDb=0x0, zTab=0x0, zCol=0x51cdc0 "type", pNC=0x7fffffffab68, pExpr=0x51cd78) at sqlite3.c:101076
101076	    pExpr->pLeft = 0;
pParse = 0x7fffffffbf38
zDb = 0x0
zTab = 0x0
zCol = 0x51cdc0 "type"
pNC = 0x7fffffffab68
pExpr = 0x51cd78
i = 1
j = 0
cnt = 1
cntTab = 0
nSubquery = 0
db = 0x50f2d8
pItem = 0x51d0f0
pMatch = 0x51d080
pTopNC = 0x7fffffffab68
pSchema = 0x511578
eNewExprOp = 167
pTab = 0x51e1d8
pCol = 0x51e388
101077	    sqlite3ExprDelete(db, pExpr->pRight);
#0  lookupName (pParse=0x7fffffffbf38, zDb=0x0, zTab=0x0, zCol=0x51cdc0 "type", pNC=0x7fffffffab68, pExpr=0x51cd78) at sqlite3.c:101077
101077	    sqlite3ExprDelete(db, pExpr->pRight);
pParse = 0x7fffffffbf38
zDb = 0x0
zTab = 0x0
zCol = 0x51cdc0 "type"
pNC = 0x7fffffffab68
pExpr = 0x51cd78
i = 1
j = 0
cnt = 1
cntTab = 0
nSubquery = 0
db = 0x50f2d8
pItem = 0x51d0f0
pMatch = 0x51d080
pTopNC = 0x7fffffffab68
pSchema = 0x511578
eNewExprOp = 167
pTab = 0x51e1d8
pCol = 0x51e388

Breakpoint 1, sqlite3ExprDelete (db=0x50f2d8, p=0x0) at sqlite3.c:103734
103734	  if( p ) sqlite3ExprDeleteNN(db, p);
#0  sqlite3ExprDelete (db=0x50f2d8, p=0x0) at sqlite3.c:103734
103734	  if( p ) sqlite3ExprDeleteNN(db, p);
db = 0x50f2d8
p = 0x0
No locals.
103735	}
#0  sqlite3ExprDelete (db=0x50f2d8, p=0x0) at sqlite3.c:103735
103735	}
db = 0x50f2d8
p = 0x0
No locals.
lookupName (pParse=0x7fffffffbf38, zDb=0x0, zTab=0x0, zCol=0x51cdc0 "type", pNC=0x7fffffffab68, pExpr=0x51cd78) at sqlite3.c:101078
101078	    pExpr->pRight = 0;
#0  lookupName (pParse=0x7fffffffbf38, zDb=0x0, zTab=0x0, zCol=0x51cdc0 "type", pNC=0x7fffffffab68, pExpr=0x51cd78) at sqlite3.c:101078
101078	    pExpr->pRight = 0;
pParse = 0x7fffffffbf38
zDb = 0x0
zTab = 0x0
zCol = 0x51cdc0 "type"
pNC = 0x7fffffffab68
pExpr = 0x51cd78
i = 1
j = 0
cnt = 1
cntTab = 0
nSubquery = 0
db = 0x50f2d8
pItem = 0x51d0f0
pMatch = 0x51d080
pTopNC = 0x7fffffffab68
pSchema = 0x511578
eNewExprOp = 167
pTab = 0x51e1d8
pCol = 0x51e388
101080	  pExpr->op = eNewExprOp;
#0  lookupName (pParse=0x7fffffffbf38, zDb=0x0, zTab=0x0, zCol=0x51cdc0 "type", pNC=0x7fffffffab68, pExpr=0x51cd78) at sqlite3.c:101080
101080	  pExpr->op = eNewExprOp;
pParse = 0x7fffffffbf38
zDb = 0x0
zTab = 0x0
zCol = 0x51cdc0 "type"
pNC = 0x7fffffffab68
pExpr = 0x51cd78
i = 1
j = 0
cnt = 1
cntTab = 0
nSubquery = 0
db = 0x50f2d8
pItem = 0x51d0f0
pMatch = 0x51d080
pTopNC = 0x7fffffffab68
pSchema = 0x511578
eNewExprOp = 167
pTab = 0x51e1d8
pCol = 0x51e388

Breakpoint 1, sqlite3ExprDelete (db=0x50f2d8, p=0x0) at sqlite3.c:103734
103734	  if( p ) sqlite3ExprDeleteNN(db, p);
#0  sqlite3ExprDelete (db=0x50f2d8, p=0x0) at sqlite3.c:103734
103734	  if( p ) sqlite3ExprDeleteNN(db, p);
db = 0x50f2d8
p = 0x0
No locals.
103735	}
#0  sqlite3ExprDelete (db=0x50f2d8, p=0x0) at sqlite3.c:103735
103735	}
db = 0x50f2d8
p = 0x0
No locals.
lookupName (pParse=0x7fffffffbf38, zDb=0x0, zTab=0x0, zCol=0x51cc40 "name", pNC=0x7fffffffab68, pExpr=0x51cbf8) at sqlite3.c:101076
101076	    pExpr->pLeft = 0;
#0  lookupName (pParse=0x7fffffffbf38, zDb=0x0, zTab=0x0, zCol=0x51cc40 "name", pNC=0x7fffffffab68, pExpr=0x51cbf8) at sqlite3.c:101076
101076	    pExpr->pLeft = 0;
pParse = 0x7fffffffbf38
zDb = 0x0
zTab = 0x0
zCol = 0x51cc40 "name"
pNC = 0x7fffffffab68
pExpr = 0x51cbf8
i = 1
j = 1
cnt = 1
cntTab = 0
nSubquery = 0
db = 0x50f2d8
pItem = 0x51d0f0
pMatch = 0x51d080
pTopNC = 0x7fffffffab68
pSchema = 0x511578
eNewExprOp = 167
pTab = 0x51e1d8
pCol = 0x51e398
101077	    sqlite3ExprDelete(db, pExpr->pRight);
#0  lookupName (pParse=0x7fffffffbf38, zDb=0x0, zTab=0x0, zCol=0x51cc40 "name", pNC=0x7fffffffab68, pExpr=0x51cbf8) at sqlite3.c:101077
101077	    sqlite3ExprDelete(db, pExpr->pRight);
pParse = 0x7fffffffbf38
zDb = 0x0
zTab = 0x0
zCol = 0x51cc40 "name"
pNC = 0x7fffffffab68
pExpr = 0x51cbf8
i = 1
j = 1
cnt = 1
cntTab = 0
nSubquery = 0
db = 0x50f2d8
pItem = 0x51d0f0
pMatch = 0x51d080
pTopNC = 0x7fffffffab68
pSchema = 0x511578
eNewExprOp = 167
pTab = 0x51e1d8
pCol = 0x51e398

Breakpoint 1, sqlite3ExprDelete (db=0x50f2d8, p=0x0) at sqlite3.c:103734
103734	  if( p ) sqlite3ExprDeleteNN(db, p);
#0  sqlite3ExprDelete (db=0x50f2d8, p=0x0) at sqlite3.c:103734
103734	  if( p ) sqlite3ExprDeleteNN(db, p);
db = 0x50f2d8
p = 0x0
No locals.
103735	}
#0  sqlite3ExprDelete (db=0x50f2d8, p=0x0) at sqlite3.c:103735
103735	}
db = 0x50f2d8
p = 0x0
No locals.
lookupName (pParse=0x7fffffffbf38, zDb=0x0, zTab=0x0, zCol=0x51cc40 "name", pNC=0x7fffffffab68, pExpr=0x51cbf8) at sqlite3.c:101078
101078	    pExpr->pRight = 0;
#0  lookupName (pParse=0x7fffffffbf38, zDb=0x0, zTab=0x0, zCol=0x51cc40 "name", pNC=0x7fffffffab68, pExpr=0x51cbf8) at sqlite3.c:101078
101078	    pExpr->pRight = 0;
pParse = 0x7fffffffbf38
zDb = 0x0
zTab = 0x0
zCol = 0x51cc40 "name"
pNC = 0x7fffffffab68
pExpr = 0x51cbf8
i = 1
j = 1
cnt = 1
cntTab = 0
nSubquery = 0
db = 0x50f2d8
pItem = 0x51d0f0
pMatch = 0x51d080
pTopNC = 0x7fffffffab68
pSchema = 0x511578
eNewExprOp = 167
pTab = 0x51e1d8
pCol = 0x51e398
101080	  pExpr->op = eNewExprOp;
#0  lookupName (pParse=0x7fffffffbf38, zDb=0x0, zTab=0x0, zCol=0x51cc40 "name", pNC=0x7fffffffab68, pExpr=0x51cbf8) at sqlite3.c:101080
101080	  pExpr->op = eNewExprOp;
pParse = 0x7fffffffbf38
zDb = 0x0
zTab = 0x0
zCol = 0x51cc40 "name"
pNC = 0x7fffffffab68
pExpr = 0x51cbf8
i = 1
j = 1
cnt = 1
cntTab = 0
nSubquery = 0
db = 0x50f2d8
pItem = 0x51d0f0
pMatch = 0x51d080
pTopNC = 0x7fffffffab68
pSchema = 0x511578
eNewExprOp = 167
pTab = 0x51e1d8
pCol = 0x51e398

Breakpoint 1, sqlite3ExprDelete (db=0x50f2d8, p=0x0) at sqlite3.c:103734
103734	  if( p ) sqlite3ExprDeleteNN(db, p);
#0  sqlite3ExprDelete (db=0x50f2d8, p=0x0) at sqlite3.c:103734
103734	  if( p ) sqlite3ExprDeleteNN(db, p);
db = 0x50f2d8
p = 0x0
No locals.
103735	}
#0  sqlite3ExprDelete (db=0x50f2d8, p=0x0) at sqlite3.c:103735
103735	}
db = 0x50f2d8
p = 0x0
No locals.
lookupName (pParse=0x7fffffffbf38, zDb=0x0, zTab=0x0, zCol=0x51cb40 "tbl_name", pNC=0x7fffffffab68, pExpr=0x51caf8) at sqlite3.c:101076
101076	    pExpr->pLeft = 0;
#0  lookupName (pParse=0x7fffffffbf38, zDb=0x0, zTab=0x0, zCol=0x51cb40 "tbl_name", pNC=0x7fffffffab68, pExpr=0x51caf8) at sqlite3.c:101076
101076	    pExpr->pLeft = 0;
pParse = 0x7fffffffbf38
zDb = 0x0
zTab = 0x0
zCol = 0x51cb40 "tbl_name"
pNC = 0x7fffffffab68
pExpr = 0x51caf8
i = 1
j = 2
cnt = 1
cntTab = 0
nSubquery = 0
db = 0x50f2d8
pItem = 0x51d0f0
pMatch = 0x51d080
pTopNC = 0x7fffffffab68
pSchema = 0x511578
eNewExprOp = 167
pTab = 0x51e1d8
pCol = 0x51e3a8
101077	    sqlite3ExprDelete(db, pExpr->pRight);
#0  lookupName (pParse=0x7fffffffbf38, zDb=0x0, zTab=0x0, zCol=0x51cb40 "tbl_name", pNC=0x7fffffffab68, pExpr=0x51caf8) at sqlite3.c:101077
101077	    sqlite3ExprDelete(db, pExpr->pRight);
pParse = 0x7fffffffbf38
zDb = 0x0
zTab = 0x0
zCol = 0x51cb40 "tbl_name"
pNC = 0x7fffffffab68
pExpr = 0x51caf8
i = 1
j = 2
cnt = 1
cntTab = 0
nSubquery = 0
db = 0x50f2d8
pItem = 0x51d0f0
pMatch = 0x51d080
pTopNC = 0x7fffffffab68
pSchema = 0x511578
eNewExprOp = 167
pTab = 0x51e1d8
pCol = 0x51e3a8

Breakpoint 1, sqlite3ExprDelete (db=0x50f2d8, p=0x0) at sqlite3.c:103734
103734	  if( p ) sqlite3ExprDeleteNN(db, p);
#0  sqlite3ExprDelete (db=0x50f2d8, p=0x0) at sqlite3.c:103734
103734	  if( p ) sqlite3ExprDeleteNN(db, p);
db = 0x50f2d8
p = 0x0
No locals.
103735	}
#0  sqlite3ExprDelete (db=0x50f2d8, p=0x0) at sqlite3.c:103735
103735	}
db = 0x50f2d8
p = 0x0
No locals.
lookupName (pParse=0x7fffffffbf38, zDb=0x0, zTab=0x0, zCol=0x51cb40 "tbl_name", pNC=0x7fffffffab68, pExpr=0x51caf8) at sqlite3.c:101078
101078	    pExpr->pRight = 0;
#0  lookupName (pParse=0x7fffffffbf38, zDb=0x0, zTab=0x0, zCol=0x51cb40 "tbl_name", pNC=0x7fffffffab68, pExpr=0x51caf8) at sqlite3.c:101078
101078	    pExpr->pRight = 0;
pParse = 0x7fffffffbf38
zDb = 0x0
zTab = 0x0
zCol = 0x51cb40 "tbl_name"
pNC = 0x7fffffffab68
pExpr = 0x51caf8
i = 1
j = 2
cnt = 1
cntTab = 0
nSubquery = 0
db = 0x50f2d8
pItem = 0x51d0f0
pMatch = 0x51d080
pTopNC = 0x7fffffffab68
pSchema = 0x511578
eNewExprOp = 167
pTab = 0x51e1d8
pCol = 0x51e3a8
101080	  pExpr->op = eNewExprOp;
#0  lookupName (pParse=0x7fffffffbf38, zDb=0x0, zTab=0x0, zCol=0x51cb40 "tbl_name", pNC=0x7fffffffab68, pExpr=0x51caf8) at sqlite3.c:101080
101080	  pExpr->op = eNewExprOp;
pParse = 0x7fffffffbf38
zDb = 0x0
zTab = 0x0
zCol = 0x51cb40 "tbl_name"
pNC = 0x7fffffffab68
pExpr = 0x51caf8
i = 1
j = 2
cnt = 1
cntTab = 0
nSubquery = 0
db = 0x50f2d8
pItem = 0x51d0f0
pMatch = 0x51d080
pTopNC = 0x7fffffffab68
pSchema = 0x511578
eNewExprOp = 167
pTab = 0x51e1d8
pCol = 0x51e3a8

Breakpoint 1, sqlite3ExprDelete (db=0x50f2d8, p=0x0) at sqlite3.c:103734
103734	  if( p ) sqlite3ExprDeleteNN(db, p);
#0  sqlite3ExprDelete (db=0x50f2d8, p=0x0) at sqlite3.c:103734
103734	  if( p ) sqlite3ExprDeleteNN(db, p);
db = 0x50f2d8
p = 0x0
No locals.
103735	}
#0  sqlite3ExprDelete (db=0x50f2d8, p=0x0) at sqlite3.c:103735
103735	}
db = 0x50f2d8
p = 0x0
No locals.
lookupName (pParse=0x7fffffffbf38, zDb=0x0, zTab=0x0, zCol=0x51ca40 "rootpage", pNC=0x7fffffffab68, pExpr=0x51c9f8) at sqlite3.c:101076
101076	    pExpr->pLeft = 0;
#0  lookupName (pParse=0x7fffffffbf38, zDb=0x0, zTab=0x0, zCol=0x51ca40 "rootpage", pNC=0x7fffffffab68, pExpr=0x51c9f8) at sqlite3.c:101076
101076	    pExpr->pLeft = 0;
pParse = 0x7fffffffbf38
zDb = 0x0
zTab = 0x0
zCol = 0x51ca40 "rootpage"
pNC = 0x7fffffffab68
pExpr = 0x51c9f8
i = 1
j = 3
cnt = 1
cntTab = 0
nSubquery = 0
db = 0x50f2d8
pItem = 0x51d0f0
pMatch = 0x51d080
pTopNC = 0x7fffffffab68
pSchema = 0x511578
eNewExprOp = 167
pTab = 0x51e1d8
pCol = 0x51e3b8
101077	    sqlite3ExprDelete(db, pExpr->pRight);
#0  lookupName (pParse=0x7fffffffbf38, zDb=0x0, zTab=0x0, zCol=0x51ca40 "rootpage", pNC=0x7fffffffab68, pExpr=0x51c9f8) at sqlite3.c:101077
101077	    sqlite3ExprDelete(db, pExpr->pRight);
pParse = 0x7fffffffbf38
zDb = 0x0
zTab = 0x0
zCol = 0x51ca40 "rootpage"
pNC = 0x7fffffffab68
pExpr = 0x51c9f8
i = 1
j = 3
cnt = 1
cntTab = 0
nSubquery = 0
db = 0x50f2d8
pItem = 0x51d0f0
pMatch = 0x51d080
pTopNC = 0x7fffffffab68
pSchema = 0x511578
eNewExprOp = 167
pTab = 0x51e1d8
pCol = 0x51e3b8

Breakpoint 1, sqlite3ExprDelete (db=0x50f2d8, p=0x0) at sqlite3.c:103734
103734	  if( p ) sqlite3ExprDeleteNN(db, p);
#0  sqlite3ExprDelete (db=0x50f2d8, p=0x0) at sqlite3.c:103734
103734	  if( p ) sqlite3ExprDeleteNN(db, p);
db = 0x50f2d8
p = 0x0
No locals.
103735	}
#0  sqlite3ExprDelete (db=0x50f2d8, p=0x0) at sqlite3.c:103735
103735	}
db = 0x50f2d8
p = 0x0
No locals.
lookupName (pParse=0x7fffffffbf38, zDb=0x0, zTab=0x0, zCol=0x51ca40 "rootpage", pNC=0x7fffffffab68, pExpr=0x51c9f8) at sqlite3.c:101078
101078	    pExpr->pRight = 0;
#0  lookupName (pParse=0x7fffffffbf38, zDb=0x0, zTab=0x0, zCol=0x51ca40 "rootpage", pNC=0x7fffffffab68, pExpr=0x51c9f8) at sqlite3.c:101078
101078	    pExpr->pRight = 0;
pParse = 0x7fffffffbf38
zDb = 0x0
zTab = 0x0
zCol = 0x51ca40 "rootpage"
pNC = 0x7fffffffab68
pExpr = 0x51c9f8
i = 1
j = 3
cnt = 1
cntTab = 0
nSubquery = 0
db = 0x50f2d8
pItem = 0x51d0f0
pMatch = 0x51d080
pTopNC = 0x7fffffffab68
pSchema = 0x511578
eNewExprOp = 167
pTab = 0x51e1d8
pCol = 0x51e3b8
101080	  pExpr->op = eNewExprOp;
#0  lookupName (pParse=0x7fffffffbf38, zDb=0x0, zTab=0x0, zCol=0x51ca40 "rootpage", pNC=0x7fffffffab68, pExpr=0x51c9f8) at sqlite3.c:101080
101080	  pExpr->op = eNewExprOp;
pParse = 0x7fffffffbf38
zDb = 0x0
zTab = 0x0
zCol = 0x51ca40 "rootpage"
pNC = 0x7fffffffab68
pExpr = 0x51c9f8
i = 1
j = 3
cnt = 1
cntTab = 0
nSubquery = 0
db = 0x50f2d8
pItem = 0x51d0f0
pMatch = 0x51d080
pTopNC = 0x7fffffffab68
pSchema = 0x511578
eNewExprOp = 167
pTab = 0x51e1d8
pCol = 0x51e3b8

Breakpoint 1, sqlite3ExprDelete (db=0x50f2d8, p=0x0) at sqlite3.c:103734
103734	  if( p ) sqlite3ExprDeleteNN(db, p);
#0  sqlite3ExprDelete (db=0x50f2d8, p=0x0) at sqlite3.c:103734
103734	  if( p ) sqlite3ExprDeleteNN(db, p);
db = 0x50f2d8
p = 0x0
No locals.
103735	}
#0  sqlite3ExprDelete (db=0x50f2d8, p=0x0) at sqlite3.c:103735
103735	}
db = 0x50f2d8
p = 0x0
No locals.
lookupName (pParse=0x7fffffffbf38, zDb=0x0, zTab=0x0, zCol=0x51c940 "sql", pNC=0x7fffffffab68, pExpr=0x51c8f8) at sqlite3.c:101076
101076	    pExpr->pLeft = 0;
#0  lookupName (pParse=0x7fffffffbf38, zDb=0x0, zTab=0x0, zCol=0x51c940 "sql", pNC=0x7fffffffab68, pExpr=0x51c8f8) at sqlite3.c:101076
101076	    pExpr->pLeft = 0;
pParse = 0x7fffffffbf38
zDb = 0x0
zTab = 0x0
zCol = 0x51c940 "sql"
pNC = 0x7fffffffab68
pExpr = 0x51c8f8
i = 1
j = 4
cnt = 1
cntTab = 0
nSubquery = 0
db = 0x50f2d8
pItem = 0x51d0f0
pMatch = 0x51d080
pTopNC = 0x7fffffffab68
pSchema = 0x511578
eNewExprOp = 167
pTab = 0x51e1d8
pCol = 0x51e3c8
101077	    sqlite3ExprDelete(db, pExpr->pRight);
#0  lookupName (pParse=0x7fffffffbf38, zDb=0x0, zTab=0x0, zCol=0x51c940 "sql", pNC=0x7fffffffab68, pExpr=0x51c8f8) at sqlite3.c:101077
101077	    sqlite3ExprDelete(db, pExpr->pRight);
pParse = 0x7fffffffbf38
zDb = 0x0
zTab = 0x0
zCol = 0x51c940 "sql"
pNC = 0x7fffffffab68
pExpr = 0x51c8f8
i = 1
j = 4
cnt = 1
cntTab = 0
nSubquery = 0
db = 0x50f2d8
pItem = 0x51d0f0
pMatch = 0x51d080
pTopNC = 0x7fffffffab68
pSchema = 0x511578
eNewExprOp = 167
pTab = 0x51e1d8
pCol = 0x51e3c8

Breakpoint 1, sqlite3ExprDelete (db=0x50f2d8, p=0x0) at sqlite3.c:103734
103734	  if( p ) sqlite3ExprDeleteNN(db, p);
#0  sqlite3ExprDelete (db=0x50f2d8, p=0x0) at sqlite3.c:103734
103734	  if( p ) sqlite3ExprDeleteNN(db, p);
db = 0x50f2d8
p = 0x0
No locals.
103735	}
#0  sqlite3ExprDelete (db=0x50f2d8, p=0x0) at sqlite3.c:103735
103735	}
db = 0x50f2d8
p = 0x0
No locals.
lookupName (pParse=0x7fffffffbf38, zDb=0x0, zTab=0x0, zCol=0x51c940 "sql", pNC=0x7fffffffab68, pExpr=0x51c8f8) at sqlite3.c:101078
101078	    pExpr->pRight = 0;
#0  lookupName (pParse=0x7fffffffbf38, zDb=0x0, zTab=0x0, zCol=0x51c940 "sql", pNC=0x7fffffffab68, pExpr=0x51c8f8) at sqlite3.c:101078
101078	    pExpr->pRight = 0;
pParse = 0x7fffffffbf38
zDb = 0x0
zTab = 0x0
zCol = 0x51c940 "sql"
pNC = 0x7fffffffab68
pExpr = 0x51c8f8
i = 1
j = 4
cnt = 1
cntTab = 0
nSubquery = 0
db = 0x50f2d8
pItem = 0x51d0f0
pMatch = 0x51d080
pTopNC = 0x7fffffffab68
pSchema = 0x511578
eNewExprOp = 167
pTab = 0x51e1d8
pCol = 0x51e3c8
101080	  pExpr->op = eNewExprOp;
#0  lookupName (pParse=0x7fffffffbf38, zDb=0x0, zTab=0x0, zCol=0x51c940 "sql", pNC=0x7fffffffab68, pExpr=0x51c8f8) at sqlite3.c:101080
101080	  pExpr->op = eNewExprOp;
pParse = 0x7fffffffbf38
zDb = 0x0
zTab = 0x0
zCol = 0x51c940 "sql"
pNC = 0x7fffffffab68
pExpr = 0x51c8f8
i = 1
j = 4
cnt = 1
cntTab = 0
nSubquery = 0
db = 0x50f2d8
pItem = 0x51d0f0
pMatch = 0x51d080
pTopNC = 0x7fffffffab68
pSchema = 0x511578
eNewExprOp = 167
pTab = 0x51e1d8
pCol = 0x51e3c8

Breakpoint 1, sqlite3ExprDelete (db=0x50f2d8, p=0x51cd78) at sqlite3.c:103734
103734	  if( p ) sqlite3ExprDeleteNN(db, p);
#0  sqlite3ExprDelete (db=0x50f2d8, p=0x51cd78) at sqlite3.c:103734
103734	  if( p ) sqlite3ExprDeleteNN(db, p);
db = 0x50f2d8
p = 0x51cd78
No locals.
103735	}
#0  sqlite3ExprDelete (db=0x50f2d8, p=0x51cd78) at sqlite3.c:103735
103735	}
db = 0x50f2d8
p = 0x51cd78
No locals.
exprListDeleteNN (db=0x50f2d8, pList=0x518d88) at sqlite3.c:104510
104510	    sqlite3DbFree(db, pItem->zEName);
#0  exprListDeleteNN (db=0x50f2d8, pList=0x518d88) at sqlite3.c:104510
104510	    sqlite3DbFree(db, pItem->zEName);
db = 0x50f2d8
pList = 0x518d88
i = 5
pItem = 0x518d90
104511	    pItem++;
#0  exprListDeleteNN (db=0x50f2d8, pList=0x518d88) at sqlite3.c:104511
104511	    pItem++;
db = 0x50f2d8
pList = 0x518d88
i = 5
pItem = 0x518d90
104512	  }while( --i>0 );
#0  exprListDeleteNN (db=0x50f2d8, pList=0x518d88) at sqlite3.c:104512
104512	  }while( --i>0 );
db = 0x50f2d8
pList = 0x518d88
i = 5
pItem = 0x518da8
104509	    sqlite3ExprDelete(db, pItem->pExpr);
#0  exprListDeleteNN (db=0x50f2d8, pList=0x518d88) at sqlite3.c:104509
104509	    sqlite3ExprDelete(db, pItem->pExpr);
db = 0x50f2d8
pList = 0x518d88
i = 4
pItem = 0x518da8

Breakpoint 1, sqlite3ExprDelete (db=0x50f2d8, p=0x51cbf8) at sqlite3.c:103734
103734	  if( p ) sqlite3ExprDeleteNN(db, p);
#0  sqlite3ExprDelete (db=0x50f2d8, p=0x51cbf8) at sqlite3.c:103734
103734	  if( p ) sqlite3ExprDeleteNN(db, p);
db = 0x50f2d8
p = 0x51cbf8
No locals.
103735	}
#0  sqlite3ExprDelete (db=0x50f2d8, p=0x51cbf8) at sqlite3.c:103735
103735	}
db = 0x50f2d8
p = 0x51cbf8
No locals.

Breakpoint 1, sqlite3ExprDelete (db=0x50f2d8, p=0x51caf8) at sqlite3.c:103734
103734	  if( p ) sqlite3ExprDeleteNN(db, p);
#0  sqlite3ExprDelete (db=0x50f2d8, p=0x51caf8) at sqlite3.c:103734
103734	  if( p ) sqlite3ExprDeleteNN(db, p);
db = 0x50f2d8
p = 0x51caf8
No locals.
103735	}
#0  sqlite3ExprDelete (db=0x50f2d8, p=0x51caf8) at sqlite3.c:103735
103735	}
db = 0x50f2d8
p = 0x51caf8
No locals.
exprListDeleteNN (db=0x50f2d8, pList=0x518d88) at sqlite3.c:104510
104510	    sqlite3DbFree(db, pItem->zEName);
#0  exprListDeleteNN (db=0x50f2d8, pList=0x518d88) at sqlite3.c:104510
104510	    sqlite3DbFree(db, pItem->zEName);
db = 0x50f2d8
pList = 0x518d88
i = 3
pItem = 0x518dc0
104511	    pItem++;
#0  exprListDeleteNN (db=0x50f2d8, pList=0x518d88) at sqlite3.c:104511
104511	    pItem++;
db = 0x50f2d8
pList = 0x518d88
i = 3
pItem = 0x518dc0
104512	  }while( --i>0 );
#0  exprListDeleteNN (db=0x50f2d8, pList=0x518d88) at sqlite3.c:104512
104512	  }while( --i>0 );
db = 0x50f2d8
pList = 0x518d88
i = 3
pItem = 0x518dd8
104509	    sqlite3ExprDelete(db, pItem->pExpr);
#0  exprListDeleteNN (db=0x50f2d8, pList=0x518d88) at sqlite3.c:104509
104509	    sqlite3ExprDelete(db, pItem->pExpr);
db = 0x50f2d8
pList = 0x518d88
i = 2
pItem = 0x518dd8

Breakpoint 1, sqlite3ExprDelete (db=0x50f2d8, p=0x51c9f8) at sqlite3.c:103734
103734	  if( p ) sqlite3ExprDeleteNN(db, p);
#0  sqlite3ExprDelete (db=0x50f2d8, p=0x51c9f8) at sqlite3.c:103734
103734	  if( p ) sqlite3ExprDeleteNN(db, p);
db = 0x50f2d8
p = 0x51c9f8
No locals.
103735	}
#0  sqlite3ExprDelete (db=0x50f2d8, p=0x51c9f8) at sqlite3.c:103735
103735	}
db = 0x50f2d8
p = 0x51c9f8
No locals.

Breakpoint 1, sqlite3ExprDelete (db=0x50f2d8, p=0x51c8f8) at sqlite3.c:103734
103734	  if( p ) sqlite3ExprDeleteNN(db, p);
#0  sqlite3ExprDelete (db=0x50f2d8, p=0x51c8f8) at sqlite3.c:103734
103734	  if( p ) sqlite3ExprDeleteNN(db, p);
db = 0x50f2d8
p = 0x51c8f8
No locals.
103735	}
#0  sqlite3ExprDelete (db=0x50f2d8, p=0x51c8f8) at sqlite3.c:103735
103735	}
db = 0x50f2d8
p = 0x51c8f8
No locals.
exprListDeleteNN (db=0x50f2d8, pList=0x518d88) at sqlite3.c:104510
104510	    sqlite3DbFree(db, pItem->zEName);
#0  exprListDeleteNN (db=0x50f2d8, pList=0x518d88) at sqlite3.c:104510
104510	    sqlite3DbFree(db, pItem->zEName);
db = 0x50f2d8
pList = 0x518d88
i = 1
pItem = 0x518df0
104511	    pItem++;
#0  exprListDeleteNN (db=0x50f2d8, pList=0x518d88) at sqlite3.c:104511
104511	    pItem++;
db = 0x50f2d8
pList = 0x518d88
i = 1
pItem = 0x518df0
104512	  }while( --i>0 );
#0  exprListDeleteNN (db=0x50f2d8, pList=0x518d88) at sqlite3.c:104512
104512	  }while( --i>0 );
db = 0x50f2d8
pList = 0x518d88
i = 1
pItem = 0x518e08
104513	  sqlite3DbFreeNN(db, pList);
#0  exprListDeleteNN (db=0x50f2d8, pList=0x518d88) at sqlite3.c:104513
104513	  sqlite3DbFreeNN(db, pList);
db = 0x50f2d8
pList = 0x518d88
i = 0
pItem = 0x518e08
104514	}
#0  exprListDeleteNN (db=0x50f2d8, pList=0x518d88) at sqlite3.c:104514
104514	}
db = 0x50f2d8
pList = 0x518d88
i = 0
pItem = 0x518e08
sqlite3ExprListDelete (db=0x50f2d8, pList=0x518d88) at sqlite3.c:104517
104517	}
#0  sqlite3ExprListDelete (db=0x50f2d8, pList=0x518d88) at sqlite3.c:104517
104517	}
db = 0x50f2d8
pList = 0x518d88
No locals.

Breakpoint 1, sqlite3ExprDelete (db=0x50f2d8, p=0x0) at sqlite3.c:103734
103734	  if( p ) sqlite3ExprDeleteNN(db, p);
#0  sqlite3ExprDelete (db=0x50f2d8, p=0x0) at sqlite3.c:103734
103734	  if( p ) sqlite3ExprDeleteNN(db, p);
db = 0x50f2d8
p = 0x0
No locals.
103735	}
#0  sqlite3ExprDelete (db=0x50f2d8, p=0x0) at sqlite3.c:103735
103735	}
db = 0x50f2d8
p = 0x0
No locals.
clearSelect (db=0x50f2d8, p=0x51cdf8, bFree=1) at sqlite3.c:134354
134354	    sqlite3ExprListDelete(db, p->pGroupBy);
#0  clearSelect (db=0x50f2d8, p=0x51cdf8, bFree=1) at sqlite3.c:134354
134354	    sqlite3ExprListDelete(db, p->pGroupBy);
db = 0x50f2d8
p = 0x51cdf8
bFree = 1
pPrior = 0x0
134355	    sqlite3ExprDelete(db, p->pHaving);
#0  clearSelect (db=0x50f2d8, p=0x51cdf8, bFree=1) at sqlite3.c:134355
134355	    sqlite3ExprDelete(db, p->pHaving);
db = 0x50f2d8
p = 0x51cdf8
bFree = 1
pPrior = 0x0

Breakpoint 1, sqlite3ExprDelete (db=0x50f2d8, p=0x0) at sqlite3.c:103734
103734	  if( p ) sqlite3ExprDeleteNN(db, p);
#0  sqlite3ExprDelete (db=0x50f2d8, p=0x0) at sqlite3.c:103734
103734	  if( p ) sqlite3ExprDeleteNN(db, p);
db = 0x50f2d8
p = 0x0
No locals.
103735	}
#0  sqlite3ExprDelete (db=0x50f2d8, p=0x0) at sqlite3.c:103735
103735	}
db = 0x50f2d8
p = 0x0
No locals.
clearSelect (db=0x50f2d8, p=0x51cdf8, bFree=1) at sqlite3.c:134356
134356	    sqlite3ExprListDelete(db, p->pOrderBy);
#0  clearSelect (db=0x50f2d8, p=0x51cdf8, bFree=1) at sqlite3.c:134356
134356	    sqlite3ExprListDelete(db, p->pOrderBy);
db = 0x50f2d8
p = 0x51cdf8
bFree = 1
pPrior = 0x0

Breakpoint 1, sqlite3ExprDelete (db=0x50f2d8, p=0x51cef8) at sqlite3.c:103734
103734	  if( p ) sqlite3ExprDeleteNN(db, p);
#0  sqlite3ExprDelete (db=0x50f2d8, p=0x51cef8) at sqlite3.c:103734
103734	  if( p ) sqlite3ExprDeleteNN(db, p);
db = 0x50f2d8
p = 0x51cef8
No locals.

Breakpoint 1, sqlite3ExprDelete (db=0x50f2d8, p=0x0) at sqlite3.c:103734
103734	  if( p ) sqlite3ExprDeleteNN(db, p);
#0  sqlite3ExprDelete (db=0x50f2d8, p=0x0) at sqlite3.c:103734
103734	  if( p ) sqlite3ExprDeleteNN(db, p);
db = 0x50f2d8
p = 0x0
No locals.
103735	}
#0  sqlite3ExprDelete (db=0x50f2d8, p=0x0) at sqlite3.c:103735
103735	}
db = 0x50f2d8
p = 0x0
No locals.
clearSelect (db=0x50f2d8, p=0x51cdf8, bFree=1) at sqlite3.c:134358
134358	    if( OK_IF_ALWAYS_TRUE(p->pWith) ) sqlite3WithDelete(db, p->pWith);
#0  clearSelect (db=0x50f2d8, p=0x51cdf8, bFree=1) at sqlite3.c:134358
134358	    if( OK_IF_ALWAYS_TRUE(p->pWith) ) sqlite3WithDelete(db, p->pWith);
db = 0x50f2d8
p = 0x51cdf8
bFree = 1
pPrior = 0x0
134360	    if( OK_IF_ALWAYS_TRUE(p->pWinDefn) ){
#0  clearSelect (db=0x50f2d8, p=0x51cdf8, bFree=1) at sqlite3.c:134360
134360	    if( OK_IF_ALWAYS_TRUE(p->pWinDefn) ){
db = 0x50f2d8
p = 0x51cdf8
bFree = 1
pPrior = 0x0
134363	    while( p->pWin ){
#0  clearSelect (db=0x50f2d8, p=0x51cdf8, bFree=1) at sqlite3.c:134363
134363	    while( p->pWin ){
db = 0x50f2d8
p = 0x51cdf8
bFree = 1
pPrior = 0x0
134368	    if( bFree ) sqlite3DbFreeNN(db, p);
#0  clearSelect (db=0x50f2d8, p=0x51cdf8, bFree=1) at sqlite3.c:134368
134368	    if( bFree ) sqlite3DbFreeNN(db, p);
db = 0x50f2d8
p = 0x51cdf8
bFree = 1
pPrior = 0x0
134369	    p = pPrior;
#0  clearSelect (db=0x50f2d8, p=0x51cdf8, bFree=1) at sqlite3.c:134369
134369	    p = pPrior;
db = 0x50f2d8
p = 0x51cdf8
bFree = 1
pPrior = 0x0
134370	    bFree = 1;
#0  clearSelect (db=0x50f2d8, p=0x0, bFree=1) at sqlite3.c:134370
134370	    bFree = 1;
db = 0x50f2d8
p = 0x0
bFree = 1
pPrior = 0x0

Breakpoint 1, sqlite3ExprDelete (db=0x50f2d8, p=0x521d88) at sqlite3.c:103734
103734	  if( p ) sqlite3ExprDeleteNN(db, p);
#0  sqlite3ExprDelete (db=0x50f2d8, p=0x521d88) at sqlite3.c:103734
103734	  if( p ) sqlite3ExprDeleteNN(db, p);
db = 0x50f2d8
p = 0x521d88
No locals.
103735	}
#0  sqlite3ExprDelete (db=0x50f2d8, p=0x521d88) at sqlite3.c:103735
103735	}
db = 0x50f2d8
p = 0x521d88
No locals.
exprListDeleteNN (db=0x50f2d8, pList=0x5220a8) at sqlite3.c:104510
104510	    sqlite3DbFree(db, pItem->zEName);
#0  exprListDeleteNN (db=0x50f2d8, pList=0x5220a8) at sqlite3.c:104510
104510	    sqlite3DbFree(db, pItem->zEName);
db = 0x50f2d8
pList = 0x5220a8
i = 5
pItem = 0x5220b0
104511	    pItem++;
#0  exprListDeleteNN (db=0x50f2d8, pList=0x5220a8) at sqlite3.c:104511
104511	    pItem++;
db = 0x50f2d8
pList = 0x5220a8
i = 5
pItem = 0x5220b0
104512	  }while( --i>0 );
#0  exprListDeleteNN (db=0x50f2d8, pList=0x5220a8) at sqlite3.c:104512
104512	  }while( --i>0 );
db = 0x50f2d8
pList = 0x5220a8
i = 5
pItem = 0x5220c8
104509	    sqlite3ExprDelete(db, pItem->pExpr);
#0  exprListDeleteNN (db=0x50f2d8, pList=0x5220a8) at sqlite3.c:104509
104509	    sqlite3ExprDelete(db, pItem->pExpr);
db = 0x50f2d8
pList = 0x5220a8
i = 4
pItem = 0x5220c8

Breakpoint 1, sqlite3ExprDelete (db=0x50f2d8, p=0x521e98) at sqlite3.c:103734
103734	  if( p ) sqlite3ExprDeleteNN(db, p);
#0  sqlite3ExprDelete (db=0x50f2d8, p=0x521e98) at sqlite3.c:103734
103734	  if( p ) sqlite3ExprDeleteNN(db, p);
db = 0x50f2d8
p = 0x521e98
No locals.
103735	}
#0  sqlite3ExprDelete (db=0x50f2d8, p=0x521e98) at sqlite3.c:103735
103735	}
db = 0x50f2d8
p = 0x521e98
No locals.

Breakpoint 1, sqlite3ExprDelete (db=0x50f2d8, p=0x521f18) at sqlite3.c:103734
103734	  if( p ) sqlite3ExprDeleteNN(db, p);
#0  sqlite3ExprDelete (db=0x50f2d8, p=0x521f18) at sqlite3.c:103734
103734	  if( p ) sqlite3ExprDeleteNN(db, p);
db = 0x50f2d8
p = 0x521f18
No locals.
103735	}
#0  sqlite3ExprDelete (db=0x50f2d8, p=0x521f18) at sqlite3.c:103735
103735	}
db = 0x50f2d8
p = 0x521f18
No locals.
exprListDeleteNN (db=0x50f2d8, pList=0x5220a8) at sqlite3.c:104510
104510	    sqlite3DbFree(db, pItem->zEName);
#0  exprListDeleteNN (db=0x50f2d8, pList=0x5220a8) at sqlite3.c:104510
104510	    sqlite3DbFree(db, pItem->zEName);
db = 0x50f2d8
pList = 0x5220a8
i = 3
pItem = 0x5220e0
104511	    pItem++;
#0  exprListDeleteNN (db=0x50f2d8, pList=0x5220a8) at sqlite3.c:104511
104511	    pItem++;
db = 0x50f2d8
pList = 0x5220a8
i = 3
pItem = 0x5220e0
104512	  }while( --i>0 );
#0  exprListDeleteNN (db=0x50f2d8, pList=0x5220a8) at sqlite3.c:104512
104512	  }while( --i>0 );
db = 0x50f2d8
pList = 0x5220a8
i = 3
pItem = 0x5220f8
104509	    sqlite3ExprDelete(db, pItem->pExpr);
#0  exprListDeleteNN (db=0x50f2d8, pList=0x5220a8) at sqlite3.c:104509
104509	    sqlite3ExprDelete(db, pItem->pExpr);
db = 0x50f2d8
pList = 0x5220a8
i = 2
pItem = 0x5220f8

Breakpoint 1, sqlite3ExprDelete (db=0x50f2d8, p=0x521f98) at sqlite3.c:103734
103734	  if( p ) sqlite3ExprDeleteNN(db, p);
#0  sqlite3ExprDelete (db=0x50f2d8, p=0x521f98) at sqlite3.c:103734
103734	  if( p ) sqlite3ExprDeleteNN(db, p);
db = 0x50f2d8
p = 0x521f98
No locals.
103735	}
#0  sqlite3ExprDelete (db=0x50f2d8, p=0x521f98) at sqlite3.c:103735
103735	}
db = 0x50f2d8
p = 0x521f98
No locals.

Breakpoint 1, sqlite3ExprDelete (db=0x50f2d8, p=0x522018) at sqlite3.c:103734
103734	  if( p ) sqlite3ExprDeleteNN(db, p);
#0  sqlite3ExprDelete (db=0x50f2d8, p=0x522018) at sqlite3.c:103734
103734	  if( p ) sqlite3ExprDeleteNN(db, p);
db = 0x50f2d8
p = 0x522018
No locals.
103735	}
#0  sqlite3ExprDelete (db=0x50f2d8, p=0x522018) at sqlite3.c:103735
103735	}
db = 0x50f2d8
p = 0x522018
No locals.
exprListDeleteNN (db=0x50f2d8, pList=0x5220a8) at sqlite3.c:104510
104510	    sqlite3DbFree(db, pItem->zEName);
#0  exprListDeleteNN (db=0x50f2d8, pList=0x5220a8) at sqlite3.c:104510
104510	    sqlite3DbFree(db, pItem->zEName);
db = 0x50f2d8
pList = 0x5220a8
i = 1
pItem = 0x522110
104511	    pItem++;
#0  exprListDeleteNN (db=0x50f2d8, pList=0x5220a8) at sqlite3.c:104511
104511	    pItem++;
db = 0x50f2d8
pList = 0x5220a8
i = 1
pItem = 0x522110
104512	  }while( --i>0 );
#0  exprListDeleteNN (db=0x50f2d8, pList=0x5220a8) at sqlite3.c:104512
104512	  }while( --i>0 );
db = 0x50f2d8
pList = 0x5220a8
i = 1
pItem = 0x522128
104513	  sqlite3DbFreeNN(db, pList);
#0  exprListDeleteNN (db=0x50f2d8, pList=0x5220a8) at sqlite3.c:104513
104513	  sqlite3DbFreeNN(db, pList);
db = 0x50f2d8
pList = 0x5220a8
i = 0
pItem = 0x522128
104514	}
#0  exprListDeleteNN (db=0x50f2d8, pList=0x5220a8) at sqlite3.c:104514
104514	}
db = 0x50f2d8
pList = 0x5220a8
i = 0
pItem = 0x522128
sqlite3ExprListDelete (db=0x50f2d8, pList=0x5220a8) at sqlite3.c:104517
104517	}
#0  sqlite3ExprListDelete (db=0x50f2d8, pList=0x5220a8) at sqlite3.c:104517
104517	}
db = 0x50f2d8
pList = 0x5220a8
No locals.

Breakpoint 1, sqlite3ExprDelete (db=0x50f2d8, p=0x522268) at sqlite3.c:103734
103734	  if( p ) sqlite3ExprDeleteNN(db, p);
#0  sqlite3ExprDelete (db=0x50f2d8, p=0x522268) at sqlite3.c:103734
103734	  if( p ) sqlite3ExprDeleteNN(db, p);
db = 0x50f2d8
p = 0x522268
No locals.
103735	}
#0  sqlite3ExprDelete (db=0x50f2d8, p=0x522268) at sqlite3.c:103735
103735	}
db = 0x50f2d8
p = 0x522268
No locals.
sqlite3Update (pParse=0x7fffffffd9d8, pTabList=0x521cb8, pChanges=0x5220a8, pWhere=0x522268, onError=11, pOrderBy=0x0, pLimit=0x0, pUpsert=0x0) at sqlite3.c:144594
144594	  return;
#0  sqlite3Update (pParse=0x7fffffffd9d8, pTabList=0x521cb8, pChanges=0x5220a8, pWhere=0x522268, onError=11, pOrderBy=0x0, pLimit=0x0, pUpsert=0x0) at sqlite3.c:144594
144594	  return;
pParse = 0x7fffffffd9d8
pTabList = 0x521cb8
pChanges = 0x5220a8
pWhere = 0x522268
onError = 11
pOrderBy = 0x0
pLimit = 0x0
pUpsert = 0x0
i = 5
j = 4
k = 11
pTab = 0x51f568
addrTop = 0
pWInfo = 0x5222f8
v = 0x51f878
pIdx = 0x0
pPk = 0x0
nIdx = 0
nAllIdx = 0
iBaseCur = 1
iDataCur = 1
iIdxCur = 2
db = 0x50f2d8
aRegIdx = 0x5222dc
aXRef = 0x5222c8
aToOpen = 0x5222e0 ""
chngPk = 0 '\000'
chngRowid = 0 '\000'
chngKey = 0 '\000'
pRowidExpr = 0x0
iRowidExpr = -1
sContext = {zAuthContext = 0x0, pParse = 0x0}
sNC = {pParse = 0x7fffffffd9d8, pSrcList = 0x521cb8, uNC = {pEList = 0x0, pAggInfo = 0x0, pUpsert = 0x0, iBaseReg = 0}, pNext = 0x0, nRef = 1, nNcErr = 0, ncFlags = 512, pWinSelect = 0x0}
iDb = 1
eOnePass = 1
hasFK = 0
labelBreak = -1
labelContinue = -1
flags = 4
isView = 0
pTrigger = 0x0
tmask = 0
newmask = 0
iEph = 2
nKey = 0
aiCurOnePass = {1, -1}
addrOpen = 13
iPk = 0
nPk = 0
bReplace = 0
bFinishSeek = 0
nChangeFrom = 0
regRowCount = 0
regOldRowid = 5
regNewRowid = 5
regNew = 6
regOld = 0
regRowSet = 4
regKey = 0
yy_reduce (yypParser=0x7fffffffbd50, yyruleno=157, yyLookahead=1, yyLookaheadToken=..., pParse=0x7fffffffd9d8) at sqlite3.c:165601
165601	        break;
#0  yy_reduce (yypParser=0x7fffffffbd50, yyruleno=157, yyLookahead=1, yyLookaheadToken=..., pParse=0x7fffffffd9d8) at sqlite3.c:165601
165601	        break;
yypParser = 0x7fffffffbd50
yyruleno = 157
yyLookahead = 1
yyLookaheadToken = {z = 0x521c13 "", n = 0}
pParse = 0x7fffffffd9d8
yygoto = 267
yyact = 1393
yymsp = 0x7fffffffbe38
yysize = -2
166460	  yygoto = yyRuleInfoLhs[yyruleno];
#0  yy_reduce (yypParser=0x7fffffffbd50, yyruleno=157, yyLookahead=1, yyLookaheadToken=..., pParse=0x7fffffffd9d8) at sqlite3.c:166460
166460	  yygoto = yyRuleInfoLhs[yyruleno];
yypParser = 0x7fffffffbd50
yyruleno = 157
yyLookahead = 1
yyLookaheadToken = {z = 0x521c13 "", n = 0}
pParse = 0x7fffffffd9d8
yygoto = 267
yyact = 1393
yymsp = 0x7fffffffbe38
yysize = -2
166461	  yysize = yyRuleInfoNRhs[yyruleno];
#0  yy_reduce (yypParser=0x7fffffffbd50, yyruleno=157, yyLookahead=1, yyLookaheadToken=..., pParse=0x7fffffffd9d8) at sqlite3.c:166461
166461	  yysize = yyRuleInfoNRhs[yyruleno];
yypParser = 0x7fffffffbd50
yyruleno = 157
yyLookahead = 1
yyLookaheadToken = {z = 0x521c13 "", n = 0}
pParse = 0x7fffffffd9d8
yygoto = 190
yyact = 1393
yymsp = 0x7fffffffbe38
yysize = -2
166462	  yyact = yy_find_reduce_action(yymsp[yysize].stateno,(YYCODETYPE)yygoto);
#0  yy_reduce (yypParser=0x7fffffffbd50, yyruleno=157, yyLookahead=1, yyLookaheadToken=..., pParse=0x7fffffffd9d8) at sqlite3.c:166462
166462	  yyact = yy_find_reduce_action(yymsp[yysize].stateno,(YYCODETYPE)yygoto);
yypParser = 0x7fffffffbd50
yyruleno = 157
yyLookahead = 1
yyLookaheadToken = {z = 0x521c13 "", n = 0}
pParse = 0x7fffffffd9d8
yygoto = 190
yyact = 1393
yymsp = 0x7fffffffbe38
yysize = -9
166471	  yymsp += yysize+1;
#0  yy_reduce (yypParser=0x7fffffffbd50, yyruleno=157, yyLookahead=1, yyLookaheadToken=..., pParse=0x7fffffffd9d8) at sqlite3.c:166471
166471	  yymsp += yysize+1;
yypParser = 0x7fffffffbd50
yyruleno = 157
yyLookahead = 1
yyLookaheadToken = {z = 0x521c13 "", n = 0}
pParse = 0x7fffffffd9d8
yygoto = 190
yyact = 1238
yymsp = 0x7fffffffbe38
yysize = -9

Breakpoint 1, sqlite3ExprDelete (db=0x50f2d8, p=0x51c578) at sqlite3.c:103734
103734	  if( p ) sqlite3ExprDeleteNN(db, p);
#0  sqlite3ExprDelete (db=0x50f2d8, p=0x51c578) at sqlite3.c:103734
103734	  if( p ) sqlite3ExprDeleteNN(db, p);
db = 0x50f2d8
p = 0x51c578
No locals.
103735	}
#0  sqlite3ExprDelete (db=0x50f2d8, p=0x51c578) at sqlite3.c:103735
103735	}
db = 0x50f2d8
p = 0x51c578
No locals.
exprListDeleteNN (db=0x50f2d8, pList=0x51c5f8) at sqlite3.c:104510
104510	    sqlite3DbFree(db, pItem->zEName);
#0  exprListDeleteNN (db=0x50f2d8, pList=0x51c5f8) at sqlite3.c:104510
104510	    sqlite3DbFree(db, pItem->zEName);
db = 0x50f2d8
pList = 0x51c5f8
i = 1
pItem = 0x51c600
104511	    pItem++;
#0  exprListDeleteNN (db=0x50f2d8, pList=0x51c5f8) at sqlite3.c:104511
104511	    pItem++;
db = 0x50f2d8
pList = 0x51c5f8
i = 1
pItem = 0x51c600
104512	  }while( --i>0 );
#0  exprListDeleteNN (db=0x50f2d8, pList=0x51c5f8) at sqlite3.c:104512
104512	  }while( --i>0 );
db = 0x50f2d8
pList = 0x51c5f8
i = 1
pItem = 0x51c618
104513	  sqlite3DbFreeNN(db, pList);
#0  exprListDeleteNN (db=0x50f2d8, pList=0x51c5f8) at sqlite3.c:104513
104513	  sqlite3DbFreeNN(db, pList);
db = 0x50f2d8
pList = 0x51c5f8
i = 0
pItem = 0x51c618
104514	}
#0  exprListDeleteNN (db=0x50f2d8, pList=0x51c5f8) at sqlite3.c:104514
104514	}
db = 0x50f2d8
pList = 0x51c5f8
i = 0
pItem = 0x51c618
sqlite3ExprListDelete (db=0x50f2d8, pList=0x51c5f8) at sqlite3.c:104517
104517	}
#0  sqlite3ExprListDelete (db=0x50f2d8, pList=0x51c5f8) at sqlite3.c:104517
104517	}
db = 0x50f2d8
pList = 0x51c5f8
No locals.

Breakpoint 1, sqlite3ExprDelete (db=0x50f2d8, p=0x0) at sqlite3.c:103734
103734	  if( p ) sqlite3ExprDeleteNN(db, p);
#0  sqlite3ExprDelete (db=0x50f2d8, p=0x0) at sqlite3.c:103734
103734	  if( p ) sqlite3ExprDeleteNN(db, p);
db = 0x50f2d8
p = 0x0
No locals.
103735	}
#0  sqlite3ExprDelete (db=0x50f2d8, p=0x0) at sqlite3.c:103735
103735	}
db = 0x50f2d8
p = 0x0
No locals.
lookupName (pParse=0x7fffffffcc58, zDb=0x0, zTab=0x0, zCol=0x51cfc0 "type", pNC=0x7fffffffb888, pExpr=0x51cf78) at sqlite3.c:101076
101076	    pExpr->pLeft = 0;
#0  lookupName (pParse=0x7fffffffcc58, zDb=0x0, zTab=0x0, zCol=0x51cfc0 "type", pNC=0x7fffffffb888, pExpr=0x51cf78) at sqlite3.c:101076
101076	    pExpr->pLeft = 0;
pParse = 0x7fffffffcc58
zDb = 0x0
zTab = 0x0
zCol = 0x51cfc0 "type"
pNC = 0x7fffffffb888
pExpr = 0x51cf78
i = 1
j = 0
cnt = 1
cntTab = 0
nSubquery = 0
db = 0x50f2d8
pItem = 0x51c6f0
pMatch = 0x51c680
pTopNC = 0x7fffffffb888
pSchema = 0x511608
eNewExprOp = 167
pTab = 0x51f568
pCol = 0x51f718
101077	    sqlite3ExprDelete(db, pExpr->pRight);
#0  lookupName (pParse=0x7fffffffcc58, zDb=0x0, zTab=0x0, zCol=0x51cfc0 "type", pNC=0x7fffffffb888, pExpr=0x51cf78) at sqlite3.c:101077
101077	    sqlite3ExprDelete(db, pExpr->pRight);
pParse = 0x7fffffffcc58
zDb = 0x0
zTab = 0x0
zCol = 0x51cfc0 "type"
pNC = 0x7fffffffb888
pExpr = 0x51cf78
i = 1
j = 0
cnt = 1
cntTab = 0
nSubquery = 0
db = 0x50f2d8
pItem = 0x51c6f0
pMatch = 0x51c680
pTopNC = 0x7fffffffb888
pSchema = 0x511608
eNewExprOp = 167
pTab = 0x51f568
pCol = 0x51f718

Breakpoint 1, sqlite3ExprDelete (db=0x50f2d8, p=0x0) at sqlite3.c:103734
103734	  if( p ) sqlite3ExprDeleteNN(db, p);
#0  sqlite3ExprDelete (db=0x50f2d8, p=0x0) at sqlite3.c:103734
103734	  if( p ) sqlite3ExprDeleteNN(db, p);
db = 0x50f2d8
p = 0x0
No locals.
103735	}
#0  sqlite3ExprDelete (db=0x50f2d8, p=0x0) at sqlite3.c:103735
103735	}
db = 0x50f2d8
p = 0x0
No locals.
lookupName (pParse=0x7fffffffcc58, zDb=0x0, zTab=0x0, zCol=0x51cfc0 "type", pNC=0x7fffffffb888, pExpr=0x51cf78) at sqlite3.c:101078
101078	    pExpr->pRight = 0;
#0  lookupName (pParse=0x7fffffffcc58, zDb=0x0, zTab=0x0, zCol=0x51cfc0 "type", pNC=0x7fffffffb888, pExpr=0x51cf78) at sqlite3.c:101078
101078	    pExpr->pRight = 0;
pParse = 0x7fffffffcc58
zDb = 0x0
zTab = 0x0
zCol = 0x51cfc0 "type"
pNC = 0x7fffffffb888
pExpr = 0x51cf78
i = 1
j = 0
cnt = 1
cntTab = 0
nSubquery = 0
db = 0x50f2d8
pItem = 0x51c6f0
pMatch = 0x51c680
pTopNC = 0x7fffffffb888
pSchema = 0x511608
eNewExprOp = 167
pTab = 0x51f568
pCol = 0x51f718
101080	  pExpr->op = eNewExprOp;
#0  lookupName (pParse=0x7fffffffcc58, zDb=0x0, zTab=0x0, zCol=0x51cfc0 "type", pNC=0x7fffffffb888, pExpr=0x51cf78) at sqlite3.c:101080
101080	  pExpr->op = eNewExprOp;
pParse = 0x7fffffffcc58
zDb = 0x0
zTab = 0x0
zCol = 0x51cfc0 "type"
pNC = 0x7fffffffb888
pExpr = 0x51cf78
i = 1
j = 0
cnt = 1
cntTab = 0
nSubquery = 0
db = 0x50f2d8
pItem = 0x51c6f0
pMatch = 0x51c680
pTopNC = 0x7fffffffb888
pSchema = 0x511608
eNewExprOp = 167
pTab = 0x51f568
pCol = 0x51f718

Breakpoint 1, sqlite3ExprDelete (db=0x50f2d8, p=0x0) at sqlite3.c:103734
103734	  if( p ) sqlite3ExprDeleteNN(db, p);
#0  sqlite3ExprDelete (db=0x50f2d8, p=0x0) at sqlite3.c:103734
103734	  if( p ) sqlite3ExprDeleteNN(db, p);
db = 0x50f2d8
p = 0x0
No locals.
103735	}
#0  sqlite3ExprDelete (db=0x50f2d8, p=0x0) at sqlite3.c:103735
103735	}
db = 0x50f2d8
p = 0x0
No locals.
lookupName (pParse=0x7fffffffcc58, zDb=0x0, zTab=0x0, zCol=0x51c9c0 "name", pNC=0x7fffffffb888, pExpr=0x51c978) at sqlite3.c:101076
101076	    pExpr->pLeft = 0;
#0  lookupName (pParse=0x7fffffffcc58, zDb=0x0, zTab=0x0, zCol=0x51c9c0 "name", pNC=0x7fffffffb888, pExpr=0x51c978) at sqlite3.c:101076
101076	    pExpr->pLeft = 0;
pParse = 0x7fffffffcc58
zDb = 0x0
zTab = 0x0
zCol = 0x51c9c0 "name"
pNC = 0x7fffffffb888
pExpr = 0x51c978
i = 1
j = 1
cnt = 1
cntTab = 0
nSubquery = 0
db = 0x50f2d8
pItem = 0x51c6f0
pMatch = 0x51c680
pTopNC = 0x7fffffffb888
pSchema = 0x511608
eNewExprOp = 167
pTab = 0x51f568
pCol = 0x51f728
101077	    sqlite3ExprDelete(db, pExpr->pRight);
#0  lookupName (pParse=0x7fffffffcc58, zDb=0x0, zTab=0x0, zCol=0x51c9c0 "name", pNC=0x7fffffffb888, pExpr=0x51c978) at sqlite3.c:101077
101077	    sqlite3ExprDelete(db, pExpr->pRight);
pParse = 0x7fffffffcc58
zDb = 0x0
zTab = 0x0
zCol = 0x51c9c0 "name"
pNC = 0x7fffffffb888
pExpr = 0x51c978
i = 1
j = 1
cnt = 1
cntTab = 0
nSubquery = 0
db = 0x50f2d8
pItem = 0x51c6f0
pMatch = 0x51c680
pTopNC = 0x7fffffffb888
pSchema = 0x511608
eNewExprOp = 167
pTab = 0x51f568
pCol = 0x51f728

Breakpoint 1, sqlite3ExprDelete (db=0x50f2d8, p=0x0) at sqlite3.c:103734
103734	  if( p ) sqlite3ExprDeleteNN(db, p);
#0  sqlite3ExprDelete (db=0x50f2d8, p=0x0) at sqlite3.c:103734
103734	  if( p ) sqlite3ExprDeleteNN(db, p);
db = 0x50f2d8
p = 0x0
No locals.
103735	}
#0  sqlite3ExprDelete (db=0x50f2d8, p=0x0) at sqlite3.c:103735
103735	}
db = 0x50f2d8
p = 0x0
No locals.
lookupName (pParse=0x7fffffffcc58, zDb=0x0, zTab=0x0, zCol=0x51c9c0 "name", pNC=0x7fffffffb888, pExpr=0x51c978) at sqlite3.c:101078
101078	    pExpr->pRight = 0;
#0  lookupName (pParse=0x7fffffffcc58, zDb=0x0, zTab=0x0, zCol=0x51c9c0 "name", pNC=0x7fffffffb888, pExpr=0x51c978) at sqlite3.c:101078
101078	    pExpr->pRight = 0;
pParse = 0x7fffffffcc58
zDb = 0x0
zTab = 0x0
zCol = 0x51c9c0 "name"
pNC = 0x7fffffffb888
pExpr = 0x51c978
i = 1
j = 1
cnt = 1
cntTab = 0
nSubquery = 0
db = 0x50f2d8
pItem = 0x51c6f0
pMatch = 0x51c680
pTopNC = 0x7fffffffb888
pSchema = 0x511608
eNewExprOp = 167
pTab = 0x51f568
pCol = 0x51f728
101080	  pExpr->op = eNewExprOp;
#0  lookupName (pParse=0x7fffffffcc58, zDb=0x0, zTab=0x0, zCol=0x51c9c0 "name", pNC=0x7fffffffb888, pExpr=0x51c978) at sqlite3.c:101080
101080	  pExpr->op = eNewExprOp;
pParse = 0x7fffffffcc58
zDb = 0x0
zTab = 0x0
zCol = 0x51c9c0 "name"
pNC = 0x7fffffffb888
pExpr = 0x51c978
i = 1
j = 1
cnt = 1
cntTab = 0
nSubquery = 0
db = 0x50f2d8
pItem = 0x51c6f0
pMatch = 0x51c680
pTopNC = 0x7fffffffb888
pSchema = 0x511608
eNewExprOp = 167
pTab = 0x51f568
pCol = 0x51f728

Breakpoint 1, sqlite3ExprDelete (db=0x50f2d8, p=0x0) at sqlite3.c:103734
103734	  if( p ) sqlite3ExprDeleteNN(db, p);
#0  sqlite3ExprDelete (db=0x50f2d8, p=0x0) at sqlite3.c:103734
103734	  if( p ) sqlite3ExprDeleteNN(db, p);
db = 0x50f2d8
p = 0x0
No locals.
103735	}
#0  sqlite3ExprDelete (db=0x50f2d8, p=0x0) at sqlite3.c:103735
103735	}
db = 0x50f2d8
p = 0x0
No locals.
lookupName (pParse=0x7fffffffcc58, zDb=0x0, zTab=0x0, zCol=0x51cac0 "tbl_name", pNC=0x7fffffffb888, pExpr=0x51ca78) at sqlite3.c:101076
101076	    pExpr->pLeft = 0;
#0  lookupName (pParse=0x7fffffffcc58, zDb=0x0, zTab=0x0, zCol=0x51cac0 "tbl_name", pNC=0x7fffffffb888, pExpr=0x51ca78) at sqlite3.c:101076
101076	    pExpr->pLeft = 0;
pParse = 0x7fffffffcc58
zDb = 0x0
zTab = 0x0
zCol = 0x51cac0 "tbl_name"
pNC = 0x7fffffffb888
pExpr = 0x51ca78
i = 1
j = 2
cnt = 1
cntTab = 0
nSubquery = 0
db = 0x50f2d8
pItem = 0x51c6f0
pMatch = 0x51c680
pTopNC = 0x7fffffffb888
pSchema = 0x511608
eNewExprOp = 167
pTab = 0x51f568
pCol = 0x51f738
101077	    sqlite3ExprDelete(db, pExpr->pRight);
#0  lookupName (pParse=0x7fffffffcc58, zDb=0x0, zTab=0x0, zCol=0x51cac0 "tbl_name", pNC=0x7fffffffb888, pExpr=0x51ca78) at sqlite3.c:101077
101077	    sqlite3ExprDelete(db, pExpr->pRight);
pParse = 0x7fffffffcc58
zDb = 0x0
zTab = 0x0
zCol = 0x51cac0 "tbl_name"
pNC = 0x7fffffffb888
pExpr = 0x51ca78
i = 1
j = 2
cnt = 1
cntTab = 0
nSubquery = 0
db = 0x50f2d8
pItem = 0x51c6f0
pMatch = 0x51c680
pTopNC = 0x7fffffffb888
pSchema = 0x511608
eNewExprOp = 167
pTab = 0x51f568
pCol = 0x51f738

Breakpoint 1, sqlite3ExprDelete (db=0x50f2d8, p=0x0) at sqlite3.c:103734
103734	  if( p ) sqlite3ExprDeleteNN(db, p);
#0  sqlite3ExprDelete (db=0x50f2d8, p=0x0) at sqlite3.c:103734
103734	  if( p ) sqlite3ExprDeleteNN(db, p);
db = 0x50f2d8
p = 0x0
No locals.
103735	}
#0  sqlite3ExprDelete (db=0x50f2d8, p=0x0) at sqlite3.c:103735
103735	}
db = 0x50f2d8
p = 0x0
No locals.
lookupName (pParse=0x7fffffffcc58, zDb=0x0, zTab=0x0, zCol=0x51cac0 "tbl_name", pNC=0x7fffffffb888, pExpr=0x51ca78) at sqlite3.c:101078
101078	    pExpr->pRight = 0;
#0  lookupName (pParse=0x7fffffffcc58, zDb=0x0, zTab=0x0, zCol=0x51cac0 "tbl_name", pNC=0x7fffffffb888, pExpr=0x51ca78) at sqlite3.c:101078
101078	    pExpr->pRight = 0;
pParse = 0x7fffffffcc58
zDb = 0x0
zTab = 0x0
zCol = 0x51cac0 "tbl_name"
pNC = 0x7fffffffb888
pExpr = 0x51ca78
i = 1
j = 2
cnt = 1
cntTab = 0
nSubquery = 0
db = 0x50f2d8
pItem = 0x51c6f0
pMatch = 0x51c680
pTopNC = 0x7fffffffb888
pSchema = 0x511608
eNewExprOp = 167
pTab = 0x51f568
pCol = 0x51f738
101080	  pExpr->op = eNewExprOp;
#0  lookupName (pParse=0x7fffffffcc58, zDb=0x0, zTab=0x0, zCol=0x51cac0 "tbl_name", pNC=0x7fffffffb888, pExpr=0x51ca78) at sqlite3.c:101080
101080	  pExpr->op = eNewExprOp;
pParse = 0x7fffffffcc58
zDb = 0x0
zTab = 0x0
zCol = 0x51cac0 "tbl_name"
pNC = 0x7fffffffb888
pExpr = 0x51ca78
i = 1
j = 2
cnt = 1
cntTab = 0
nSubquery = 0
db = 0x50f2d8
pItem = 0x51c6f0
pMatch = 0x51c680
pTopNC = 0x7fffffffb888
pSchema = 0x511608
eNewExprOp = 167
pTab = 0x51f568
pCol = 0x51f738

Breakpoint 1, sqlite3ExprDelete (db=0x50f2d8, p=0x0) at sqlite3.c:103734
103734	  if( p ) sqlite3ExprDeleteNN(db, p);
#0  sqlite3ExprDelete (db=0x50f2d8, p=0x0) at sqlite3.c:103734
103734	  if( p ) sqlite3ExprDeleteNN(db, p);
db = 0x50f2d8
p = 0x0
No locals.
103735	}
#0  sqlite3ExprDelete (db=0x50f2d8, p=0x0) at sqlite3.c:103735
103735	}
db = 0x50f2d8
p = 0x0
No locals.
lookupName (pParse=0x7fffffffcc58, zDb=0x0, zTab=0x0, zCol=0x51cbc0 "rootpage", pNC=0x7fffffffb888, pExpr=0x51cb78) at sqlite3.c:101076
101076	    pExpr->pLeft = 0;
#0  lookupName (pParse=0x7fffffffcc58, zDb=0x0, zTab=0x0, zCol=0x51cbc0 "rootpage", pNC=0x7fffffffb888, pExpr=0x51cb78) at sqlite3.c:101076
101076	    pExpr->pLeft = 0;
pParse = 0x7fffffffcc58
zDb = 0x0
zTab = 0x0
zCol = 0x51cbc0 "rootpage"
pNC = 0x7fffffffb888
pExpr = 0x51cb78
i = 1
j = 3
cnt = 1
cntTab = 0
nSubquery = 0
db = 0x50f2d8
pItem = 0x51c6f0
pMatch = 0x51c680
pTopNC = 0x7fffffffb888
pSchema = 0x511608
eNewExprOp = 167
pTab = 0x51f568
pCol = 0x51f748
101077	    sqlite3ExprDelete(db, pExpr->pRight);
#0  lookupName (pParse=0x7fffffffcc58, zDb=0x0, zTab=0x0, zCol=0x51cbc0 "rootpage", pNC=0x7fffffffb888, pExpr=0x51cb78) at sqlite3.c:101077
101077	    sqlite3ExprDelete(db, pExpr->pRight);
pParse = 0x7fffffffcc58
zDb = 0x0
zTab = 0x0
zCol = 0x51cbc0 "rootpage"
pNC = 0x7fffffffb888
pExpr = 0x51cb78
i = 1
j = 3
cnt = 1
cntTab = 0
nSubquery = 0
db = 0x50f2d8
pItem = 0x51c6f0
pMatch = 0x51c680
pTopNC = 0x7fffffffb888
pSchema = 0x511608
eNewExprOp = 167
pTab = 0x51f568
pCol = 0x51f748

Breakpoint 1, sqlite3ExprDelete (db=0x50f2d8, p=0x0) at sqlite3.c:103734
103734	  if( p ) sqlite3ExprDeleteNN(db, p);
#0  sqlite3ExprDelete (db=0x50f2d8, p=0x0) at sqlite3.c:103734
103734	  if( p ) sqlite3ExprDeleteNN(db, p);
db = 0x50f2d8
p = 0x0
No locals.
103735	}
#0  sqlite3ExprDelete (db=0x50f2d8, p=0x0) at sqlite3.c:103735
103735	}
db = 0x50f2d8
p = 0x0
No locals.
lookupName (pParse=0x7fffffffcc58, zDb=0x0, zTab=0x0, zCol=0x51cbc0 "rootpage", pNC=0x7fffffffb888, pExpr=0x51cb78) at sqlite3.c:101078
101078	    pExpr->pRight = 0;
#0  lookupName (pParse=0x7fffffffcc58, zDb=0x0, zTab=0x0, zCol=0x51cbc0 "rootpage", pNC=0x7fffffffb888, pExpr=0x51cb78) at sqlite3.c:101078
101078	    pExpr->pRight = 0;
pParse = 0x7fffffffcc58
zDb = 0x0
zTab = 0x0
zCol = 0x51cbc0 "rootpage"
pNC = 0x7fffffffb888
pExpr = 0x51cb78
i = 1
j = 3
cnt = 1
cntTab = 0
nSubquery = 0
db = 0x50f2d8
pItem = 0x51c6f0
pMatch = 0x51c680
pTopNC = 0x7fffffffb888
pSchema = 0x511608
eNewExprOp = 167
pTab = 0x51f568
pCol = 0x51f748
101080	  pExpr->op = eNewExprOp;
#0  lookupName (pParse=0x7fffffffcc58, zDb=0x0, zTab=0x0, zCol=0x51cbc0 "rootpage", pNC=0x7fffffffb888, pExpr=0x51cb78) at sqlite3.c:101080
101080	  pExpr->op = eNewExprOp;
pParse = 0x7fffffffcc58
zDb = 0x0
zTab = 0x0
zCol = 0x51cbc0 "rootpage"
pNC = 0x7fffffffb888
pExpr = 0x51cb78
i = 1
j = 3
cnt = 1
cntTab = 0
nSubquery = 0
db = 0x50f2d8
pItem = 0x51c6f0
pMatch = 0x51c680
pTopNC = 0x7fffffffb888
pSchema = 0x511608
eNewExprOp = 167
pTab = 0x51f568
pCol = 0x51f748

Breakpoint 1, sqlite3ExprDelete (db=0x50f2d8, p=0x0) at sqlite3.c:103734
103734	  if( p ) sqlite3ExprDeleteNN(db, p);
#0  sqlite3ExprDelete (db=0x50f2d8, p=0x0) at sqlite3.c:103734
103734	  if( p ) sqlite3ExprDeleteNN(db, p);
db = 0x50f2d8
p = 0x0
No locals.
103735	}
#0  sqlite3ExprDelete (db=0x50f2d8, p=0x0) at sqlite3.c:103735
103735	}
db = 0x50f2d8
p = 0x0
No locals.
lookupName (pParse=0x7fffffffcc58, zDb=0x0, zTab=0x0, zCol=0x51ccc0 "sql", pNC=0x7fffffffb888, pExpr=0x51cc78) at sqlite3.c:101076
101076	    pExpr->pLeft = 0;
#0  lookupName (pParse=0x7fffffffcc58, zDb=0x0, zTab=0x0, zCol=0x51ccc0 "sql", pNC=0x7fffffffb888, pExpr=0x51cc78) at sqlite3.c:101076
101076	    pExpr->pLeft = 0;
pParse = 0x7fffffffcc58
zDb = 0x0
zTab = 0x0
zCol = 0x51ccc0 "sql"
pNC = 0x7fffffffb888
pExpr = 0x51cc78
i = 1
j = 4
cnt = 1
cntTab = 0
nSubquery = 0
db = 0x50f2d8
pItem = 0x51c6f0
pMatch = 0x51c680
pTopNC = 0x7fffffffb888
pSchema = 0x511608
eNewExprOp = 167
pTab = 0x51f568
pCol = 0x51f758
101077	    sqlite3ExprDelete(db, pExpr->pRight);
#0  lookupName (pParse=0x7fffffffcc58, zDb=0x0, zTab=0x0, zCol=0x51ccc0 "sql", pNC=0x7fffffffb888, pExpr=0x51cc78) at sqlite3.c:101077
101077	    sqlite3ExprDelete(db, pExpr->pRight);
pParse = 0x7fffffffcc58
zDb = 0x0
zTab = 0x0
zCol = 0x51ccc0 "sql"
pNC = 0x7fffffffb888
pExpr = 0x51cc78
i = 1
j = 4
cnt = 1
cntTab = 0
nSubquery = 0
db = 0x50f2d8
pItem = 0x51c6f0
pMatch = 0x51c680
pTopNC = 0x7fffffffb888
pSchema = 0x511608
eNewExprOp = 167
pTab = 0x51f568
pCol = 0x51f758

Breakpoint 1, sqlite3ExprDelete (db=0x50f2d8, p=0x0) at sqlite3.c:103734
103734	  if( p ) sqlite3ExprDeleteNN(db, p);
#0  sqlite3ExprDelete (db=0x50f2d8, p=0x0) at sqlite3.c:103734
103734	  if( p ) sqlite3ExprDeleteNN(db, p);
db = 0x50f2d8
p = 0x0
No locals.
103735	}
#0  sqlite3ExprDelete (db=0x50f2d8, p=0x0) at sqlite3.c:103735
103735	}
db = 0x50f2d8
p = 0x0
No locals.
lookupName (pParse=0x7fffffffcc58, zDb=0x0, zTab=0x0, zCol=0x51ccc0 "sql", pNC=0x7fffffffb888, pExpr=0x51cc78) at sqlite3.c:101078
101078	    pExpr->pRight = 0;
#0  lookupName (pParse=0x7fffffffcc58, zDb=0x0, zTab=0x0, zCol=0x51ccc0 "sql", pNC=0x7fffffffb888, pExpr=0x51cc78) at sqlite3.c:101078
101078	    pExpr->pRight = 0;
pParse = 0x7fffffffcc58
zDb = 0x0
zTab = 0x0
zCol = 0x51ccc0 "sql"
pNC = 0x7fffffffb888
pExpr = 0x51cc78
i = 1
j = 4
cnt = 1
cntTab = 0
nSubquery = 0
db = 0x50f2d8
pItem = 0x51c6f0
pMatch = 0x51c680
pTopNC = 0x7fffffffb888
pSchema = 0x511608
eNewExprOp = 167
pTab = 0x51f568
pCol = 0x51f758
101080	  pExpr->op = eNewExprOp;
#0  lookupName (pParse=0x7fffffffcc58, zDb=0x0, zTab=0x0, zCol=0x51ccc0 "sql", pNC=0x7fffffffb888, pExpr=0x51cc78) at sqlite3.c:101080
101080	  pExpr->op = eNewExprOp;
pParse = 0x7fffffffcc58
zDb = 0x0
zTab = 0x0
zCol = 0x51ccc0 "sql"
pNC = 0x7fffffffb888
pExpr = 0x51cc78
i = 1
j = 4
cnt = 1
cntTab = 0
nSubquery = 0
db = 0x50f2d8
pItem = 0x51c6f0
pMatch = 0x51c680
pTopNC = 0x7fffffffb888
pSchema = 0x511608
eNewExprOp = 167
pTab = 0x51f568
pCol = 0x51f758

Breakpoint 1, sqlite3ExprDelete (db=0x50f2d8, p=0x51cf78) at sqlite3.c:103734
103734	  if( p ) sqlite3ExprDeleteNN(db, p);
#0  sqlite3ExprDelete (db=0x50f2d8, p=0x51cf78) at sqlite3.c:103734
103734	  if( p ) sqlite3ExprDeleteNN(db, p);
db = 0x50f2d8
p = 0x51cf78
No locals.
103735	}
#0  sqlite3ExprDelete (db=0x50f2d8, p=0x51cf78) at sqlite3.c:103735
103735	}
db = 0x50f2d8
p = 0x51cf78
No locals.
exprListDeleteNN (db=0x50f2d8, pList=0x519238) at sqlite3.c:104510
104510	    sqlite3DbFree(db, pItem->zEName);
#0  exprListDeleteNN (db=0x50f2d8, pList=0x519238) at sqlite3.c:104510
104510	    sqlite3DbFree(db, pItem->zEName);
db = 0x50f2d8
pList = 0x519238
i = 5
pItem = 0x519240
104511	    pItem++;
#0  exprListDeleteNN (db=0x50f2d8, pList=0x519238) at sqlite3.c:104511
104511	    pItem++;
db = 0x50f2d8
pList = 0x519238
i = 5
pItem = 0x519240
104512	  }while( --i>0 );
#0  exprListDeleteNN (db=0x50f2d8, pList=0x519238) at sqlite3.c:104512
104512	  }while( --i>0 );
db = 0x50f2d8
pList = 0x519238
i = 5
pItem = 0x519258
104509	    sqlite3ExprDelete(db, pItem->pExpr);
#0  exprListDeleteNN (db=0x50f2d8, pList=0x519238) at sqlite3.c:104509
104509	    sqlite3ExprDelete(db, pItem->pExpr);
db = 0x50f2d8
pList = 0x519238
i = 4
pItem = 0x519258

Breakpoint 1, sqlite3ExprDelete (db=0x50f2d8, p=0x51c978) at sqlite3.c:103734
103734	  if( p ) sqlite3ExprDeleteNN(db, p);
#0  sqlite3ExprDelete (db=0x50f2d8, p=0x51c978) at sqlite3.c:103734
103734	  if( p ) sqlite3ExprDeleteNN(db, p);
db = 0x50f2d8
p = 0x51c978
No locals.
103735	}
#0  sqlite3ExprDelete (db=0x50f2d8, p=0x51c978) at sqlite3.c:103735
103735	}
db = 0x50f2d8
p = 0x51c978
No locals.

Breakpoint 1, sqlite3ExprDelete (db=0x50f2d8, p=0x51ca78) at sqlite3.c:103734
103734	  if( p ) sqlite3ExprDeleteNN(db, p);
#0  sqlite3ExprDelete (db=0x50f2d8, p=0x51ca78) at sqlite3.c:103734
103734	  if( p ) sqlite3ExprDeleteNN(db, p);
db = 0x50f2d8
p = 0x51ca78
No locals.
103735	}
#0  sqlite3ExprDelete (db=0x50f2d8, p=0x51ca78) at sqlite3.c:103735
103735	}
db = 0x50f2d8
p = 0x51ca78
No locals.
exprListDeleteNN (db=0x50f2d8, pList=0x519238) at sqlite3.c:104510
104510	    sqlite3DbFree(db, pItem->zEName);
#0  exprListDeleteNN (db=0x50f2d8, pList=0x519238) at sqlite3.c:104510
104510	    sqlite3DbFree(db, pItem->zEName);
db = 0x50f2d8
pList = 0x519238
i = 3
pItem = 0x519270
104511	    pItem++;
#0  exprListDeleteNN (db=0x50f2d8, pList=0x519238) at sqlite3.c:104511
104511	    pItem++;
db = 0x50f2d8
pList = 0x519238
i = 3
pItem = 0x519270
104512	  }while( --i>0 );
#0  exprListDeleteNN (db=0x50f2d8, pList=0x519238) at sqlite3.c:104512
104512	  }while( --i>0 );
db = 0x50f2d8
pList = 0x519238
i = 3
pItem = 0x519288
104509	    sqlite3ExprDelete(db, pItem->pExpr);
#0  exprListDeleteNN (db=0x50f2d8, pList=0x519238) at sqlite3.c:104509
104509	    sqlite3ExprDelete(db, pItem->pExpr);
db = 0x50f2d8
pList = 0x519238
i = 2
pItem = 0x519288

Breakpoint 1, sqlite3ExprDelete (db=0x50f2d8, p=0x51cb78) at sqlite3.c:103734
103734	  if( p ) sqlite3ExprDeleteNN(db, p);
#0  sqlite3ExprDelete (db=0x50f2d8, p=0x51cb78) at sqlite3.c:103734
103734	  if( p ) sqlite3ExprDeleteNN(db, p);
db = 0x50f2d8
p = 0x51cb78
No locals.
103735	}
#0  sqlite3ExprDelete (db=0x50f2d8, p=0x51cb78) at sqlite3.c:103735
103735	}
db = 0x50f2d8
p = 0x51cb78
No locals.

Breakpoint 1, sqlite3ExprDelete (db=0x50f2d8, p=0x51cc78) at sqlite3.c:103734
103734	  if( p ) sqlite3ExprDeleteNN(db, p);
#0  sqlite3ExprDelete (db=0x50f2d8, p=0x51cc78) at sqlite3.c:103734
103734	  if( p ) sqlite3ExprDeleteNN(db, p);
db = 0x50f2d8
p = 0x51cc78
No locals.
103735	}
#0  sqlite3ExprDelete (db=0x50f2d8, p=0x51cc78) at sqlite3.c:103735
103735	}
db = 0x50f2d8
p = 0x51cc78
No locals.
exprListDeleteNN (db=0x50f2d8, pList=0x519238) at sqlite3.c:104510
104510	    sqlite3DbFree(db, pItem->zEName);
#0  exprListDeleteNN (db=0x50f2d8, pList=0x519238) at sqlite3.c:104510
104510	    sqlite3DbFree(db, pItem->zEName);
db = 0x50f2d8
pList = 0x519238
i = 1
pItem = 0x5192a0
104511	    pItem++;
#0  exprListDeleteNN (db=0x50f2d8, pList=0x519238) at sqlite3.c:104511
104511	    pItem++;
db = 0x50f2d8
pList = 0x519238
i = 1
pItem = 0x5192a0
104512	  }while( --i>0 );
#0  exprListDeleteNN (db=0x50f2d8, pList=0x519238) at sqlite3.c:104512
104512	  }while( --i>0 );
db = 0x50f2d8
pList = 0x519238
i = 1
pItem = 0x5192b8
104513	  sqlite3DbFreeNN(db, pList);
#0  exprListDeleteNN (db=0x50f2d8, pList=0x519238) at sqlite3.c:104513
104513	  sqlite3DbFreeNN(db, pList);
db = 0x50f2d8
pList = 0x519238
i = 0
pItem = 0x5192b8
104514	}
#0  exprListDeleteNN (db=0x50f2d8, pList=0x519238) at sqlite3.c:104514
104514	}
db = 0x50f2d8
pList = 0x519238
i = 0
pItem = 0x5192b8
sqlite3ExprListDelete (db=0x50f2d8, pList=0x519238) at sqlite3.c:104517
104517	}
#0  sqlite3ExprListDelete (db=0x50f2d8, pList=0x519238) at sqlite3.c:104517
104517	}
db = 0x50f2d8
pList = 0x519238
No locals.

Breakpoint 1, sqlite3ExprDelete (db=0x50f2d8, p=0x51ce78) at sqlite3.c:103734
103734	  if( p ) sqlite3ExprDeleteNN(db, p);
#0  sqlite3ExprDelete (db=0x50f2d8, p=0x51ce78) at sqlite3.c:103734
103734	  if( p ) sqlite3ExprDeleteNN(db, p);
db = 0x50f2d8
p = 0x51ce78
No locals.
103735	}
#0  sqlite3ExprDelete (db=0x50f2d8, p=0x51ce78) at sqlite3.c:103735
103735	}
db = 0x50f2d8
p = 0x51ce78
No locals.
clearSelect (db=0x50f2d8, p=0x51cff8, bFree=1) at sqlite3.c:134354
134354	    sqlite3ExprListDelete(db, p->pGroupBy);
#0  clearSelect (db=0x50f2d8, p=0x51cff8, bFree=1) at sqlite3.c:134354
134354	    sqlite3ExprListDelete(db, p->pGroupBy);
db = 0x50f2d8
p = 0x51cff8
bFree = 1
pPrior = 0x0
134355	    sqlite3ExprDelete(db, p->pHaving);
#0  clearSelect (db=0x50f2d8, p=0x51cff8, bFree=1) at sqlite3.c:134355
134355	    sqlite3ExprDelete(db, p->pHaving);
db = 0x50f2d8
p = 0x51cff8
bFree = 1
pPrior = 0x0

Breakpoint 1, sqlite3ExprDelete (db=0x50f2d8, p=0x0) at sqlite3.c:103734
103734	  if( p ) sqlite3ExprDeleteNN(db, p);
#0  sqlite3ExprDelete (db=0x50f2d8, p=0x0) at sqlite3.c:103734
103734	  if( p ) sqlite3ExprDeleteNN(db, p);
db = 0x50f2d8
p = 0x0
No locals.
103735	}
#0  sqlite3ExprDelete (db=0x50f2d8, p=0x0) at sqlite3.c:103735
103735	}
db = 0x50f2d8
p = 0x0
No locals.
clearSelect (db=0x50f2d8, p=0x51cff8, bFree=1) at sqlite3.c:134356
134356	    sqlite3ExprListDelete(db, p->pOrderBy);
#0  clearSelect (db=0x50f2d8, p=0x51cff8, bFree=1) at sqlite3.c:134356
134356	    sqlite3ExprListDelete(db, p->pOrderBy);
db = 0x50f2d8
p = 0x51cff8
bFree = 1
pPrior = 0x0

Breakpoint 1, sqlite3ExprDelete (db=0x50f2d8, p=0x51cef8) at sqlite3.c:103734
103734	  if( p ) sqlite3ExprDeleteNN(db, p);
#0  sqlite3ExprDelete (db=0x50f2d8, p=0x51cef8) at sqlite3.c:103734
103734	  if( p ) sqlite3ExprDeleteNN(db, p);
db = 0x50f2d8
p = 0x51cef8
No locals.

Breakpoint 1, sqlite3ExprDelete (db=0x50f2d8, p=0x0) at sqlite3.c:103734
103734	  if( p ) sqlite3ExprDeleteNN(db, p);
#0  sqlite3ExprDelete (db=0x50f2d8, p=0x0) at sqlite3.c:103734
103734	  if( p ) sqlite3ExprDeleteNN(db, p);
db = 0x50f2d8
p = 0x0
No locals.
103735	}
#0  sqlite3ExprDelete (db=0x50f2d8, p=0x0) at sqlite3.c:103735
103735	}
db = 0x50f2d8
p = 0x0
No locals.
clearSelect (db=0x50f2d8, p=0x51cff8, bFree=1) at sqlite3.c:134358
134358	    if( OK_IF_ALWAYS_TRUE(p->pWith) ) sqlite3WithDelete(db, p->pWith);
#0  clearSelect (db=0x50f2d8, p=0x51cff8, bFree=1) at sqlite3.c:134358
134358	    if( OK_IF_ALWAYS_TRUE(p->pWith) ) sqlite3WithDelete(db, p->pWith);
db = 0x50f2d8
p = 0x51cff8
bFree = 1
pPrior = 0x0
134360	    if( OK_IF_ALWAYS_TRUE(p->pWinDefn) ){
#0  clearSelect (db=0x50f2d8, p=0x51cff8, bFree=1) at sqlite3.c:134360
134360	    if( OK_IF_ALWAYS_TRUE(p->pWinDefn) ){
db = 0x50f2d8
p = 0x51cff8
bFree = 1
pPrior = 0x0
134363	    while( p->pWin ){
#0  clearSelect (db=0x50f2d8, p=0x51cff8, bFree=1) at sqlite3.c:134363
134363	    while( p->pWin ){
db = 0x50f2d8
p = 0x51cff8
bFree = 1
pPrior = 0x0
134368	    if( bFree ) sqlite3DbFreeNN(db, p);
#0  clearSelect (db=0x50f2d8, p=0x51cff8, bFree=1) at sqlite3.c:134368
134368	    if( bFree ) sqlite3DbFreeNN(db, p);
db = 0x50f2d8
p = 0x51cff8
bFree = 1
pPrior = 0x0
134369	    p = pPrior;
#0  clearSelect (db=0x50f2d8, p=0x51cff8, bFree=1) at sqlite3.c:134369
134369	    p = pPrior;
db = 0x50f2d8
p = 0x51cff8
bFree = 1
pPrior = 0x0
134370	    bFree = 1;
#0  clearSelect (db=0x50f2d8, p=0x0, bFree=1) at sqlite3.c:134370
134370	    bFree = 1;
db = 0x50f2d8
p = 0x0
bFree = 1
pPrior = 0x0

Breakpoint 1, sqlite3ExprDelete (db=0x50f2d8, p=0x51bef8) at sqlite3.c:103734
103734	  if( p ) sqlite3ExprDeleteNN(db, p);
#0  sqlite3ExprDelete (db=0x50f2d8, p=0x51bef8) at sqlite3.c:103734
103734	  if( p ) sqlite3ExprDeleteNN(db, p);
db = 0x50f2d8
p = 0x51bef8
No locals.
103735	}
#0  sqlite3ExprDelete (db=0x50f2d8, p=0x51bef8) at sqlite3.c:103735
103735	}
db = 0x50f2d8
p = 0x51bef8
No locals.
exprListDeleteNN (db=0x50f2d8, pList=0x51be78) at sqlite3.c:104510
104510	    sqlite3DbFree(db, pItem->zEName);
#0  exprListDeleteNN (db=0x50f2d8, pList=0x51be78) at sqlite3.c:104510
104510	    sqlite3DbFree(db, pItem->zEName);
db = 0x50f2d8
pList = 0x51be78
i = 2
pItem = 0x51be80
104511	    pItem++;
#0  exprListDeleteNN (db=0x50f2d8, pList=0x51be78) at sqlite3.c:104511
104511	    pItem++;
db = 0x50f2d8
pList = 0x51be78
i = 2
pItem = 0x51be80
104512	  }while( --i>0 );
#0  exprListDeleteNN (db=0x50f2d8, pList=0x51be78) at sqlite3.c:104512
104512	  }while( --i>0 );
db = 0x50f2d8
pList = 0x51be78
i = 2
pItem = 0x51be98
104509	    sqlite3ExprDelete(db, pItem->pExpr);
#0  exprListDeleteNN (db=0x50f2d8, pList=0x51be78) at sqlite3.c:104509
104509	    sqlite3ExprDelete(db, pItem->pExpr);
db = 0x50f2d8
pList = 0x51be78
i = 1
pItem = 0x51be98

Breakpoint 1, sqlite3ExprDelete (db=0x50f2d8, p=0x51bdf8) at sqlite3.c:103734
103734	  if( p ) sqlite3ExprDeleteNN(db, p);
#0  sqlite3ExprDelete (db=0x50f2d8, p=0x51bdf8) at sqlite3.c:103734
103734	  if( p ) sqlite3ExprDeleteNN(db, p);
db = 0x50f2d8
p = 0x51bdf8
No locals.
103735	}
#0  sqlite3ExprDelete (db=0x50f2d8, p=0x51bdf8) at sqlite3.c:103735
103735	}
db = 0x50f2d8
p = 0x51bdf8
No locals.

Breakpoint 1, sqlite3ExprDelete (db=0x50f2d8, p=0x51c178) at sqlite3.c:103734
103734	  if( p ) sqlite3ExprDeleteNN(db, p);
#0  sqlite3ExprDelete (db=0x50f2d8, p=0x51c178) at sqlite3.c:103734
103734	  if( p ) sqlite3ExprDeleteNN(db, p);
db = 0x50f2d8
p = 0x51c178
No locals.
103735	}
#0  sqlite3ExprDelete (db=0x50f2d8, p=0x51c178) at sqlite3.c:103735
103735	}
db = 0x50f2d8
p = 0x51c178
No locals.
exprListDeleteNN (db=0x50f2d8, pList=0x51c1f8) at sqlite3.c:104510
104510	    sqlite3DbFree(db, pItem->zEName);
#0  exprListDeleteNN (db=0x50f2d8, pList=0x51c1f8) at sqlite3.c:104510
104510	    sqlite3DbFree(db, pItem->zEName);
db = 0x50f2d8
pList = 0x51c1f8
i = 1
pItem = 0x51c200
104511	    pItem++;
#0  exprListDeleteNN (db=0x50f2d8, pList=0x51c1f8) at sqlite3.c:104511
104511	    pItem++;
db = 0x50f2d8
pList = 0x51c1f8
i = 1
pItem = 0x51c200
104512	  }while( --i>0 );
#0  exprListDeleteNN (db=0x50f2d8, pList=0x51c1f8) at sqlite3.c:104512
104512	  }while( --i>0 );
db = 0x50f2d8
pList = 0x51c1f8
i = 1
pItem = 0x51c218
104513	  sqlite3DbFreeNN(db, pList);
#0  exprListDeleteNN (db=0x50f2d8, pList=0x51c1f8) at sqlite3.c:104513
104513	  sqlite3DbFreeNN(db, pList);
db = 0x50f2d8
pList = 0x51c1f8
i = 0
pItem = 0x51c218
104514	}
#0  exprListDeleteNN (db=0x50f2d8, pList=0x51c1f8) at sqlite3.c:104514
104514	}
db = 0x50f2d8
pList = 0x51c1f8
i = 0
pItem = 0x51c218
sqlite3ExprListDelete (db=0x50f2d8, pList=0x51c1f8) at sqlite3.c:104517
104517	}
#0  sqlite3ExprListDelete (db=0x50f2d8, pList=0x51c1f8) at sqlite3.c:104517
104517	}
db = 0x50f2d8
pList = 0x51c1f8
No locals.

Breakpoint 1, sqlite3ExprDelete (db=0x50f2d8, p=0x0) at sqlite3.c:103734
103734	  if( p ) sqlite3ExprDeleteNN(db, p);
#0  sqlite3ExprDelete (db=0x50f2d8, p=0x0) at sqlite3.c:103734
103734	  if( p ) sqlite3ExprDeleteNN(db, p);
db = 0x50f2d8
p = 0x0
No locals.
103735	}
#0  sqlite3ExprDelete (db=0x50f2d8, p=0x0) at sqlite3.c:103735
103735	}
db = 0x50f2d8
p = 0x0
No locals.
sqlite3Update (pParse=0x7fffffffd9d8, pTabList=0x51d2f8, pChanges=0x51c1f8, pWhere=0x0, onError=4, pOrderBy=0x0, pLimit=0x0, pUpsert=0x0) at sqlite3.c:144594
144594	  return;
#0  sqlite3Update (pParse=0x7fffffffd9d8, pTabList=0x51d2f8, pChanges=0x51c1f8, pWhere=0x0, onError=4, pOrderBy=0x0, pLimit=0x0, pUpsert=0x0) at sqlite3.c:144594
144594	  return;
pParse = 0x7fffffffd9d8
pTabList = 0x51d2f8
pChanges = 0x51c1f8
pWhere = 0x0
onError = 4
pOrderBy = 0x0
pLimit = 0x0
pUpsert = 0x0
i = 3
j = -1
k = 6
pTab = 0x51f7f8
addrTop = 0
pWInfo = 0x5196e8
v = 0x519b98
pIdx = 0x0
pPk = 0x0
nIdx = 0
nAllIdx = 0
iBaseCur = 0
iDataCur = 0
iIdxCur = 1
db = 0x50f2d8
aRegIdx = 0x51ce84
aXRef = 0x51ce78
aToOpen = 0x51ce88 ""
chngPk = 0 '\000'
chngRowid = 0 '\000'
chngKey = 0 '\000'
pRowidExpr = 0x0
iRowidExpr = -1
sContext = {zAuthContext = 0x0, pParse = 0x0}
sNC = {pParse = 0x7fffffffd9d8, pSrcList = 0x51d2f8, uNC = {pEList = 0x0, pAggInfo = 0x0, pUpsert = 0x0, iBaseReg = 0}, pNext = 0x0, nRef = 0, nNcErr = 0, ncFlags = 512, pWinSelect = 0x0}
iDb = 1
eOnePass = 2
hasFK = 0
labelBreak = -1
labelContinue = -5
flags = 12
isView = 0
pTrigger = 0x0
tmask = 0
newmask = 0
iEph = 1
nKey = 0
aiCurOnePass = {0, -1}
addrOpen = 2
iPk = 0
nPk = 0
bReplace = 0
bFinishSeek = 0
nChangeFrom = 0
regRowCount = 0
regOldRowid = 2
regNewRowid = 2
regNew = 3
regOld = 0
regRowSet = 1
regKey = 0
yy_reduce (yypParser=0x7fffffffcfc0, yyruleno=157, yyLookahead=1, yyLookaheadToken=..., pParse=0x7fffffffd9d8) at sqlite3.c:165601
165601	        break;
#0  yy_reduce (yypParser=0x7fffffffcfc0, yyruleno=157, yyLookahead=1, yyLookaheadToken=..., pParse=0x7fffffffd9d8) at sqlite3.c:165601
165601	        break;
yypParser = 0x7fffffffcfc0
yyruleno = 157
yyLookahead = 1
yyLookaheadToken = {z = 0x51d4ca ";\nUPDATE t0 SET (c2)=(NULL) WHERE 0.1543927082069091;\nUPDATE OR REPLACE t0 SET (c1)=(NULL) WHERE (t0.c1 IN (t0.c2));\nUPDATE OR IGNORE t0 SET (c1, c0)=('', x'd4') WHERE (NULL IN ());\nCOMMIT TRANSACTION"..., n = 1}
pParse = 0x7fffffffd9d8
yygoto = 267
yyact = 1393
yymsp = 0x7fffffffd0a8
yysize = 0
166460	  yygoto = yyRuleInfoLhs[yyruleno];
#0  yy_reduce (yypParser=0x7fffffffcfc0, yyruleno=157, yyLookahead=1, yyLookaheadToken=..., pParse=0x7fffffffd9d8) at sqlite3.c:166460
166460	  yygoto = yyRuleInfoLhs[yyruleno];
yypParser = 0x7fffffffcfc0
yyruleno = 157
yyLookahead = 1
yyLookaheadToken = {z = 0x51d4ca ";\nUPDATE t0 SET (c2)=(NULL) WHERE 0.1543927082069091;\nUPDATE OR REPLACE t0 SET (c1)=(NULL) WHERE (t0.c1 IN (t0.c2));\nUPDATE OR IGNORE t0 SET (c1, c0)=('', x'd4') WHERE (NULL IN ());\nCOMMIT TRANSACTION"..., n = 1}
pParse = 0x7fffffffd9d8
yygoto = 267
yyact = 1393
yymsp = 0x7fffffffd0a8
yysize = 0
166461	  yysize = yyRuleInfoNRhs[yyruleno];
#0  yy_reduce (yypParser=0x7fffffffcfc0, yyruleno=157, yyLookahead=1, yyLookaheadToken=..., pParse=0x7fffffffd9d8) at sqlite3.c:166461
166461	  yysize = yyRuleInfoNRhs[yyruleno];
yypParser = 0x7fffffffcfc0
yyruleno = 157
yyLookahead = 1
yyLookaheadToken = {z = 0x51d4ca ";\nUPDATE t0 SET (c2)=(NULL) WHERE 0.1543927082069091;\nUPDATE OR REPLACE t0 SET (c1)=(NULL) WHERE (t0.c1 IN (t0.c2));\nUPDATE OR IGNORE t0 SET (c1, c0)=('', x'd4') WHERE (NULL IN ());\nCOMMIT TRANSACTION"..., n = 1}
pParse = 0x7fffffffd9d8
yygoto = 190
yyact = 1393
yymsp = 0x7fffffffd0a8
yysize = 0
166462	  yyact = yy_find_reduce_action(yymsp[yysize].stateno,(YYCODETYPE)yygoto);
#0  yy_reduce (yypParser=0x7fffffffcfc0, yyruleno=157, yyLookahead=1, yyLookaheadToken=..., pParse=0x7fffffffd9d8) at sqlite3.c:166462
166462	  yyact = yy_find_reduce_action(yymsp[yysize].stateno,(YYCODETYPE)yygoto);
yypParser = 0x7fffffffcfc0
yyruleno = 157
yyLookahead = 1
yyLookaheadToken = {z = 0x51d4ca ";\nUPDATE t0 SET (c2)=(NULL) WHERE 0.1543927082069091;\nUPDATE OR REPLACE t0 SET (c1)=(NULL) WHERE (t0.c1 IN (t0.c2));\nUPDATE OR IGNORE t0 SET (c1, c0)=('', x'd4') WHERE (NULL IN ());\nCOMMIT TRANSACTION"..., n = 1}
pParse = 0x7fffffffd9d8
yygoto = 190
yyact = 1393
yymsp = 0x7fffffffd0a8
yysize = -9
166471	  yymsp += yysize+1;
#0  yy_reduce (yypParser=0x7fffffffcfc0, yyruleno=157, yyLookahead=1, yyLookaheadToken=..., pParse=0x7fffffffd9d8) at sqlite3.c:166471
166471	  yymsp += yysize+1;
yypParser = 0x7fffffffcfc0
yyruleno = 157
yyLookahead = 1
yyLookaheadToken = {z = 0x51d4ca ";\nUPDATE t0 SET (c2)=(NULL) WHERE 0.1543927082069091;\nUPDATE OR REPLACE t0 SET (c1)=(NULL) WHERE (t0.c1 IN (t0.c2));\nUPDATE OR IGNORE t0 SET (c1, c0)=('', x'd4') WHERE (NULL IN ());\nCOMMIT TRANSACTION"..., n = 1}
pParse = 0x7fffffffd9d8
yygoto = 190
yyact = 1238
yymsp = 0x7fffffffd0a8
yysize = -9

Breakpoint 1, sqlite3ExprDelete (db=0x50f2d8, p=0x51d2f8) at sqlite3.c:103734
103734	  if( p ) sqlite3ExprDeleteNN(db, p);
#0  sqlite3ExprDelete (db=0x50f2d8, p=0x51d2f8) at sqlite3.c:103734
103734	  if( p ) sqlite3ExprDeleteNN(db, p);
db = 0x50f2d8
p = 0x51d2f8
No locals.
103735	}
#0  sqlite3ExprDelete (db=0x50f2d8, p=0x51d2f8) at sqlite3.c:103735
103735	}
db = 0x50f2d8
p = 0x51d2f8
No locals.
exprListDeleteNN (db=0x50f2d8, pList=0x51d278) at sqlite3.c:104510
104510	    sqlite3DbFree(db, pItem->zEName);
#0  exprListDeleteNN (db=0x50f2d8, pList=0x51d278) at sqlite3.c:104510
104510	    sqlite3DbFree(db, pItem->zEName);
db = 0x50f2d8
pList = 0x51d278
i = 1
pItem = 0x51d280
104511	    pItem++;
#0  exprListDeleteNN (db=0x50f2d8, pList=0x51d278) at sqlite3.c:104511
104511	    pItem++;
db = 0x50f2d8
pList = 0x51d278
i = 1
pItem = 0x51d280
104512	  }while( --i>0 );
#0  exprListDeleteNN (db=0x50f2d8, pList=0x51d278) at sqlite3.c:104512
104512	  }while( --i>0 );
db = 0x50f2d8
pList = 0x51d278
i = 1
pItem = 0x51d298
104513	  sqlite3DbFreeNN(db, pList);
#0  exprListDeleteNN (db=0x50f2d8, pList=0x51d278) at sqlite3.c:104513
104513	  sqlite3DbFreeNN(db, pList);
db = 0x50f2d8
pList = 0x51d278
i = 0
pItem = 0x51d298
104514	}
#0  exprListDeleteNN (db=0x50f2d8, pList=0x51d278) at sqlite3.c:104514
104514	}
db = 0x50f2d8
pList = 0x51d278
i = 0
pItem = 0x51d298
sqlite3ExprListDelete (db=0x50f2d8, pList=0x51d278) at sqlite3.c:104517
104517	}
#0  sqlite3ExprListDelete (db=0x50f2d8, pList=0x51d278) at sqlite3.c:104517
104517	}
db = 0x50f2d8
pList = 0x51d278
No locals.

Breakpoint 1, sqlite3ExprDelete (db=0x50f2d8, p=0x51c278) at sqlite3.c:103734
103734	  if( p ) sqlite3ExprDeleteNN(db, p);
#0  sqlite3ExprDelete (db=0x50f2d8, p=0x51c278) at sqlite3.c:103734
103734	  if( p ) sqlite3ExprDeleteNN(db, p);
db = 0x50f2d8
p = 0x51c278
No locals.
103735	}
#0  sqlite3ExprDelete (db=0x50f2d8, p=0x51c278) at sqlite3.c:103735
103735	}
db = 0x50f2d8
p = 0x51c278
No locals.
sqlite3Update (pParse=0x7fffffffd9d8, pTabList=0x51c2f8, pChanges=0x51d278, pWhere=0x51c278, onError=11, pOrderBy=0x0, pLimit=0x0, pUpsert=0x0) at sqlite3.c:144594
144594	  return;
#0  sqlite3Update (pParse=0x7fffffffd9d8, pTabList=0x51c2f8, pChanges=0x51d278, pWhere=0x51c278, onError=11, pOrderBy=0x0, pLimit=0x0, pUpsert=0x0) at sqlite3.c:144594
144594	  return;
pParse = 0x7fffffffd9d8
pTabList = 0x51c2f8
pChanges = 0x51d278
pWhere = 0x51c278
onError = 11
pOrderBy = 0x0
pLimit = 0x0
pUpsert = 0x0
i = 3
j = 0
k = 6
pTab = 0x51f7f8
addrTop = 0
pWInfo = 0x5196e8
v = 0x519b98
pIdx = 0x0
pPk = 0x0
nIdx = 0
nAllIdx = 0
iBaseCur = 0
iDataCur = 0
iIdxCur = 1
db = 0x50f2d8
aRegIdx = 0x51c204
aXRef = 0x51c1f8
aToOpen = 0x51c208 ""
chngPk = 0 '\000'
chngRowid = 0 '\000'
chngKey = 0 '\000'
pRowidExpr = 0x0
iRowidExpr = -1
sContext = {zAuthContext = 0x0, pParse = 0x0}
sNC = {pParse = 0x7fffffffd9d8, pSrcList = 0x51c2f8, uNC = {pEList = 0x0, pAggInfo = 0x0, pUpsert = 0x0, iBaseReg = 0}, pNext = 0x0, nRef = 0, nNcErr = 0, ncFlags = 512, pWinSelect = 0x0}
iDb = 1
eOnePass = 2
hasFK = 0
labelBreak = -1
labelContinue = -5
flags = 12
isView = 0
pTrigger = 0x0
tmask = 0
newmask = 0
iEph = 1
nKey = 0
aiCurOnePass = {0, -1}
addrOpen = 2
iPk = 0
nPk = 0
bReplace = 0
bFinishSeek = 0
nChangeFrom = 0
regRowCount = 0
regOldRowid = 2
regNewRowid = 2
regNew = 3
regOld = 0
regRowSet = 1
regKey = 0
yy_reduce (yypParser=0x7fffffffcfc0, yyruleno=157, yyLookahead=1, yyLookaheadToken=..., pParse=0x7fffffffd9d8) at sqlite3.c:165601
165601	        break;
#0  yy_reduce (yypParser=0x7fffffffcfc0, yyruleno=157, yyLookahead=1, yyLookaheadToken=..., pParse=0x7fffffffd9d8) at sqlite3.c:165601
165601	        break;
yypParser = 0x7fffffffcfc0
yyruleno = 157
yyLookahead = 1
yyLookaheadToken = {z = 0x51d4fe ";\nUPDATE OR REPLACE t0 SET (c1)=(NULL) WHERE (t0.c1 IN (t0.c2));\nUPDATE OR IGNORE t0 SET (c1, c0)=('', x'd4') WHERE (NULL IN ());\nCOMMIT TRANSACTION;\nCOMMIT;\nINSERT OR IGNORE INTO t0(c2, c1) VALUES (5"..., n = 1}
pParse = 0x7fffffffd9d8
yygoto = 267
yyact = 1393
yymsp = 0x7fffffffd0a8
yysize = -2
166460	  yygoto = yyRuleInfoLhs[yyruleno];
#0  yy_reduce (yypParser=0x7fffffffcfc0, yyruleno=157, yyLookahead=1, yyLookaheadToken=..., pParse=0x7fffffffd9d8) at sqlite3.c:166460
166460	  yygoto = yyRuleInfoLhs[yyruleno];
yypParser = 0x7fffffffcfc0
yyruleno = 157
yyLookahead = 1
yyLookaheadToken = {z = 0x51d4fe ";\nUPDATE OR REPLACE t0 SET (c1)=(NULL) WHERE (t0.c1 IN (t0.c2));\nUPDATE OR IGNORE t0 SET (c1, c0)=('', x'd4') WHERE (NULL IN ());\nCOMMIT TRANSACTION;\nCOMMIT;\nINSERT OR IGNORE INTO t0(c2, c1) VALUES (5"..., n = 1}
pParse = 0x7fffffffd9d8
yygoto = 267
yyact = 1393
yymsp = 0x7fffffffd0a8
yysize = -2
166461	  yysize = yyRuleInfoNRhs[yyruleno];
#0  yy_reduce (yypParser=0x7fffffffcfc0, yyruleno=157, yyLookahead=1, yyLookaheadToken=..., pParse=0x7fffffffd9d8) at sqlite3.c:166461
166461	  yysize = yyRuleInfoNRhs[yyruleno];
yypParser = 0x7fffffffcfc0
yyruleno = 157
yyLookahead = 1
yyLookaheadToken = {z = 0x51d4fe ";\nUPDATE OR REPLACE t0 SET (c1)=(NULL) WHERE (t0.c1 IN (t0.c2));\nUPDATE OR IGNORE t0 SET (c1, c0)=('', x'd4') WHERE (NULL IN ());\nCOMMIT TRANSACTION;\nCOMMIT;\nINSERT OR IGNORE INTO t0(c2, c1) VALUES (5"..., n = 1}
pParse = 0x7fffffffd9d8
yygoto = 190
yyact = 1393
yymsp = 0x7fffffffd0a8
yysize = -2
166462	  yyact = yy_find_reduce_action(yymsp[yysize].stateno,(YYCODETYPE)yygoto);
#0  yy_reduce (yypParser=0x7fffffffcfc0, yyruleno=157, yyLookahead=1, yyLookaheadToken=..., pParse=0x7fffffffd9d8) at sqlite3.c:166462
166462	  yyact = yy_find_reduce_action(yymsp[yysize].stateno,(YYCODETYPE)yygoto);
yypParser = 0x7fffffffcfc0
yyruleno = 157
yyLookahead = 1
yyLookaheadToken = {z = 0x51d4fe ";\nUPDATE OR REPLACE t0 SET (c1)=(NULL) WHERE (t0.c1 IN (t0.c2));\nUPDATE OR IGNORE t0 SET (c1, c0)=('', x'd4') WHERE (NULL IN ());\nCOMMIT TRANSACTION;\nCOMMIT;\nINSERT OR IGNORE INTO t0(c2, c1) VALUES (5"..., n = 1}
pParse = 0x7fffffffd9d8
yygoto = 190
yyact = 1393
yymsp = 0x7fffffffd0a8
yysize = -9
166471	  yymsp += yysize+1;
#0  yy_reduce (yypParser=0x7fffffffcfc0, yyruleno=157, yyLookahead=1, yyLookaheadToken=..., pParse=0x7fffffffd9d8) at sqlite3.c:166471
166471	  yymsp += yysize+1;
yypParser = 0x7fffffffcfc0
yyruleno = 157
yyLookahead = 1
yyLookaheadToken = {z = 0x51d4fe ";\nUPDATE OR REPLACE t0 SET (c1)=(NULL) WHERE (t0.c1 IN (t0.c2));\nUPDATE OR IGNORE t0 SET (c1, c0)=('', x'd4') WHERE (NULL IN ());\nCOMMIT TRANSACTION;\nCOMMIT;\nINSERT OR IGNORE INTO t0(c2, c1) VALUES (5"..., n = 1}
pParse = 0x7fffffffd9d8
yygoto = 190
yyact = 1238
yymsp = 0x7fffffffd0a8
yysize = -9

Breakpoint 1, sqlite3ExprDelete (db=0x50f2d8, p=0x51c178) at sqlite3.c:103734
103734	  if( p ) sqlite3ExprDeleteNN(db, p);
#0  sqlite3ExprDelete (db=0x50f2d8, p=0x51c178) at sqlite3.c:103734
103734	  if( p ) sqlite3ExprDeleteNN(db, p);
db = 0x50f2d8
p = 0x51c178
No locals.
103735	}
#0  sqlite3ExprDelete (db=0x50f2d8, p=0x51c178) at sqlite3.c:103735
103735	}
db = 0x50f2d8
p = 0x51c178
No locals.
exprListDeleteNN (db=0x50f2d8, pList=0x51ce78) at sqlite3.c:104510
104510	    sqlite3DbFree(db, pItem->zEName);
#0  exprListDeleteNN (db=0x50f2d8, pList=0x51ce78) at sqlite3.c:104510
104510	    sqlite3DbFree(db, pItem->zEName);
db = 0x50f2d8
pList = 0x51ce78
i = 1
pItem = 0x51ce80
104511	    pItem++;
#0  exprListDeleteNN (db=0x50f2d8, pList=0x51ce78) at sqlite3.c:104511
104511	    pItem++;
db = 0x50f2d8
pList = 0x51ce78
i = 1
pItem = 0x51ce80
104512	  }while( --i>0 );
#0  exprListDeleteNN (db=0x50f2d8, pList=0x51ce78) at sqlite3.c:104512
104512	  }while( --i>0 );
db = 0x50f2d8
pList = 0x51ce78
i = 1
pItem = 0x51ce98
104513	  sqlite3DbFreeNN(db, pList);
#0  exprListDeleteNN (db=0x50f2d8, pList=0x51ce78) at sqlite3.c:104513
104513	  sqlite3DbFreeNN(db, pList);
db = 0x50f2d8
pList = 0x51ce78
i = 0
pItem = 0x51ce98
104514	}
#0  exprListDeleteNN (db=0x50f2d8, pList=0x51ce78) at sqlite3.c:104514
104514	}
db = 0x50f2d8
pList = 0x51ce78
i = 0
pItem = 0x51ce98
sqlite3ExprListDelete (db=0x50f2d8, pList=0x51ce78) at sqlite3.c:104517
104517	}
#0  sqlite3ExprListDelete (db=0x50f2d8, pList=0x51ce78) at sqlite3.c:104517
104517	}
db = 0x50f2d8
pList = 0x51ce78
No locals.

Breakpoint 1, sqlite3ExprDelete (db=0x50f2d8, p=0x51c278) at sqlite3.c:103734
103734	  if( p ) sqlite3ExprDeleteNN(db, p);
#0  sqlite3ExprDelete (db=0x50f2d8, p=0x51c278) at sqlite3.c:103734
103734	  if( p ) sqlite3ExprDeleteNN(db, p);
db = 0x50f2d8
p = 0x51c278
No locals.
103735	}
#0  sqlite3ExprDelete (db=0x50f2d8, p=0x51c278) at sqlite3.c:103735
103735	}
db = 0x50f2d8
p = 0x51c278
No locals.
lookupName (pParse=0x7fffffffd9d8, zDb=0x0, zTab=0x51c2c0 "t0", zCol=0x51cec0 "c1", pNC=0x7fffffffc9e8, pExpr=0x51d278) at sqlite3.c:101076
101076	    pExpr->pLeft = 0;
#0  lookupName (pParse=0x7fffffffd9d8, zDb=0x0, zTab=0x51c2c0 "t0", zCol=0x51cec0 "c1", pNC=0x7fffffffc9e8, pExpr=0x51d278) at sqlite3.c:101076
101076	    pExpr->pLeft = 0;
pParse = 0x7fffffffd9d8
zDb = 0x0
zTab = 0x51c2c0 "t0"
zCol = 0x51cec0 "c1"
pNC = 0x7fffffffc9e8
pExpr = 0x51d278
i = 1
j = 1
cnt = 1
cntTab = 0
nSubquery = 0
db = 0x50f2d8
pItem = 0x51c470
pMatch = 0x51c400
pTopNC = 0x7fffffffc9e8
pSchema = 0x511608
eNewExprOp = 167
pTab = 0x51f7f8
pCol = 0x521ae8
101077	    sqlite3ExprDelete(db, pExpr->pRight);
#0  lookupName (pParse=0x7fffffffd9d8, zDb=0x0, zTab=0x51c2c0 "t0", zCol=0x51cec0 "c1", pNC=0x7fffffffc9e8, pExpr=0x51d278) at sqlite3.c:101077
101077	    sqlite3ExprDelete(db, pExpr->pRight);
pParse = 0x7fffffffd9d8
zDb = 0x0
zTab = 0x51c2c0 "t0"
zCol = 0x51cec0 "c1"
pNC = 0x7fffffffc9e8
pExpr = 0x51d278
i = 1
j = 1
cnt = 1
cntTab = 0
nSubquery = 0
db = 0x50f2d8
pItem = 0x51c470
pMatch = 0x51c400
pTopNC = 0x7fffffffc9e8
pSchema = 0x511608
eNewExprOp = 167
pTab = 0x51f7f8
pCol = 0x521ae8

Breakpoint 1, sqlite3ExprDelete (db=0x50f2d8, p=0x51ce78) at sqlite3.c:103734
103734	  if( p ) sqlite3ExprDeleteNN(db, p);
#0  sqlite3ExprDelete (db=0x50f2d8, p=0x51ce78) at sqlite3.c:103734
103734	  if( p ) sqlite3ExprDeleteNN(db, p);
db = 0x50f2d8
p = 0x51ce78
No locals.
103735	}
#0  sqlite3ExprDelete (db=0x50f2d8, p=0x51ce78) at sqlite3.c:103735
103735	}
db = 0x50f2d8
p = 0x51ce78
No locals.
lookupName (pParse=0x7fffffffd9d8, zDb=0x0, zTab=0x51c2c0 "t0", zCol=0x51cec0 "c1", pNC=0x7fffffffc9e8, pExpr=0x51d278) at sqlite3.c:101078
101078	    pExpr->pRight = 0;
#0  lookupName (pParse=0x7fffffffd9d8, zDb=0x0, zTab=0x51c2c0 "t0", zCol=0x51cec0 "c1", pNC=0x7fffffffc9e8, pExpr=0x51d278) at sqlite3.c:101078
101078	    pExpr->pRight = 0;
pParse = 0x7fffffffd9d8
zDb = 0x0
zTab = 0x51c2c0 "t0"
zCol = 0x51cec0 "c1"
pNC = 0x7fffffffc9e8
pExpr = 0x51d278
i = 1
j = 1
cnt = 1
cntTab = 0
nSubquery = 0
db = 0x50f2d8
pItem = 0x51c470
pMatch = 0x51c400
pTopNC = 0x7fffffffc9e8
pSchema = 0x511608
eNewExprOp = 167
pTab = 0x51f7f8
pCol = 0x521ae8
101080	  pExpr->op = eNewExprOp;
#0  lookupName (pParse=0x7fffffffd9d8, zDb=0x0, zTab=0x51c2c0 "t0", zCol=0x51cec0 "c1", pNC=0x7fffffffc9e8, pExpr=0x51d278) at sqlite3.c:101080
101080	  pExpr->op = eNewExprOp;
pParse = 0x7fffffffd9d8
zDb = 0x0
zTab = 0x51c2c0 "t0"
zCol = 0x51cec0 "c1"
pNC = 0x7fffffffc9e8
pExpr = 0x51d278
i = 1
j = 1
cnt = 1
cntTab = 0
nSubquery = 0
db = 0x50f2d8
pItem = 0x51c470
pMatch = 0x51c400
pTopNC = 0x7fffffffc9e8
pSchema = 0x511608
eNewExprOp = 167
pTab = 0x51f7f8
pCol = 0x521ae8

Breakpoint 1, sqlite3ExprDelete (db=0x50f2d8, p=0x51c2f8) at sqlite3.c:103734
103734	  if( p ) sqlite3ExprDeleteNN(db, p);
#0  sqlite3ExprDelete (db=0x50f2d8, p=0x51c2f8) at sqlite3.c:103734
103734	  if( p ) sqlite3ExprDeleteNN(db, p);
db = 0x50f2d8
p = 0x51c2f8
No locals.
103735	}
#0  sqlite3ExprDelete (db=0x50f2d8, p=0x51c2f8) at sqlite3.c:103735
103735	}
db = 0x50f2d8
p = 0x51c2f8
No locals.
lookupName (pParse=0x7fffffffd9d8, zDb=0x0, zTab=0x51c340 "t0", zCol=0x51c140 "c2", pNC=0x7fffffffc9e8, pExpr=0x51c1f8) at sqlite3.c:101076
101076	    pExpr->pLeft = 0;
#0  lookupName (pParse=0x7fffffffd9d8, zDb=0x0, zTab=0x51c340 "t0", zCol=0x51c140 "c2", pNC=0x7fffffffc9e8, pExpr=0x51c1f8) at sqlite3.c:101076
101076	    pExpr->pLeft = 0;
pParse = 0x7fffffffd9d8
zDb = 0x0
zTab = 0x51c340 "t0"
zCol = 0x51c140 "c2"
pNC = 0x7fffffffc9e8
pExpr = 0x51c1f8
i = 1
j = 2
cnt = 1
cntTab = 0
nSubquery = 0
db = 0x50f2d8
pItem = 0x51c470
pMatch = 0x51c400
pTopNC = 0x7fffffffc9e8
pSchema = 0x511608
eNewExprOp = 167
pTab = 0x51f7f8
pCol = 0x521af8
101077	    sqlite3ExprDelete(db, pExpr->pRight);
#0  lookupName (pParse=0x7fffffffd9d8, zDb=0x0, zTab=0x51c340 "t0", zCol=0x51c140 "c2", pNC=0x7fffffffc9e8, pExpr=0x51c1f8) at sqlite3.c:101077
101077	    sqlite3ExprDelete(db, pExpr->pRight);
pParse = 0x7fffffffd9d8
zDb = 0x0
zTab = 0x51c340 "t0"
zCol = 0x51c140 "c2"
pNC = 0x7fffffffc9e8
pExpr = 0x51c1f8
i = 1
j = 2
cnt = 1
cntTab = 0
nSubquery = 0
db = 0x50f2d8
pItem = 0x51c470
pMatch = 0x51c400
pTopNC = 0x7fffffffc9e8
pSchema = 0x511608
eNewExprOp = 167
pTab = 0x51f7f8
pCol = 0x521af8

Breakpoint 1, sqlite3ExprDelete (db=0x50f2d8, p=0x51c0f8) at sqlite3.c:103734
103734	  if( p ) sqlite3ExprDeleteNN(db, p);
#0  sqlite3ExprDelete (db=0x50f2d8, p=0x51c0f8) at sqlite3.c:103734
103734	  if( p ) sqlite3ExprDeleteNN(db, p);
db = 0x50f2d8
p = 0x51c0f8
No locals.
103735	}
#0  sqlite3ExprDelete (db=0x50f2d8, p=0x51c0f8) at sqlite3.c:103735
103735	}
db = 0x50f2d8
p = 0x51c0f8
No locals.
lookupName (pParse=0x7fffffffd9d8, zDb=0x0, zTab=0x51c340 "t0", zCol=0x51c140 "c2", pNC=0x7fffffffc9e8, pExpr=0x51c1f8) at sqlite3.c:101078
101078	    pExpr->pRight = 0;
#0  lookupName (pParse=0x7fffffffd9d8, zDb=0x0, zTab=0x51c340 "t0", zCol=0x51c140 "c2", pNC=0x7fffffffc9e8, pExpr=0x51c1f8) at sqlite3.c:101078
101078	    pExpr->pRight = 0;
pParse = 0x7fffffffd9d8
zDb = 0x0
zTab = 0x51c340 "t0"
zCol = 0x51c140 "c2"
pNC = 0x7fffffffc9e8
pExpr = 0x51c1f8
i = 1
j = 2
cnt = 1
cntTab = 0
nSubquery = 0
db = 0x50f2d8
pItem = 0x51c470
pMatch = 0x51c400
pTopNC = 0x7fffffffc9e8
pSchema = 0x511608
eNewExprOp = 167
pTab = 0x51f7f8
pCol = 0x521af8
101080	  pExpr->op = eNewExprOp;
#0  lookupName (pParse=0x7fffffffd9d8, zDb=0x0, zTab=0x51c340 "t0", zCol=0x51c140 "c2", pNC=0x7fffffffc9e8, pExpr=0x51c1f8) at sqlite3.c:101080
101080	  pExpr->op = eNewExprOp;
pParse = 0x7fffffffd9d8
zDb = 0x0
zTab = 0x51c340 "t0"
zCol = 0x51c140 "c2"
pNC = 0x7fffffffc9e8
pExpr = 0x51c1f8
i = 1
j = 2
cnt = 1
cntTab = 0
nSubquery = 0
db = 0x50f2d8
pItem = 0x51c470
pMatch = 0x51c400
pTopNC = 0x7fffffffc9e8
pSchema = 0x511608
eNewExprOp = 167
pTab = 0x51f7f8
pCol = 0x521af8

Breakpoint 1, sqlite3ExprDelete (db=0x50f2d8, p=0x51d078) at sqlite3.c:103734
103734	  if( p ) sqlite3ExprDeleteNN(db, p);
#0  sqlite3ExprDelete (db=0x50f2d8, p=0x51d078) at sqlite3.c:103734
103734	  if( p ) sqlite3ExprDeleteNN(db, p);
db = 0x50f2d8
p = 0x51d078
No locals.
103735	}
#0  sqlite3ExprDelete (db=0x50f2d8, p=0x51d078) at sqlite3.c:103735
103735	}
db = 0x50f2d8
p = 0x51d078
No locals.
exprListDeleteNN (db=0x50f2d8, pList=0x51d2f8) at sqlite3.c:104510
104510	    sqlite3DbFree(db, pItem->zEName);
#0  exprListDeleteNN (db=0x50f2d8, pList=0x51d2f8) at sqlite3.c:104510
104510	    sqlite3DbFree(db, pItem->zEName);
db = 0x50f2d8
pList = 0x51d2f8
i = 1
pItem = 0x51d300
104511	    pItem++;
#0  exprListDeleteNN (db=0x50f2d8, pList=0x51d2f8) at sqlite3.c:104511
104511	    pItem++;
db = 0x50f2d8
pList = 0x51d2f8
i = 1
pItem = 0x51d300
104512	  }while( --i>0 );
#0  exprListDeleteNN (db=0x50f2d8, pList=0x51d2f8) at sqlite3.c:104512
104512	  }while( --i>0 );
db = 0x50f2d8
pList = 0x51d2f8
i = 1
pItem = 0x51d318
104513	  sqlite3DbFreeNN(db, pList);
#0  exprListDeleteNN (db=0x50f2d8, pList=0x51d2f8) at sqlite3.c:104513
104513	  sqlite3DbFreeNN(db, pList);
db = 0x50f2d8
pList = 0x51d2f8
i = 0
pItem = 0x51d318
104514	}
#0  exprListDeleteNN (db=0x50f2d8, pList=0x51d2f8) at sqlite3.c:104514
104514	}
db = 0x50f2d8
pList = 0x51d2f8
i = 0
pItem = 0x51d318
sqlite3ExprListDelete (db=0x50f2d8, pList=0x51d2f8) at sqlite3.c:104517
104517	}
#0  sqlite3ExprListDelete (db=0x50f2d8, pList=0x51d2f8) at sqlite3.c:104517
104517	}
db = 0x50f2d8
pList = 0x51d2f8
No locals.

Breakpoint 1, sqlite3ExprDelete (db=0x50f2d8, p=0x51cd78) at sqlite3.c:103734
103734	  if( p ) sqlite3ExprDeleteNN(db, p);
#0  sqlite3ExprDelete (db=0x50f2d8, p=0x51cd78) at sqlite3.c:103734
103734	  if( p ) sqlite3ExprDeleteNN(db, p);
db = 0x50f2d8
p = 0x51cd78
No locals.

Breakpoint 1, sqlite3ExprDelete (db=0x50f2d8, p=0x51c1f8) at sqlite3.c:103734
103734	  if( p ) sqlite3ExprDeleteNN(db, p);
#0  sqlite3ExprDelete (db=0x50f2d8, p=0x51c1f8) at sqlite3.c:103734
103734	  if( p ) sqlite3ExprDeleteNN(db, p);
db = 0x50f2d8
p = 0x51c1f8
No locals.
103735	}
#0  sqlite3ExprDelete (db=0x50f2d8, p=0x51c1f8) at sqlite3.c:103735
103735	}
db = 0x50f2d8
p = 0x51c1f8
No locals.
exprListDeleteNN (db=0x50f2d8, pList=0x51cff8) at sqlite3.c:104510
104510	    sqlite3DbFree(db, pItem->zEName);
#0  exprListDeleteNN (db=0x50f2d8, pList=0x51cff8) at sqlite3.c:104510
104510	    sqlite3DbFree(db, pItem->zEName);
db = 0x50f2d8
pList = 0x51cff8
i = 1
pItem = 0x51d000
104511	    pItem++;
#0  exprListDeleteNN (db=0x50f2d8, pList=0x51cff8) at sqlite3.c:104511
104511	    pItem++;
db = 0x50f2d8
pList = 0x51cff8
i = 1
pItem = 0x51d000
104512	  }while( --i>0 );
#0  exprListDeleteNN (db=0x50f2d8, pList=0x51cff8) at sqlite3.c:104512
104512	  }while( --i>0 );
db = 0x50f2d8
pList = 0x51cff8
i = 1
pItem = 0x51d018
104513	  sqlite3DbFreeNN(db, pList);
#0  exprListDeleteNN (db=0x50f2d8, pList=0x51cff8) at sqlite3.c:104513
104513	  sqlite3DbFreeNN(db, pList);
db = 0x50f2d8
pList = 0x51cff8
i = 0
pItem = 0x51d018
104514	}
#0  exprListDeleteNN (db=0x50f2d8, pList=0x51cff8) at sqlite3.c:104514
104514	}
db = 0x50f2d8
pList = 0x51cff8
i = 0
pItem = 0x51d018

Breakpoint 1, sqlite3ExprDelete (db=0x50f2d8, p=0x51d2f8) at sqlite3.c:103734
103734	  if( p ) sqlite3ExprDeleteNN(db, p);
#0  sqlite3ExprDelete (db=0x50f2d8, p=0x51d2f8) at sqlite3.c:103734
103734	  if( p ) sqlite3ExprDeleteNN(db, p);
db = 0x50f2d8
p = 0x51d2f8
No locals.
103735	}
#0  sqlite3ExprDelete (db=0x50f2d8, p=0x51d2f8) at sqlite3.c:103735
103735	}
db = 0x50f2d8
p = 0x51d2f8
No locals.
exprListDeleteNN (db=0x50f2d8, pList=0x51c178) at sqlite3.c:104510
104510	    sqlite3DbFree(db, pItem->zEName);
#0  exprListDeleteNN (db=0x50f2d8, pList=0x51c178) at sqlite3.c:104510
104510	    sqlite3DbFree(db, pItem->zEName);
db = 0x50f2d8
pList = 0x51c178
i = 2
pItem = 0x51c180
104511	    pItem++;
#0  exprListDeleteNN (db=0x50f2d8, pList=0x51c178) at sqlite3.c:104511
104511	    pItem++;
db = 0x50f2d8
pList = 0x51c178
i = 2
pItem = 0x51c180
104512	  }while( --i>0 );
#0  exprListDeleteNN (db=0x50f2d8, pList=0x51c178) at sqlite3.c:104512
104512	  }while( --i>0 );
db = 0x50f2d8
pList = 0x51c178
i = 2
pItem = 0x51c198
104509	    sqlite3ExprDelete(db, pItem->pExpr);
#0  exprListDeleteNN (db=0x50f2d8, pList=0x51c178) at sqlite3.c:104509
104509	    sqlite3ExprDelete(db, pItem->pExpr);
db = 0x50f2d8
pList = 0x51c178
i = 1
pItem = 0x51c198

Breakpoint 1, sqlite3ExprDelete (db=0x50f2d8, p=0x51d078) at sqlite3.c:103734
103734	  if( p ) sqlite3ExprDeleteNN(db, p);
#0  sqlite3ExprDelete (db=0x50f2d8, p=0x51d078) at sqlite3.c:103734
103734	  if( p ) sqlite3ExprDeleteNN(db, p);
db = 0x50f2d8
p = 0x51d078
No locals.
103735	}
#0  sqlite3ExprDelete (db=0x50f2d8, p=0x51d078) at sqlite3.c:103735
103735	}
db = 0x50f2d8
p = 0x51d078
No locals.

Breakpoint 1, sqlite3ExprDelete (db=0x50f2d8, p=0x51c378) at sqlite3.c:103734
103734	  if( p ) sqlite3ExprDeleteNN(db, p);
#0  sqlite3ExprDelete (db=0x50f2d8, p=0x51c378) at sqlite3.c:103734
103734	  if( p ) sqlite3ExprDeleteNN(db, p);
db = 0x50f2d8
p = 0x51c378
No locals.
103735	}
#0  sqlite3ExprDelete (db=0x50f2d8, p=0x51c378) at sqlite3.c:103735
103735	}
db = 0x50f2d8
p = 0x51c378
No locals.
exprListDeleteNN (db=0x50f2d8, pList=0x51c578) at sqlite3.c:104510
104510	    sqlite3DbFree(db, pItem->zEName);
#0  exprListDeleteNN (db=0x50f2d8, pList=0x51c578) at sqlite3.c:104510
104510	    sqlite3DbFree(db, pItem->zEName);
db = 0x50f2d8
pList = 0x51c578
i = 2
pItem = 0x51c580
104511	    pItem++;
#0  exprListDeleteNN (db=0x50f2d8, pList=0x51c578) at sqlite3.c:104511
104511	    pItem++;
db = 0x50f2d8
pList = 0x51c578
i = 2
pItem = 0x51c580
104512	  }while( --i>0 );
#0  exprListDeleteNN (db=0x50f2d8, pList=0x51c578) at sqlite3.c:104512
104512	  }while( --i>0 );
db = 0x50f2d8
pList = 0x51c578
i = 2
pItem = 0x51c598
104509	    sqlite3ExprDelete(db, pItem->pExpr);
#0  exprListDeleteNN (db=0x50f2d8, pList=0x51c578) at sqlite3.c:104509
104509	    sqlite3ExprDelete(db, pItem->pExpr);
db = 0x50f2d8
pList = 0x51c578
i = 1
pItem = 0x51c598

Breakpoint 1, sqlite3ExprDelete (db=0x50f2d8, p=0x51c2f8) at sqlite3.c:103734
103734	  if( p ) sqlite3ExprDeleteNN(db, p);
#0  sqlite3ExprDelete (db=0x50f2d8, p=0x51c2f8) at sqlite3.c:103734
103734	  if( p ) sqlite3ExprDeleteNN(db, p);
db = 0x50f2d8
p = 0x51c2f8
No locals.
103735	}
#0  sqlite3ExprDelete (db=0x50f2d8, p=0x51c2f8) at sqlite3.c:103735
103735	}
db = 0x50f2d8
p = 0x51c2f8
No locals.

Breakpoint 1, sqlite3ExprDelete (db=0x50f2d8, p=0x51cd78) at sqlite3.c:103734
103734	  if( p ) sqlite3ExprDeleteNN(db, p);
#0  sqlite3ExprDelete (db=0x50f2d8, p=0x51cd78) at sqlite3.c:103734
103734	  if( p ) sqlite3ExprDeleteNN(db, p);
db = 0x50f2d8
p = 0x51cd78
No locals.
103735	}
#0  sqlite3ExprDelete (db=0x50f2d8, p=0x51cd78) at sqlite3.c:103735
103735	}
db = 0x50f2d8
p = 0x51cd78
No locals.
sqlite3Update (pParse=0x7fffffffd9d8, pTabList=0x51c278, pChanges=0x51c578, pWhere=0x51cd78, onError=4, pOrderBy=0x0, pLimit=0x0, pUpsert=0x0) at sqlite3.c:144594
144594	  return;
#0  sqlite3Update (pParse=0x7fffffffd9d8, pTabList=0x51c278, pChanges=0x51c578, pWhere=0x51cd78, onError=4, pOrderBy=0x0, pLimit=0x0, pUpsert=0x0) at sqlite3.c:144594
144594	  return;
pParse = 0x7fffffffd9d8
pTabList = 0x51c278
pChanges = 0x51c578
pWhere = 0x51cd78
onError = 4
pOrderBy = 0x0
pLimit = 0x0
pUpsert = 0x0
i = 3
j = -1
k = 6
pTab = 0x51f7f8
addrTop = 0
pWInfo = 0x5196e8
v = 0x519b98
pIdx = 0x0
pPk = 0x0
nIdx = 0
nAllIdx = 0
iBaseCur = 0
iDataCur = 0
iIdxCur = 1
db = 0x50f2d8
aRegIdx = 0x51d004
aXRef = 0x51cff8
aToOpen = 0x51d008 ""
chngPk = 0 '\000'
chngRowid = 0 '\000'
chngKey = 0 '\000'
pRowidExpr = 0x0
iRowidExpr = -1
sContext = {zAuthContext = 0x0, pParse = 0x0}
sNC = {pParse = 0x7fffffffd9d8, pSrcList = 0x51c278, uNC = {pEList = 0x0, pAggInfo = 0x0, pUpsert = 0x0, iBaseReg = 0}, pNext = 0x0, nRef = 0, nNcErr = 0, ncFlags = 512, pWinSelect = 0x0}
iDb = 1
eOnePass = 2
hasFK = 0
labelBreak = -1
labelContinue = -5
flags = 12
isView = 0
pTrigger = 0x0
tmask = 0
newmask = 0
iEph = 1
nKey = 0
aiCurOnePass = {0, -1}
addrOpen = 2
iPk = 0
nPk = 0
bReplace = 0
bFinishSeek = 0
nChangeFrom = 0
regRowCount = 0
regOldRowid = 2
regNewRowid = 2
regNew = 3
regOld = 0
regRowSet = 1
regKey = 0
yy_reduce (yypParser=0x7fffffffcfc0, yyruleno=157, yyLookahead=1, yyLookaheadToken=..., pParse=0x7fffffffd9d8) at sqlite3.c:165601
165601	        break;
#0  yy_reduce (yypParser=0x7fffffffcfc0, yyruleno=157, yyLookahead=1, yyLookaheadToken=..., pParse=0x7fffffffd9d8) at sqlite3.c:165601
165601	        break;
yypParser = 0x7fffffffcfc0
yyruleno = 157
yyLookahead = 1
yyLookaheadToken = {z = 0x51d57e ";\nCOMMIT TRANSACTION;\nCOMMIT;\nINSERT OR IGNORE INTO t0(c2, c1) VALUES (588, 358);\nUPDATE OR IGNORE t0 SET c2 = 0.3758491469699803, c0 = NULL WHERE ((t0.c0)-(t0.c1));\nREINDEX;\nUPDATE t0 SET (c1)=(x'4f1"..., n = 1}
pParse = 0x7fffffffd9d8
yygoto = 267
yyact = 1393
yymsp = 0x7fffffffd0a8
yysize = -2
166460	  yygoto = yyRuleInfoLhs[yyruleno];
#0  yy_reduce (yypParser=0x7fffffffcfc0, yyruleno=157, yyLookahead=1, yyLookaheadToken=..., pParse=0x7fffffffd9d8) at sqlite3.c:166460
166460	  yygoto = yyRuleInfoLhs[yyruleno];
yypParser = 0x7fffffffcfc0
yyruleno = 157
yyLookahead = 1
yyLookaheadToken = {z = 0x51d57e ";\nCOMMIT TRANSACTION;\nCOMMIT;\nINSERT OR IGNORE INTO t0(c2, c1) VALUES (588, 358);\nUPDATE OR IGNORE t0 SET c2 = 0.3758491469699803, c0 = NULL WHERE ((t0.c0)-(t0.c1));\nREINDEX;\nUPDATE t0 SET (c1)=(x'4f1"..., n = 1}
pParse = 0x7fffffffd9d8
yygoto = 267
yyact = 1393
yymsp = 0x7fffffffd0a8
yysize = -2
166461	  yysize = yyRuleInfoNRhs[yyruleno];
#0  yy_reduce (yypParser=0x7fffffffcfc0, yyruleno=157, yyLookahead=1, yyLookaheadToken=..., pParse=0x7fffffffd9d8) at sqlite3.c:166461
166461	  yysize = yyRuleInfoNRhs[yyruleno];
yypParser = 0x7fffffffcfc0
yyruleno = 157
yyLookahead = 1
yyLookaheadToken = {z = 0x51d57e ";\nCOMMIT TRANSACTION;\nCOMMIT;\nINSERT OR IGNORE INTO t0(c2, c1) VALUES (588, 358);\nUPDATE OR IGNORE t0 SET c2 = 0.3758491469699803, c0 = NULL WHERE ((t0.c0)-(t0.c1));\nREINDEX;\nUPDATE t0 SET (c1)=(x'4f1"..., n = 1}
pParse = 0x7fffffffd9d8
yygoto = 190
yyact = 1393
yymsp = 0x7fffffffd0a8
yysize = -2
166462	  yyact = yy_find_reduce_action(yymsp[yysize].stateno,(YYCODETYPE)yygoto);
#0  yy_reduce (yypParser=0x7fffffffcfc0, yyruleno=157, yyLookahead=1, yyLookaheadToken=..., pParse=0x7fffffffd9d8) at sqlite3.c:166462
166462	  yyact = yy_find_reduce_action(yymsp[yysize].stateno,(YYCODETYPE)yygoto);
yypParser = 0x7fffffffcfc0
yyruleno = 157
yyLookahead = 1
yyLookaheadToken = {z = 0x51d57e ";\nCOMMIT TRANSACTION;\nCOMMIT;\nINSERT OR IGNORE INTO t0(c2, c1) VALUES (588, 358);\nUPDATE OR IGNORE t0 SET c2 = 0.3758491469699803, c0 = NULL WHERE ((t0.c0)-(t0.c1));\nREINDEX;\nUPDATE t0 SET (c1)=(x'4f1"..., n = 1}
pParse = 0x7fffffffd9d8
yygoto = 190
yyact = 1393
yymsp = 0x7fffffffd0a8
yysize = -9
166471	  yymsp += yysize+1;
#0  yy_reduce (yypParser=0x7fffffffcfc0, yyruleno=157, yyLookahead=1, yyLookaheadToken=..., pParse=0x7fffffffd9d8) at sqlite3.c:166471
166471	  yymsp += yysize+1;
yypParser = 0x7fffffffcfc0
yyruleno = 157
yyLookahead = 1
yyLookaheadToken = {z = 0x51d57e ";\nCOMMIT TRANSACTION;\nCOMMIT;\nINSERT OR IGNORE INTO t0(c2, c1) VALUES (588, 358);\nUPDATE OR IGNORE t0 SET c2 = 0.3758491469699803, c0 = NULL WHERE ((t0.c0)-(t0.c1));\nREINDEX;\nUPDATE t0 SET (c1)=(x'4f1"..., n = 1}
pParse = 0x7fffffffd9d8
yygoto = 190
yyact = 1238
yymsp = 0x7fffffffd0a8
yysize = -9
[Inferior 1 (process 4179122) exited normally]
