0x4960b0: file sqlite3.c, line 139866.
[Thread debugging using libthread_db enabled]
Using host libthread_db library "/lib/x86_64-linux-gnu/libthread_db.so.1".
sqlite3.c:139866
139866	  if( pParse->nErr || sqliteProcessJoin(pParse, p) ){
sqlite3.c:139866
139866	  if( pParse->nErr || sqliteProcessJoin(pParse, p) ){
i = 1
j = 0
k = 1
rc = 0
selFlags = 0
elistFlags = 0
139881	  for(k=0; k<pEList->nExpr; k++){
sqlite3.c:139881
139881	  for(k=0; k<pEList->nExpr; k++){
i = 1
j = 0
k = 1
rc = 0
selFlags = 0
elistFlags = 0
139882	    pE = pEList->a[k].pExpr;
sqlite3.c:139882
139882	    pE = pEList->a[k].pExpr;
i = 1
j = 0
k = 0
rc = 0
selFlags = 0
elistFlags = 0
139883	    if( pE->op==TK_ASTERISK ) break;
sqlite3.c:139883
139883	    if( pE->op==TK_ASTERISK ) break;
i = 1
j = 0
k = 0
rc = 0
selFlags = 0
elistFlags = 0
139889	  if( k<pEList->nExpr ){
sqlite3.c:139889
139889	  if( k<pEList->nExpr ){
i = 1
j = 0
k = 0
rc = 0
selFlags = 0
elistFlags = 0
139895	    struct ExprList_item *a = pEList->a;
sqlite3.c:139895
139895	    struct ExprList_item *a = pEList->a;
flags = 0
longNames = 5302472
i = 1
j = 0
k = 0
rc = 0
selFlags = 0
elistFlags = 0
139896	    ExprList *pNew = 0;
sqlite3.c:139896
139896	    ExprList *pNew = 0;
flags = 0
longNames = 5302472
i = 1
j = 0
k = 0
rc = 0
selFlags = 0
elistFlags = 0
139897	    int flags = pParse->db->flags;
sqlite3.c:139897
139897	    int flags = pParse->db->flags;
flags = 0
longNames = 5302472
i = 1
j = 0
k = 0
rc = 0
selFlags = 0
elistFlags = 0
139898	    int longNames = (flags & SQLITE_FullColNames)!=0
sqlite3.c:139898
139898	    int longNames = (flags & SQLITE_FullColNames)!=0
flags = -536559392
longNames = 5302472
i = 1
j = 0
k = 0
rc = 0
selFlags = 0
elistFlags = 0
139899	                      && (flags & SQLITE_ShortColNames)==0;
sqlite3.c:139899
139899	                      && (flags & SQLITE_ShortColNames)==0;
flags = -536559392
longNames = 5302472
i = 1
j = 0
k = 0
rc = 0
selFlags = 0
elistFlags = 0
139898	    int longNames = (flags & SQLITE_FullColNames)!=0
sqlite3.c:139898
139898	    int longNames = (flags & SQLITE_FullColNames)!=0
flags = -536559392
longNames = 5302472
i = 1
j = 0
k = 0
rc = 0
selFlags = 0
elistFlags = 0
139901	    for(k=0; k<pEList->nExpr; k++){
sqlite3.c:139901
139901	    for(k=0; k<pEList->nExpr; k++){
flags = -536559392
longNames = 0
i = 1
j = 0
k = 0
rc = 0
selFlags = 0
elistFlags = 0
139902	      pE = a[k].pExpr;
sqlite3.c:139902
139902	      pE = a[k].pExpr;
flags = -536559392
longNames = 0
i = 1
j = 0
k = 0
rc = 0
selFlags = 0
elistFlags = 0
