src/shuf.c:461
src/shuf.c:484
src/shuf.c:489
src/shuf.c:496
src/shuf.c:501
src/shuf.c:507
src/shuf.c:522
src/shuf.c:278
src/shuf.c:281
src/shuf.c:547
src/shuf.c:559
src/shuf.c:562
src/shuf.c:569
src/shuf.c:586
src/shuf.c:311
src/shuf.c:311
src/shuf.c:311
src/shuf.c:311
src/shuf.c:311
src/shuf.c:311
src/shuf.c:311
src/shuf.c:311
src/shuf.c:311
src/shuf.c:311
src/shuf.c:311
src/shuf.c:311
src/shuf.c:311
src/shuf.c:311
src/shuf.c:311
src/shuf.c:311
src/shuf.c:311
src/shuf.c:311
src/shuf.c:311
src/shuf.c:311
src/shuf.c:311
src/shuf.c:311
src/shuf.c:311
src/shuf.c:311
src/shuf.c:311
src/shuf.c:311
src/shuf.c:311
src/shuf.c:311
src/shuf.c:311
src/shuf.c:311
src/shuf.c:311
src/shuf.c:311
src/shuf.c:311
src/shuf.c:311
src/shuf.c:311
src/shuf.c:311
src/shuf.c:311
src/shuf.c:311
src/shuf.c:311
src/shuf.c:311
src/shuf.c:311
src/shuf.c:311
src/shuf.c:311
src/shuf.c:311
src/shuf.c:311
src/shuf.c:311
src/shuf.c:311
src/shuf.c:311
src/shuf.c:311
src/shuf.c:311
src/shuf.c:311
src/shuf.c:311
src/shuf.c:311
src/shuf.c:311
src/shuf.c:311
src/shuf.c:311
src/shuf.c:311
src/shuf.c:311
src/shuf.c:311
src/shuf.c:311
src/shuf.c:311
src/shuf.c:311
src/shuf.c:311
src/shuf.c:311
src/shuf.c:311
src/shuf.c:311
src/shuf.c:311
src/shuf.c:311
src/shuf.c:311
src/shuf.c:311
src/shuf.c:311
src/shuf.c:311
src/shuf.c:311
src/shuf.c:595
