Breakpoint 1 at 0x40253b: file src/shuf.c, line 58.
Breakpoint 2 at 0x403665: file src/shuf.c, line 157.
Breakpoint 3 at 0x4039aa: file src/shuf.c, line 204.
Breakpoint 4 at 0x403a9a: file src/shuf.c, line 232.
Breakpoint 5 at 0x403a63: file src/shuf.c, line 225.
Breakpoint 6 at 0x403d05: file src/shuf.c, line 246.
Breakpoint 7 at 0x40371e: file src/shuf.c, line 278.
Breakpoint 8 at 0x403766: file src/shuf.c, line 281.
Breakpoint 9 at 0x403e6b: file src/shuf.c, line 311.
Breakpoint 10 at 0x403db1: file src/shuf.c, line 327.
Breakpoint 11 at 0x403b94: file src/shuf.c, line 345.
Breakpoint 12 at 0x403c58: file src/shuf.c, line 364.
Breakpoint 13 at 0x402f1f: file src/shuf.c, line 484.
Breakpoint 14 at 0x402f5c: file src/shuf.c, line 489.
Breakpoint 15 at 0x402fdf: file src/shuf.c, line 496.
Breakpoint 16 at 0x403285: file src/shuf.c, line 547.
Breakpoint 17 at 0x4032c3: file src/shuf.c, line 559.
Breakpoint 18 at 0x403329: file src/shuf.c, line 562.
Breakpoint 19 at 0x4033bf: file src/shuf.c, line 569.
Breakpoint 20 at 0x4034ee: file src/shuf.c, line 595.
Breakpoint 21 at 0x402b4d: file src/shuf.c, line 417.
Breakpoint 22 at 0x402b7b: file src/shuf.c, line 421.
Breakpoint 23 at 0x402cb3: file src/shuf.c, line 435.
Breakpoint 24 at 0x402d48: file src/shuf.c, line 446.
Breakpoint 25 at 0x402d94: file src/shuf.c, line 448.
Breakpoint 26 at 0x402de6: file src/shuf.c, line 455.
Breakpoint 27 at 0x402e3c: file src/shuf.c, line 461.
Breakpoint 28 at 0x402fff: file src/shuf.c, line 501.
Breakpoint 29 at 0x40302e: file src/shuf.c, line 507.
Breakpoint 30 at 0x4030f6: file src/shuf.c, line 522.
Breakpoint 31 at 0x4033c9: file src/shuf.c, line 571.
Breakpoint 32 at 0x4033e3: file src/shuf.c, line 575.
Breakpoint 33 at 0x40340e: file src/shuf.c, line 577.
Breakpoint 34 at 0x40346e: file src/shuf.c, line 586.

Breakpoint 27, main (argc=4, argv=0x7fffffffdea8) at src/shuf.c:461
461	        if (random_source && !STREQ (random_source, optarg))

Breakpoint 13, main (argc=4, argv=0x7fffffffdea8) at src/shuf.c:484
484	  if (echo && input_range)

Breakpoint 14, main (argc=4, argv=0x7fffffffdea8) at src/shuf.c:489
489	  if (input_range ? 0 < n_operands : !echo && 1 < n_operands)

Breakpoint 15, main (argc=4, argv=0x7fffffffdea8) at src/shuf.c:496
496	  if (head_lines == 0)

Breakpoint 28, main (argc=4, argv=0x7fffffffdea8) at src/shuf.c:501
501	  else if (echo)

Breakpoint 29, main (argc=4, argv=0x7fffffffdea8) at src/shuf.c:507
507	  else if (input_range)

Breakpoint 30, main (argc=4, argv=0x7fffffffdea8) at src/shuf.c:522
522	      if (repeat || head_lines == SIZE_MAX

Breakpoint 7, read_input (in=0x7ffff7fb0980 <_IO_2_1_stdin_>, eolbyte=10 '\n', pline=0x7fffffffdd60) at src/shuf.c:278
278	  if (!(buf = fread_file (in, 0, &used)))

Breakpoint 8, read_input (in=0x7ffff7fb0980 <_IO_2_1_stdin_>, eolbyte=10 '\n', pline=0x7fffffffdd60) at src/shuf.c:281
281	  if (used && buf[used - 1] != eolbyte)

Breakpoint 16, main (argc=4, argv=0x7fffffffdea8) at src/shuf.c:547
547	  if (use_reservoir_sampling)

Breakpoint 17, main (argc=4, argv=0x7fffffffdea8) at src/shuf.c:559
559	  if (! (head_lines == 0 || echo || input_range || fclose (stdin) == 0))

Breakpoint 18, main (argc=4, argv=0x7fffffffdea8) at src/shuf.c:562
562	  if (!repeat)

Breakpoint 19, main (argc=4, argv=0x7fffffffdea8) at src/shuf.c:569
569	  if (repeat)

Breakpoint 34, main (argc=4, argv=0x7fffffffdea8) at src/shuf.c:586
586	      if (use_reservoir_sampling)

Breakpoint 9, write_permuted_lines (n_lines=73, line=0x41d050, permutation=0x41c040) at src/shuf.c:311
311	      if (fwrite (p[0], sizeof *p[0], len, stdout) != len)

Breakpoint 9, write_permuted_lines (n_lines=73, line=0x41d050, permutation=0x41c040) at src/shuf.c:311
311	      if (fwrite (p[0], sizeof *p[0], len, stdout) != len)

Breakpoint 9, write_permuted_lines (n_lines=73, line=0x41d050, permutation=0x41c040) at src/shuf.c:311
311	      if (fwrite (p[0], sizeof *p[0], len, stdout) != len)

Breakpoint 9, write_permuted_lines (n_lines=73, line=0x41d050, permutation=0x41c040) at src/shuf.c:311
311	      if (fwrite (p[0], sizeof *p[0], len, stdout) != len)

Breakpoint 9, write_permuted_lines (n_lines=73, line=0x41d050, permutation=0x41c040) at src/shuf.c:311
311	      if (fwrite (p[0], sizeof *p[0], len, stdout) != len)

Breakpoint 9, write_permuted_lines (n_lines=73, line=0x41d050, permutation=0x41c040) at src/shuf.c:311
311	      if (fwrite (p[0], sizeof *p[0], len, stdout) != len)

Breakpoint 9, write_permuted_lines (n_lines=73, line=0x41d050, permutation=0x41c040) at src/shuf.c:311
311	      if (fwrite (p[0], sizeof *p[0], len, stdout) != len)

Breakpoint 9, write_permuted_lines (n_lines=73, line=0x41d050, permutation=0x41c040) at src/shuf.c:311
311	      if (fwrite (p[0], sizeof *p[0], len, stdout) != len)

Breakpoint 9, write_permuted_lines (n_lines=73, line=0x41d050, permutation=0x41c040) at src/shuf.c:311
311	      if (fwrite (p[0], sizeof *p[0], len, stdout) != len)

Breakpoint 9, write_permuted_lines (n_lines=73, line=0x41d050, permutation=0x41c040) at src/shuf.c:311
311	      if (fwrite (p[0], sizeof *p[0], len, stdout) != len)

Breakpoint 9, write_permuted_lines (n_lines=73, line=0x41d050, permutation=0x41c040) at src/shuf.c:311
311	      if (fwrite (p[0], sizeof *p[0], len, stdout) != len)

Breakpoint 9, write_permuted_lines (n_lines=73, line=0x41d050, permutation=0x41c040) at src/shuf.c:311
311	      if (fwrite (p[0], sizeof *p[0], len, stdout) != len)

Breakpoint 9, write_permuted_lines (n_lines=73, line=0x41d050, permutation=0x41c040) at src/shuf.c:311
311	      if (fwrite (p[0], sizeof *p[0], len, stdout) != len)

Breakpoint 9, write_permuted_lines (n_lines=73, line=0x41d050, permutation=0x41c040) at src/shuf.c:311
311	      if (fwrite (p[0], sizeof *p[0], len, stdout) != len)

Breakpoint 9, write_permuted_lines (n_lines=73, line=0x41d050, permutation=0x41c040) at src/shuf.c:311
311	      if (fwrite (p[0], sizeof *p[0], len, stdout) != len)

Breakpoint 9, write_permuted_lines (n_lines=73, line=0x41d050, permutation=0x41c040) at src/shuf.c:311
311	      if (fwrite (p[0], sizeof *p[0], len, stdout) != len)

Breakpoint 9, write_permuted_lines (n_lines=73, line=0x41d050, permutation=0x41c040) at src/shuf.c:311
311	      if (fwrite (p[0], sizeof *p[0], len, stdout) != len)

Breakpoint 9, write_permuted_lines (n_lines=73, line=0x41d050, permutation=0x41c040) at src/shuf.c:311
311	      if (fwrite (p[0], sizeof *p[0], len, stdout) != len)

Breakpoint 9, write_permuted_lines (n_lines=73, line=0x41d050, permutation=0x41c040) at src/shuf.c:311
311	      if (fwrite (p[0], sizeof *p[0], len, stdout) != len)

Breakpoint 9, write_permuted_lines (n_lines=73, line=0x41d050, permutation=0x41c040) at src/shuf.c:311
311	      if (fwrite (p[0], sizeof *p[0], len, stdout) != len)

Breakpoint 9, write_permuted_lines (n_lines=73, line=0x41d050, permutation=0x41c040) at src/shuf.c:311
311	      if (fwrite (p[0], sizeof *p[0], len, stdout) != len)

Breakpoint 9, write_permuted_lines (n_lines=73, line=0x41d050, permutation=0x41c040) at src/shuf.c:311
311	      if (fwrite (p[0], sizeof *p[0], len, stdout) != len)

Breakpoint 9, write_permuted_lines (n_lines=73, line=0x41d050, permutation=0x41c040) at src/shuf.c:311
311	      if (fwrite (p[0], sizeof *p[0], len, stdout) != len)

Breakpoint 9, write_permuted_lines (n_lines=73, line=0x41d050, permutation=0x41c040) at src/shuf.c:311
311	      if (fwrite (p[0], sizeof *p[0], len, stdout) != len)

Breakpoint 9, write_permuted_lines (n_lines=73, line=0x41d050, permutation=0x41c040) at src/shuf.c:311
311	      if (fwrite (p[0], sizeof *p[0], len, stdout) != len)

Breakpoint 9, write_permuted_lines (n_lines=73, line=0x41d050, permutation=0x41c040) at src/shuf.c:311
311	      if (fwrite (p[0], sizeof *p[0], len, stdout) != len)

Breakpoint 9, write_permuted_lines (n_lines=73, line=0x41d050, permutation=0x41c040) at src/shuf.c:311
311	      if (fwrite (p[0], sizeof *p[0], len, stdout) != len)

Breakpoint 9, write_permuted_lines (n_lines=73, line=0x41d050, permutation=0x41c040) at src/shuf.c:311
311	      if (fwrite (p[0], sizeof *p[0], len, stdout) != len)

Breakpoint 9, write_permuted_lines (n_lines=73, line=0x41d050, permutation=0x41c040) at src/shuf.c:311
311	      if (fwrite (p[0], sizeof *p[0], len, stdout) != len)

Breakpoint 9, write_permuted_lines (n_lines=73, line=0x41d050, permutation=0x41c040) at src/shuf.c:311
311	      if (fwrite (p[0], sizeof *p[0], len, stdout) != len)

Breakpoint 9, write_permuted_lines (n_lines=73, line=0x41d050, permutation=0x41c040) at src/shuf.c:311
311	      if (fwrite (p[0], sizeof *p[0], len, stdout) != len)

Breakpoint 9, write_permuted_lines (n_lines=73, line=0x41d050, permutation=0x41c040) at src/shuf.c:311
311	      if (fwrite (p[0], sizeof *p[0], len, stdout) != len)

Breakpoint 9, write_permuted_lines (n_lines=73, line=0x41d050, permutation=0x41c040) at src/shuf.c:311
311	      if (fwrite (p[0], sizeof *p[0], len, stdout) != len)

Breakpoint 9, write_permuted_lines (n_lines=73, line=0x41d050, permutation=0x41c040) at src/shuf.c:311
311	      if (fwrite (p[0], sizeof *p[0], len, stdout) != len)

Breakpoint 9, write_permuted_lines (n_lines=73, line=0x41d050, permutation=0x41c040) at src/shuf.c:311
311	      if (fwrite (p[0], sizeof *p[0], len, stdout) != len)

Breakpoint 9, write_permuted_lines (n_lines=73, line=0x41d050, permutation=0x41c040) at src/shuf.c:311
311	      if (fwrite (p[0], sizeof *p[0], len, stdout) != len)

Breakpoint 9, write_permuted_lines (n_lines=73, line=0x41d050, permutation=0x41c040) at src/shuf.c:311
311	      if (fwrite (p[0], sizeof *p[0], len, stdout) != len)

Breakpoint 9, write_permuted_lines (n_lines=73, line=0x41d050, permutation=0x41c040) at src/shuf.c:311
311	      if (fwrite (p[0], sizeof *p[0], len, stdout) != len)

Breakpoint 9, write_permuted_lines (n_lines=73, line=0x41d050, permutation=0x41c040) at src/shuf.c:311
311	      if (fwrite (p[0], sizeof *p[0], len, stdout) != len)

Breakpoint 9, write_permuted_lines (n_lines=73, line=0x41d050, permutation=0x41c040) at src/shuf.c:311
311	      if (fwrite (p[0], sizeof *p[0], len, stdout) != len)

Breakpoint 9, write_permuted_lines (n_lines=73, line=0x41d050, permutation=0x41c040) at src/shuf.c:311
311	      if (fwrite (p[0], sizeof *p[0], len, stdout) != len)

Breakpoint 9, write_permuted_lines (n_lines=73, line=0x41d050, permutation=0x41c040) at src/shuf.c:311
311	      if (fwrite (p[0], sizeof *p[0], len, stdout) != len)

Breakpoint 9, write_permuted_lines (n_lines=73, line=0x41d050, permutation=0x41c040) at src/shuf.c:311
311	      if (fwrite (p[0], sizeof *p[0], len, stdout) != len)

Breakpoint 9, write_permuted_lines (n_lines=73, line=0x41d050, permutation=0x41c040) at src/shuf.c:311
311	      if (fwrite (p[0], sizeof *p[0], len, stdout) != len)

Breakpoint 9, write_permuted_lines (n_lines=73, line=0x41d050, permutation=0x41c040) at src/shuf.c:311
311	      if (fwrite (p[0], sizeof *p[0], len, stdout) != len)

Breakpoint 9, write_permuted_lines (n_lines=73, line=0x41d050, permutation=0x41c040) at src/shuf.c:311
311	      if (fwrite (p[0], sizeof *p[0], len, stdout) != len)

Breakpoint 9, write_permuted_lines (n_lines=73, line=0x41d050, permutation=0x41c040) at src/shuf.c:311
311	      if (fwrite (p[0], sizeof *p[0], len, stdout) != len)

Breakpoint 9, write_permuted_lines (n_lines=73, line=0x41d050, permutation=0x41c040) at src/shuf.c:311
311	      if (fwrite (p[0], sizeof *p[0], len, stdout) != len)

Breakpoint 9, write_permuted_lines (n_lines=73, line=0x41d050, permutation=0x41c040) at src/shuf.c:311
311	      if (fwrite (p[0], sizeof *p[0], len, stdout) != len)

Breakpoint 9, write_permuted_lines (n_lines=73, line=0x41d050, permutation=0x41c040) at src/shuf.c:311
311	      if (fwrite (p[0], sizeof *p[0], len, stdout) != len)

Breakpoint 9, write_permuted_lines (n_lines=73, line=0x41d050, permutation=0x41c040) at src/shuf.c:311
311	      if (fwrite (p[0], sizeof *p[0], len, stdout) != len)

Breakpoint 9, write_permuted_lines (n_lines=73, line=0x41d050, permutation=0x41c040) at src/shuf.c:311
311	      if (fwrite (p[0], sizeof *p[0], len, stdout) != len)

Breakpoint 9, write_permuted_lines (n_lines=73, line=0x41d050, permutation=0x41c040) at src/shuf.c:311
311	      if (fwrite (p[0], sizeof *p[0], len, stdout) != len)

Breakpoint 9, write_permuted_lines (n_lines=73, line=0x41d050, permutation=0x41c040) at src/shuf.c:311
311	      if (fwrite (p[0], sizeof *p[0], len, stdout) != len)

Breakpoint 9, write_permuted_lines (n_lines=73, line=0x41d050, permutation=0x41c040) at src/shuf.c:311
311	      if (fwrite (p[0], sizeof *p[0], len, stdout) != len)

Breakpoint 9, write_permuted_lines (n_lines=73, line=0x41d050, permutation=0x41c040) at src/shuf.c:311
311	      if (fwrite (p[0], sizeof *p[0], len, stdout) != len)

Breakpoint 9, write_permuted_lines (n_lines=73, line=0x41d050, permutation=0x41c040) at src/shuf.c:311
311	      if (fwrite (p[0], sizeof *p[0], len, stdout) != len)

Breakpoint 9, write_permuted_lines (n_lines=73, line=0x41d050, permutation=0x41c040) at src/shuf.c:311
311	      if (fwrite (p[0], sizeof *p[0], len, stdout) != len)

Breakpoint 9, write_permuted_lines (n_lines=73, line=0x41d050, permutation=0x41c040) at src/shuf.c:311
311	      if (fwrite (p[0], sizeof *p[0], len, stdout) != len)

Breakpoint 9, write_permuted_lines (n_lines=73, line=0x41d050, permutation=0x41c040) at src/shuf.c:311
311	      if (fwrite (p[0], sizeof *p[0], len, stdout) != len)

Breakpoint 9, write_permuted_lines (n_lines=73, line=0x41d050, permutation=0x41c040) at src/shuf.c:311
311	      if (fwrite (p[0], sizeof *p[0], len, stdout) != len)

Breakpoint 9, write_permuted_lines (n_lines=73, line=0x41d050, permutation=0x41c040) at src/shuf.c:311
311	      if (fwrite (p[0], sizeof *p[0], len, stdout) != len)

Breakpoint 9, write_permuted_lines (n_lines=73, line=0x41d050, permutation=0x41c040) at src/shuf.c:311
311	      if (fwrite (p[0], sizeof *p[0], len, stdout) != len)

Breakpoint 9, write_permuted_lines (n_lines=73, line=0x41d050, permutation=0x41c040) at src/shuf.c:311
311	      if (fwrite (p[0], sizeof *p[0], len, stdout) != len)

Breakpoint 9, write_permuted_lines (n_lines=73, line=0x41d050, permutation=0x41c040) at src/shuf.c:311
311	      if (fwrite (p[0], sizeof *p[0], len, stdout) != len)

Breakpoint 9, write_permuted_lines (n_lines=73, line=0x41d050, permutation=0x41c040) at src/shuf.c:311
311	      if (fwrite (p[0], sizeof *p[0], len, stdout) != len)

Breakpoint 9, write_permuted_lines (n_lines=73, line=0x41d050, permutation=0x41c040) at src/shuf.c:311
311	      if (fwrite (p[0], sizeof *p[0], len, stdout) != len)

Breakpoint 9, write_permuted_lines (n_lines=73, line=0x41d050, permutation=0x41c040) at src/shuf.c:311
311	      if (fwrite (p[0], sizeof *p[0], len, stdout) != len)

Breakpoint 9, write_permuted_lines (n_lines=73, line=0x41d050, permutation=0x41c040) at src/shuf.c:311
311	      if (fwrite (p[0], sizeof *p[0], len, stdout) != len)

Breakpoint 9, write_permuted_lines (n_lines=73, line=0x41d050, permutation=0x41c040) at src/shuf.c:311
311	      if (fwrite (p[0], sizeof *p[0], len, stdout) != len)

Breakpoint 9, write_permuted_lines (n_lines=73, line=0x41d050, permutation=0x41c040) at src/shuf.c:311
311	      if (fwrite (p[0], sizeof *p[0], len, stdout) != len)

Breakpoint 9, write_permuted_lines (n_lines=73, line=0x41d050, permutation=0x41c040) at src/shuf.c:311
311	      if (fwrite (p[0], sizeof *p[0], len, stdout) != len)

Breakpoint 9, write_permuted_lines (n_lines=73, line=0x41d050, permutation=0x41c040) at src/shuf.c:311
311	      if (fwrite (p[0], sizeof *p[0], len, stdout) != len)

Breakpoint 20, main (argc=4, argv=0x7fffffffdea8) at src/shuf.c:595
595	  if (i != 0)
        <lR>-50730870</lR>
      <I4qz-Q>879946993.4105687</I4qz-Q>
          <dU4eLY_3OH paragraph="track">{"mhy}+T</dU4eLY_3OH>
      <nznOgP station="visitor">-504897394</nznOgP>
    <ergSgMS size="attempt">-1497314478</ergSgMS>
</root>
        <Ae5UvQhRRX> A_`^ p&gt;K=</Ae5UvQhRRX>
    <TJslJ>QH5s</TJslJ>
        <k>-1365939527.5752943</k>
    <xNlO>-1907054523.1860838</xNlO>
    <ctcG037G6>HNgib'2</ctcG037G6>
  <e2jrlXMF8 became="will">955535673</e2jrlXMF8>
  <M1pfaR>Ug+{8|v$</M1pfaR>
    </al8s_4KU_>
    <al8s_4KU_>
        <UrY5 north="desk">\Qa99?v.'r</UrY5>
      <Kur keep="pile">}j,u</Kur>
      <M go="ate">q[</M>
<root>
          <Sv5NqUxSTL>8YUf^#iJ</Sv5NqUxSTL>
        <xnf-PHPqGI voice="nuts">O</xnf-PHPqGI>
          <YXZ swimming="poet">-517352829.4596305</YXZ>
  <Mt>f|Ur1rt</Mt>
      <dIb3ZlU sleep="put">2021852771</dIb3ZlU>
      <WnkiaO former="brass">-1020041360.3499465</WnkiaO>
  </hXrnqKfA>
      <Cj0baRGFlB diameter="writer">1791138509.8558285</Cj0baRGFlB>
    <fbPC6>EWCa1</fbPC6>
          <HYt__S in="won">]H/67YW</HYt__S>
        <E4wfSZPF port="cannot">724159263.5237012</E4wfSZPF>
        <vcuNGP5DB>LJ.a {&lt;aX</vcuNGP5DB>
          <NgxIcM4 minerals="arrow">1247395539</NgxIcM4>
    <uAcbJ9d35M rough="swim">2wI</uAcbJ9d35M>
          <oOk8Kx3>-4641121.501232624</oOk8Kx3>
        <GgBRPWJI>
          <aLUdx missing="pair">Q$AStxg@| </aLUdx>
          <H_62v writing="mood">q&amp;"Z</H_62v>
        <QLFzJxI joined="herself">ak</QLFzJxI>
          <wzIarO>-824371965</wzIarO>
      <DhqYE34>462852037</DhqYE34>
    <XsNeTWaeI>468545752</XsNeTWaeI>
    <S species="land">-6t&lt;wla</S>
        </GgBRPWJI>
          <At00QtGr sail="feathers">277655662</At00QtGr>
        <pJ9>&lt;E~q$</pJ9>
    <_ author="police">384238627</_>
    <UOVZ-w7>749923039.1649444</UOVZ-w7>
          <l7GW02K2 already="quite">-89589255.19121313</l7GW02K2>
          <gRKgznZS>-1925416661.1344543</gRKgznZS>
    <VWZ curve="door">d2H4W</VWZ>
  <hXrnqKfA provide="like">
      <z0sM2Mj primitive="enjoy">
  <XrL captain="chance">hIOB</XrL>
          <omcrAGOj pattern="reader">]G</omcrAGOj>
    <a7e4aiu0x handsome="myself">xw](cdo?</a7e4aiu0x>
        <u electricity="cap">-798351408</u>
      <pWJ5>P[</pWJ5>
      <kkg search="when">-413983076</kkg>
      <hYYbFt3 nearly="of">-1581685194.7357676</hYYbFt3>
        <i copy="made">2050981122</i>
    <c>-407296035.8281019</c>
      </z0sM2Mj>
  <j3ZPjSlL>-723260467.103894</j3ZPjSlL>
        <l sister="pen">-1041563168</l>
          <aeuj9 handsome="forgot">O=4</aeuj9>
      <VKI>1225068217</VKI>
  <yD>j#E`</yD>
    <M>-845623236.9791403</M>
          <ax6gErXx>,04A(</ax6gErXx>
        <NSCRr path="volume">j</NSCRr>
      <wBC8Hrx progress="scientific"/>
        <UwxYw0OVJ least="waste">-1986492288</UwxYw0OVJ>
      <R-i hidden="boy">{NHe4P\O</R-i>
[Inferior 1 (process 19225) exited normally]
