system.h:270
system.h:286
system.h:304
system.h:308
system.h:319
shuf.c:58
shuf.c:157
shuf.c:204
shuf.c:232
shuf.c:225
shuf.c:246
shuf.c:278
shuf.c:281
shuf.c:311
shuf.c:327
shuf.c:345
shuf.c:364
shuf.c:484
shuf.c:489
shuf.c:496
shuf.c:547
shuf.c:559
shuf.c:562
shuf.c:569
shuf.c:595
shuf.c:417
shuf.c:421
shuf.c:435
shuf.c:446
shuf.c:448
shuf.c:455
shuf.c:461
shuf.c:501
shuf.c:507
shuf.c:522
shuf.c:571
shuf.c:575
shuf.c:577
shuf.c:586
shuf.c:588
