0x410e5b: file encoding.c, line 1368.
[Thread debugging using libthread_db enabled]
Using host libthread_db library "/lib/x86_64-linux-gnu/libthread_db.so.1".
encoding.c:1368
1368	    if (up == NULL) {
encoding.c:1368
1368	    if (up == NULL) {
upper = "UTF-8", '\000' <repeats 203 times>...
i = 5
1377	              xmlMalloc(sizeof(xmlCharEncodingHandler));
encoding.c:1377
1377	              xmlMalloc(sizeof(xmlCharEncodingHandler));
upper = "UTF-8", '\000' <repeats 203 times>...
i = 5
1376	    handler = (xmlCharEncodingHandlerPtr)
encoding.c:1376
1376	    handler = (xmlCharEncodingHandlerPtr)
upper = "UTF-8", '\000' <repeats 203 times>...
i = 5
1378	    if (handler == NULL) {
encoding.c:1378
1378	    if (handler == NULL) {
upper = "UTF-8", '\000' <repeats 203 times>...
i = 5
1383	    memset(handler, 0, sizeof(xmlCharEncodingHandler));
encoding.c:1383
1383	    memset(handler, 0, sizeof(xmlCharEncodingHandler));
upper = "UTF-8", '\000' <repeats 203 times>...
i = 5
1384	    handler->input = input;
encoding.c:1384
1384	    handler->input = input;
upper = "UTF-8", '\000' <repeats 203 times>...
i = 5
encoding.c:1368
1368	    if (up == NULL) {
encoding.c:1368
1368	    if (up == NULL) {
upper = "UTF-16LE", '\000' <repeats 200 times>...
i = 8
1377	              xmlMalloc(sizeof(xmlCharEncodingHandler));
encoding.c:1377
1377	              xmlMalloc(sizeof(xmlCharEncodingHandler));
upper = "UTF-16LE", '\000' <repeats 200 times>...
i = 8
1376	    handler = (xmlCharEncodingHandlerPtr)
encoding.c:1376
1376	    handler = (xmlCharEncodingHandlerPtr)
upper = "UTF-16LE", '\000' <repeats 200 times>...
i = 8
1378	    if (handler == NULL) {
encoding.c:1378
1378	    if (handler == NULL) {
upper = "UTF-16LE", '\000' <repeats 200 times>...
i = 8
1383	    memset(handler, 0, sizeof(xmlCharEncodingHandler));
encoding.c:1383
1383	    memset(handler, 0, sizeof(xmlCharEncodingHandler));
upper = "UTF-16LE", '\000' <repeats 200 times>...
i = 8
1384	    handler->input = input;
encoding.c:1384
1384	    handler->input = input;
upper = "UTF-16LE", '\000' <repeats 200 times>...
i = 8
encoding.c:1368
1368	    if (up == NULL) {
encoding.c:1368
1368	    if (up == NULL) {
upper = "UTF-16BE", '\000' <repeats 200 times>...
i = 8
1377	              xmlMalloc(sizeof(xmlCharEncodingHandler));
encoding.c:1377
1377	              xmlMalloc(sizeof(xmlCharEncodingHandler));
upper = "UTF-16BE", '\000' <repeats 200 times>...
i = 8
1376	    handler = (xmlCharEncodingHandlerPtr)
encoding.c:1376
1376	    handler = (xmlCharEncodingHandlerPtr)
upper = "UTF-16BE", '\000' <repeats 200 times>...
i = 8
1378	    if (handler == NULL) {
encoding.c:1378
1378	    if (handler == NULL) {
upper = "UTF-16BE", '\000' <repeats 200 times>...
i = 8
1383	    memset(handler, 0, sizeof(xmlCharEncodingHandler));
encoding.c:1383
1383	    memset(handler, 0, sizeof(xmlCharEncodingHandler));
upper = "UTF-16BE", '\000' <repeats 200 times>...
i = 8
1384	    handler->input = input;
encoding.c:1384
1384	    handler->input = input;
upper = "UTF-16BE", '\000' <repeats 200 times>...
i = 8
encoding.c:1368
1368	    if (up == NULL) {
encoding.c:1368
1368	    if (up == NULL) {
upper = "UTF-16\000E", '\000' <repeats 200 times>...
i = 6
1377	              xmlMalloc(sizeof(xmlCharEncodingHandler));
encoding.c:1377
1377	              xmlMalloc(sizeof(xmlCharEncodingHandler));
upper = "UTF-16\000E", '\000' <repeats 200 times>...
i = 6
1376	    handler = (xmlCharEncodingHandlerPtr)
encoding.c:1376
1376	    handler = (xmlCharEncodingHandlerPtr)
upper = "UTF-16\000E", '\000' <repeats 200 times>...
i = 6
1378	    if (handler == NULL) {
encoding.c:1378
1378	    if (handler == NULL) {
upper = "UTF-16\000E", '\000' <repeats 200 times>...
i = 6
1383	    memset(handler, 0, sizeof(xmlCharEncodingHandler));
encoding.c:1383
1383	    memset(handler, 0, sizeof(xmlCharEncodingHandler));
upper = "UTF-16\000E", '\000' <repeats 200 times>...
i = 6
1384	    handler->input = input;
encoding.c:1384
1384	    handler->input = input;
upper = "UTF-16\000E", '\000' <repeats 200 times>...
i = 6
encoding.c:1368
1368	    if (up == NULL) {
encoding.c:1368
1368	    if (up == NULL) {
upper = "ISO-8859-1", '\000' <repeats 198 times>...
i = 10
1377	              xmlMalloc(sizeof(xmlCharEncodingHandler));
encoding.c:1377
1377	              xmlMalloc(sizeof(xmlCharEncodingHandler));
upper = "ISO-8859-1", '\000' <repeats 198 times>...
i = 10
1376	    handler = (xmlCharEncodingHandlerPtr)
encoding.c:1376
1376	    handler = (xmlCharEncodingHandlerPtr)
upper = "ISO-8859-1", '\000' <repeats 198 times>...
i = 10
1378	    if (handler == NULL) {
encoding.c:1378
1378	    if (handler == NULL) {
upper = "ISO-8859-1", '\000' <repeats 198 times>...
i = 10
1383	    memset(handler, 0, sizeof(xmlCharEncodingHandler));
encoding.c:1383
1383	    memset(handler, 0, sizeof(xmlCharEncodingHandler));
upper = "ISO-8859-1", '\000' <repeats 198 times>...
i = 10
1384	    handler->input = input;
encoding.c:1384
1384	    handler->input = input;
upper = "ISO-8859-1", '\000' <repeats 198 times>...
i = 10
encoding.c:1368
1368	    if (up == NULL) {
encoding.c:1368
1368	    if (up == NULL) {
upper = "ASCII\000\065\071-1", '\000' <repeats 198 times>...
i = 5
1377	              xmlMalloc(sizeof(xmlCharEncodingHandler));
encoding.c:1377
1377	              xmlMalloc(sizeof(xmlCharEncodingHandler));
upper = "ASCII\000\065\071-1", '\000' <repeats 198 times>...
i = 5
1376	    handler = (xmlCharEncodingHandlerPtr)
encoding.c:1376
1376	    handler = (xmlCharEncodingHandlerPtr)
upper = "ASCII\000\065\071-1", '\000' <repeats 198 times>...
i = 5
1378	    if (handler == NULL) {
encoding.c:1378
1378	    if (handler == NULL) {
upper = "ASCII\000\065\071-1", '\000' <repeats 198 times>...
i = 5
1383	    memset(handler, 0, sizeof(xmlCharEncodingHandler));
encoding.c:1383
1383	    memset(handler, 0, sizeof(xmlCharEncodingHandler));
upper = "ASCII\000\065\071-1", '\000' <repeats 198 times>...
i = 5
1384	    handler->input = input;
encoding.c:1384
1384	    handler->input = input;
upper = "ASCII\000\065\071-1", '\000' <repeats 198 times>...
i = 5
encoding.c:1368
1368	    if (up == NULL) {
encoding.c:1368
1368	    if (up == NULL) {
upper = "US-ASCII\000\061", '\000' <repeats 198 times>...
i = 8
1377	              xmlMalloc(sizeof(xmlCharEncodingHandler));
encoding.c:1377
1377	              xmlMalloc(sizeof(xmlCharEncodingHandler));
upper = "US-ASCII\000\061", '\000' <repeats 198 times>...
i = 8
1376	    handler = (xmlCharEncodingHandlerPtr)
encoding.c:1376
1376	    handler = (xmlCharEncodingHandlerPtr)
upper = "US-ASCII\000\061", '\000' <repeats 198 times>...
i = 8
1378	    if (handler == NULL) {
encoding.c:1378
1378	    if (handler == NULL) {
upper = "US-ASCII\000\061", '\000' <repeats 198 times>...
i = 8
1383	    memset(handler, 0, sizeof(xmlCharEncodingHandler));
encoding.c:1383
1383	    memset(handler, 0, sizeof(xmlCharEncodingHandler));
upper = "US-ASCII\000\061", '\000' <repeats 198 times>...
i = 8
1384	    handler->input = input;
encoding.c:1384
1384	    handler->input = input;
upper = "US-ASCII\000\061", '\000' <repeats 198 times>...
i = 8
encoding.c:1368
1368	    if (up == NULL) {
encoding.c:1368
1368	    if (up == NULL) {
upper = "HTML\000CII\000\061", '\000' <repeats 198 times>...
i = 4
1377	              xmlMalloc(sizeof(xmlCharEncodingHandler));
encoding.c:1377
1377	              xmlMalloc(sizeof(xmlCharEncodingHandler));
upper = "HTML\000CII\000\061", '\000' <repeats 198 times>...
i = 4
1376	    handler = (xmlCharEncodingHandlerPtr)
encoding.c:1376
1376	    handler = (xmlCharEncodingHandlerPtr)
upper = "HTML\000CII\000\061", '\000' <repeats 198 times>...
i = 4
1378	    if (handler == NULL) {
encoding.c:1378
1378	    if (handler == NULL) {
upper = "HTML\000CII\000\061", '\000' <repeats 198 times>...
i = 4
1383	    memset(handler, 0, sizeof(xmlCharEncodingHandler));
encoding.c:1383
1383	    memset(handler, 0, sizeof(xmlCharEncodingHandler));
upper = "HTML\000CII\000\061", '\000' <repeats 198 times>...
i = 4
1384	    handler->input = input;
encoding.c:1384
1384	    handler->input = input;
upper = "HTML\000CII\000\061", '\000' <repeats 198 times>...
i = 4
[Inferior 1 (process 4566) exited with code 01]
