0x403e6b: file src/shuf.c, line 311.
src/shuf.c:311
311	      if (fwrite (p[0], sizeof *p[0], len, stdout) != len)
src/shuf.c:311
311	      if (fwrite (p[0], sizeof *p[0], len, stdout) != len)
n_lines = 50
len = 12
i = 0
313	    }
src/shuf.c:313
313	    }
n_lines = 50
len = 12
i = 0
307	  for (size_t i = 0; i < n_lines; i++)
src/shuf.c:307
307	  for (size_t i = 0; i < n_lines; i++)
n_lines = 50
i = 0
309	      char *const *p = line + permutation[i];
src/shuf.c:309
309	      char *const *p = line + permutation[i];
n_lines = 50
len = 12
i = 1
310	      size_t len = p[1] - p[0];
src/shuf.c:310
310	      size_t len = p[1] - p[0];
n_lines = 50
len = 12
i = 1
src/shuf.c:311
311	      if (fwrite (p[0], sizeof *p[0], len, stdout) != len)
src/shuf.c:311
311	      if (fwrite (p[0], sizeof *p[0], len, stdout) != len)
n_lines = 50
len = 6
i = 1
src/shuf.c:311
311	      if (fwrite (p[0], sizeof *p[0], len, stdout) != len)
src/shuf.c:311
311	      if (fwrite (p[0], sizeof *p[0], len, stdout) != len)
n_lines = 50
len = 3
i = 2
313	    }
src/shuf.c:313
313	    }
n_lines = 50
len = 3
i = 2
307	  for (size_t i = 0; i < n_lines; i++)
src/shuf.c:307
307	  for (size_t i = 0; i < n_lines; i++)
n_lines = 50
i = 2
309	      char *const *p = line + permutation[i];
src/shuf.c:309
309	      char *const *p = line + permutation[i];
n_lines = 50
len = 3
i = 3
310	      size_t len = p[1] - p[0];
src/shuf.c:310
310	      size_t len = p[1] - p[0];
n_lines = 50
len = 3
i = 3
src/shuf.c:311
311	      if (fwrite (p[0], sizeof *p[0], len, stdout) != len)
src/shuf.c:311
311	      if (fwrite (p[0], sizeof *p[0], len, stdout) != len)
n_lines = 50
len = 17
i = 3
src/shuf.c:311
311	      if (fwrite (p[0], sizeof *p[0], len, stdout) != len)
src/shuf.c:311
311	      if (fwrite (p[0], sizeof *p[0], len, stdout) != len)
n_lines = 50
len = 7
i = 4
313	    }
src/shuf.c:313
313	    }
n_lines = 50
len = 7
i = 4
307	  for (size_t i = 0; i < n_lines; i++)
src/shuf.c:307
307	  for (size_t i = 0; i < n_lines; i++)
n_lines = 50
i = 4
309	      char *const *p = line + permutation[i];
src/shuf.c:309
309	      char *const *p = line + permutation[i];
n_lines = 50
len = 7
i = 5
310	      size_t len = p[1] - p[0];
src/shuf.c:310
310	      size_t len = p[1] - p[0];
n_lines = 50
len = 7
i = 5
src/shuf.c:311
311	      if (fwrite (p[0], sizeof *p[0], len, stdout) != len)
src/shuf.c:311
311	      if (fwrite (p[0], sizeof *p[0], len, stdout) != len)
n_lines = 50
len = 3
i = 5
src/shuf.c:311
311	      if (fwrite (p[0], sizeof *p[0], len, stdout) != len)
src/shuf.c:311
311	      if (fwrite (p[0], sizeof *p[0], len, stdout) != len)
n_lines = 50
len = 8
i = 6
313	    }
src/shuf.c:313
313	    }
n_lines = 50
len = 8
i = 6
307	  for (size_t i = 0; i < n_lines; i++)
src/shuf.c:307
307	  for (size_t i = 0; i < n_lines; i++)
n_lines = 50
i = 6
309	      char *const *p = line + permutation[i];
src/shuf.c:309
309	      char *const *p = line + permutation[i];
n_lines = 50
len = 8
i = 7
310	      size_t len = p[1] - p[0];
src/shuf.c:310
310	      size_t len = p[1] - p[0];
n_lines = 50
len = 8
i = 7
src/shuf.c:311
311	      if (fwrite (p[0], sizeof *p[0], len, stdout) != len)
src/shuf.c:311
311	      if (fwrite (p[0], sizeof *p[0], len, stdout) != len)
n_lines = 50
len = 3
i = 7
src/shuf.c:311
311	      if (fwrite (p[0], sizeof *p[0], len, stdout) != len)
src/shuf.c:311
311	      if (fwrite (p[0], sizeof *p[0], len, stdout) != len)
n_lines = 50
len = 5
i = 8
313	    }
src/shuf.c:313
313	    }
n_lines = 50
len = 5
i = 8
307	  for (size_t i = 0; i < n_lines; i++)
src/shuf.c:307
307	  for (size_t i = 0; i < n_lines; i++)
n_lines = 50
i = 8
309	      char *const *p = line + permutation[i];
src/shuf.c:309
309	      char *const *p = line + permutation[i];
n_lines = 50
len = 5
i = 9
310	      size_t len = p[1] - p[0];
src/shuf.c:310
310	      size_t len = p[1] - p[0];
n_lines = 50
len = 5
i = 9
src/shuf.c:311
311	      if (fwrite (p[0], sizeof *p[0], len, stdout) != len)
src/shuf.c:311
311	      if (fwrite (p[0], sizeof *p[0], len, stdout) != len)
n_lines = 50
len = 5
i = 9
src/shuf.c:311
311	      if (fwrite (p[0], sizeof *p[0], len, stdout) != len)
src/shuf.c:311
311	      if (fwrite (p[0], sizeof *p[0], len, stdout) != len)
n_lines = 50
len = 4
i = 10
313	    }
src/shuf.c:313
313	    }
n_lines = 50
len = 4
i = 10
307	  for (size_t i = 0; i < n_lines; i++)
src/shuf.c:307
307	  for (size_t i = 0; i < n_lines; i++)
n_lines = 50
i = 10
309	      char *const *p = line + permutation[i];
src/shuf.c:309
309	      char *const *p = line + permutation[i];
n_lines = 50
len = 4
i = 11
310	      size_t len = p[1] - p[0];
src/shuf.c:310
310	      size_t len = p[1] - p[0];
n_lines = 50
len = 4
i = 11
src/shuf.c:311
311	      if (fwrite (p[0], sizeof *p[0], len, stdout) != len)
src/shuf.c:311
311	      if (fwrite (p[0], sizeof *p[0], len, stdout) != len)
n_lines = 50
len = 9
i = 11
src/shuf.c:311
311	      if (fwrite (p[0], sizeof *p[0], len, stdout) != len)
src/shuf.c:311
311	      if (fwrite (p[0], sizeof *p[0], len, stdout) != len)
n_lines = 50
len = 2
i = 12
313	    }
src/shuf.c:313
313	    }
n_lines = 50
len = 2
i = 12
307	  for (size_t i = 0; i < n_lines; i++)
src/shuf.c:307
307	  for (size_t i = 0; i < n_lines; i++)
n_lines = 50
i = 12
309	      char *const *p = line + permutation[i];
src/shuf.c:309
309	      char *const *p = line + permutation[i];
n_lines = 50
len = 2
i = 13
310	      size_t len = p[1] - p[0];
src/shuf.c:310
310	      size_t len = p[1] - p[0];
n_lines = 50
len = 2
i = 13
src/shuf.c:311
311	      if (fwrite (p[0], sizeof *p[0], len, stdout) != len)
src/shuf.c:311
311	      if (fwrite (p[0], sizeof *p[0], len, stdout) != len)
n_lines = 50
len = 7
i = 13
src/shuf.c:311
311	      if (fwrite (p[0], sizeof *p[0], len, stdout) != len)
src/shuf.c:311
311	      if (fwrite (p[0], sizeof *p[0], len, stdout) != len)
n_lines = 50
len = 10
i = 14
313	    }
src/shuf.c:313
313	    }
n_lines = 50
len = 10
i = 14
307	  for (size_t i = 0; i < n_lines; i++)
src/shuf.c:307
307	  for (size_t i = 0; i < n_lines; i++)
n_lines = 50
i = 14
309	      char *const *p = line + permutation[i];
src/shuf.c:309
309	      char *const *p = line + permutation[i];
n_lines = 50
len = 10
i = 15
310	      size_t len = p[1] - p[0];
src/shuf.c:310
310	      size_t len = p[1] - p[0];
n_lines = 50
len = 10
i = 15
src/shuf.c:311
311	      if (fwrite (p[0], sizeof *p[0], len, stdout) != len)
src/shuf.c:311
311	      if (fwrite (p[0], sizeof *p[0], len, stdout) != len)
n_lines = 50
len = 22
i = 15
src/shuf.c:311
311	      if (fwrite (p[0], sizeof *p[0], len, stdout) != len)
src/shuf.c:311
311	      if (fwrite (p[0], sizeof *p[0], len, stdout) != len)
n_lines = 50
len = 8
i = 16
313	    }
src/shuf.c:313
313	    }
n_lines = 50
len = 8
i = 16
307	  for (size_t i = 0; i < n_lines; i++)
src/shuf.c:307
307	  for (size_t i = 0; i < n_lines; i++)
n_lines = 50
i = 16
309	      char *const *p = line + permutation[i];
src/shuf.c:309
309	      char *const *p = line + permutation[i];
n_lines = 50
len = 8
i = 17
310	      size_t len = p[1] - p[0];
src/shuf.c:310
310	      size_t len = p[1] - p[0];
n_lines = 50
len = 8
i = 17
src/shuf.c:311
311	      if (fwrite (p[0], sizeof *p[0], len, stdout) != len)
src/shuf.c:311
311	      if (fwrite (p[0], sizeof *p[0], len, stdout) != len)
n_lines = 50
len = 5
i = 17
src/shuf.c:311
311	      if (fwrite (p[0], sizeof *p[0], len, stdout) != len)
src/shuf.c:311
311	      if (fwrite (p[0], sizeof *p[0], len, stdout) != len)
n_lines = 50
len = 2
i = 18
313	    }
src/shuf.c:313
313	    }
n_lines = 50
len = 2
i = 18
307	  for (size_t i = 0; i < n_lines; i++)
src/shuf.c:307
307	  for (size_t i = 0; i < n_lines; i++)
n_lines = 50
i = 18
309	      char *const *p = line + permutation[i];
src/shuf.c:309
309	      char *const *p = line + permutation[i];
n_lines = 50
len = 2
i = 19
310	      size_t len = p[1] - p[0];
src/shuf.c:310
310	      size_t len = p[1] - p[0];
n_lines = 50
len = 2
i = 19
src/shuf.c:311
311	      if (fwrite (p[0], sizeof *p[0], len, stdout) != len)
src/shuf.c:311
311	      if (fwrite (p[0], sizeof *p[0], len, stdout) != len)
n_lines = 50
len = 15
i = 19
src/shuf.c:311
311	      if (fwrite (p[0], sizeof *p[0], len, stdout) != len)
src/shuf.c:311
311	      if (fwrite (p[0], sizeof *p[0], len, stdout) != len)
n_lines = 50
len = 13
i = 20
313	    }
src/shuf.c:313
313	    }
n_lines = 50
len = 13
i = 20
307	  for (size_t i = 0; i < n_lines; i++)
src/shuf.c:307
307	  for (size_t i = 0; i < n_lines; i++)
n_lines = 50
i = 20
309	      char *const *p = line + permutation[i];
src/shuf.c:309
309	      char *const *p = line + permutation[i];
n_lines = 50
len = 13
i = 21
310	      size_t len = p[1] - p[0];
src/shuf.c:310
310	      size_t len = p[1] - p[0];
n_lines = 50
len = 13
i = 21
src/shuf.c:311
311	      if (fwrite (p[0], sizeof *p[0], len, stdout) != len)
src/shuf.c:311
311	      if (fwrite (p[0], sizeof *p[0], len, stdout) != len)
n_lines = 50
len = 4
i = 21
src/shuf.c:311
311	      if (fwrite (p[0], sizeof *p[0], len, stdout) != len)
src/shuf.c:311
311	      if (fwrite (p[0], sizeof *p[0], len, stdout) != len)
n_lines = 50
len = 10
i = 22
313	    }
src/shuf.c:313
313	    }
n_lines = 50
len = 10
i = 22
307	  for (size_t i = 0; i < n_lines; i++)
src/shuf.c:307
307	  for (size_t i = 0; i < n_lines; i++)
n_lines = 50
i = 22
309	      char *const *p = line + permutation[i];
src/shuf.c:309
309	      char *const *p = line + permutation[i];
n_lines = 50
len = 10
i = 23
310	      size_t len = p[1] - p[0];
src/shuf.c:310
310	      size_t len = p[1] - p[0];
n_lines = 50
len = 10
i = 23
src/shuf.c:311
311	      if (fwrite (p[0], sizeof *p[0], len, stdout) != len)
src/shuf.c:311
311	      if (fwrite (p[0], sizeof *p[0], len, stdout) != len)
n_lines = 50
len = 4
i = 23
src/shuf.c:311
311	      if (fwrite (p[0], sizeof *p[0], len, stdout) != len)
src/shuf.c:311
311	      if (fwrite (p[0], sizeof *p[0], len, stdout) != len)
n_lines = 50
len = 6
i = 24
313	    }
src/shuf.c:313
313	    }
n_lines = 50
len = 6
i = 24
307	  for (size_t i = 0; i < n_lines; i++)
src/shuf.c:307
307	  for (size_t i = 0; i < n_lines; i++)
n_lines = 50
i = 24
309	      char *const *p = line + permutation[i];
src/shuf.c:309
309	      char *const *p = line + permutation[i];
n_lines = 50
len = 6
i = 25
310	      size_t len = p[1] - p[0];
src/shuf.c:310
310	      size_t len = p[1] - p[0];
n_lines = 50
len = 6
i = 25
src/shuf.c:311
311	      if (fwrite (p[0], sizeof *p[0], len, stdout) != len)
src/shuf.c:311
311	      if (fwrite (p[0], sizeof *p[0], len, stdout) != len)
n_lines = 50
len = 9
i = 25
src/shuf.c:311
311	      if (fwrite (p[0], sizeof *p[0], len, stdout) != len)
src/shuf.c:311
311	      if (fwrite (p[0], sizeof *p[0], len, stdout) != len)
n_lines = 50
len = 6
i = 26
313	    }
src/shuf.c:313
313	    }
n_lines = 50
len = 6
i = 26
307	  for (size_t i = 0; i < n_lines; i++)
src/shuf.c:307
307	  for (size_t i = 0; i < n_lines; i++)
n_lines = 50
i = 26
309	      char *const *p = line + permutation[i];
src/shuf.c:309
309	      char *const *p = line + permutation[i];
n_lines = 50
len = 6
i = 27
310	      size_t len = p[1] - p[0];
src/shuf.c:310
310	      size_t len = p[1] - p[0];
n_lines = 50
len = 6
i = 27
src/shuf.c:311
311	      if (fwrite (p[0], sizeof *p[0], len, stdout) != len)
src/shuf.c:311
311	      if (fwrite (p[0], sizeof *p[0], len, stdout) != len)
n_lines = 50
len = 11
i = 27
src/shuf.c:311
311	      if (fwrite (p[0], sizeof *p[0], len, stdout) != len)
src/shuf.c:311
311	      if (fwrite (p[0], sizeof *p[0], len, stdout) != len)
n_lines = 50
len = 6
i = 28
313	    }
src/shuf.c:313
313	    }
n_lines = 50
len = 6
i = 28
307	  for (size_t i = 0; i < n_lines; i++)
src/shuf.c:307
307	  for (size_t i = 0; i < n_lines; i++)
n_lines = 50
i = 28
309	      char *const *p = line + permutation[i];
src/shuf.c:309
309	      char *const *p = line + permutation[i];
n_lines = 50
len = 6
i = 29
310	      size_t len = p[1] - p[0];
src/shuf.c:310
310	      size_t len = p[1] - p[0];
n_lines = 50
len = 6
i = 29
src/shuf.c:311
311	      if (fwrite (p[0], sizeof *p[0], len, stdout) != len)
src/shuf.c:311
311	      if (fwrite (p[0], sizeof *p[0], len, stdout) != len)
n_lines = 50
len = 10
i = 29
src/shuf.c:311
311	      if (fwrite (p[0], sizeof *p[0], len, stdout) != len)
src/shuf.c:311
311	      if (fwrite (p[0], sizeof *p[0], len, stdout) != len)
n_lines = 50
len = 10
i = 30
313	    }
src/shuf.c:313
313	    }
n_lines = 50
len = 10
i = 30
307	  for (size_t i = 0; i < n_lines; i++)
src/shuf.c:307
307	  for (size_t i = 0; i < n_lines; i++)
n_lines = 50
i = 30
309	      char *const *p = line + permutation[i];
src/shuf.c:309
309	      char *const *p = line + permutation[i];
n_lines = 50
len = 10
i = 31
310	      size_t len = p[1] - p[0];
src/shuf.c:310
310	      size_t len = p[1] - p[0];
n_lines = 50
len = 10
i = 31
src/shuf.c:311
311	      if (fwrite (p[0], sizeof *p[0], len, stdout) != len)
src/shuf.c:311
311	      if (fwrite (p[0], sizeof *p[0], len, stdout) != len)
n_lines = 50
len = 11
i = 31
src/shuf.c:311
311	      if (fwrite (p[0], sizeof *p[0], len, stdout) != len)
src/shuf.c:311
311	      if (fwrite (p[0], sizeof *p[0], len, stdout) != len)
n_lines = 50
len = 12
i = 32
313	    }
src/shuf.c:313
313	    }
n_lines = 50
len = 12
i = 32
307	  for (size_t i = 0; i < n_lines; i++)
src/shuf.c:307
307	  for (size_t i = 0; i < n_lines; i++)
n_lines = 50
i = 32
309	      char *const *p = line + permutation[i];
src/shuf.c:309
309	      char *const *p = line + permutation[i];
n_lines = 50
len = 12
i = 33
310	      size_t len = p[1] - p[0];
src/shuf.c:310
310	      size_t len = p[1] - p[0];
n_lines = 50
len = 12
i = 33
src/shuf.c:311
311	      if (fwrite (p[0], sizeof *p[0], len, stdout) != len)
src/shuf.c:311
311	      if (fwrite (p[0], sizeof *p[0], len, stdout) != len)
n_lines = 50
len = 14
i = 33
src/shuf.c:311
311	      if (fwrite (p[0], sizeof *p[0], len, stdout) != len)
src/shuf.c:311
311	      if (fwrite (p[0], sizeof *p[0], len, stdout) != len)
n_lines = 50
len = 4
i = 34
313	    }
src/shuf.c:313
313	    }
n_lines = 50
len = 4
i = 34
307	  for (size_t i = 0; i < n_lines; i++)
src/shuf.c:307
307	  for (size_t i = 0; i < n_lines; i++)
n_lines = 50
i = 34
309	      char *const *p = line + permutation[i];
src/shuf.c:309
309	      char *const *p = line + permutation[i];
n_lines = 50
len = 4
i = 35
310	      size_t len = p[1] - p[0];
src/shuf.c:310
310	      size_t len = p[1] - p[0];
n_lines = 50
len = 4
i = 35
src/shuf.c:311
311	      if (fwrite (p[0], sizeof *p[0], len, stdout) != len)
src/shuf.c:311
311	      if (fwrite (p[0], sizeof *p[0], len, stdout) != len)
n_lines = 50
len = 25
i = 35
src/shuf.c:311
311	      if (fwrite (p[0], sizeof *p[0], len, stdout) != len)
src/shuf.c:311
311	      if (fwrite (p[0], sizeof *p[0], len, stdout) != len)
n_lines = 50
len = 12
i = 36
313	    }
src/shuf.c:313
313	    }
n_lines = 50
len = 12
i = 36
307	  for (size_t i = 0; i < n_lines; i++)
src/shuf.c:307
307	  for (size_t i = 0; i < n_lines; i++)
n_lines = 50
i = 36
309	      char *const *p = line + permutation[i];
src/shuf.c:309
309	      char *const *p = line + permutation[i];
n_lines = 50
len = 12
i = 37
310	      size_t len = p[1] - p[0];
src/shuf.c:310
310	      size_t len = p[1] - p[0];
n_lines = 50
len = 12
i = 37
src/shuf.c:311
311	      if (fwrite (p[0], sizeof *p[0], len, stdout) != len)
src/shuf.c:311
311	      if (fwrite (p[0], sizeof *p[0], len, stdout) != len)
n_lines = 50
len = 10
i = 37
src/shuf.c:311
311	      if (fwrite (p[0], sizeof *p[0], len, stdout) != len)
src/shuf.c:311
311	      if (fwrite (p[0], sizeof *p[0], len, stdout) != len)
n_lines = 50
len = 12
i = 38
313	    }
src/shuf.c:313
313	    }
n_lines = 50
len = 12
i = 38
307	  for (size_t i = 0; i < n_lines; i++)
src/shuf.c:307
307	  for (size_t i = 0; i < n_lines; i++)
n_lines = 50
i = 38
309	      char *const *p = line + permutation[i];
src/shuf.c:309
309	      char *const *p = line + permutation[i];
n_lines = 50
len = 12
i = 39
310	      size_t len = p[1] - p[0];
src/shuf.c:310
310	      size_t len = p[1] - p[0];
n_lines = 50
len = 12
i = 39
src/shuf.c:311
311	      if (fwrite (p[0], sizeof *p[0], len, stdout) != len)
src/shuf.c:311
311	      if (fwrite (p[0], sizeof *p[0], len, stdout) != len)
n_lines = 50
len = 11
i = 39
src/shuf.c:311
311	      if (fwrite (p[0], sizeof *p[0], len, stdout) != len)
src/shuf.c:311
311	      if (fwrite (p[0], sizeof *p[0], len, stdout) != len)
n_lines = 50
len = 6
i = 40
313	    }
src/shuf.c:313
313	    }
n_lines = 50
len = 6
i = 40
307	  for (size_t i = 0; i < n_lines; i++)
src/shuf.c:307
307	  for (size_t i = 0; i < n_lines; i++)
n_lines = 50
i = 40
309	      char *const *p = line + permutation[i];
src/shuf.c:309
309	      char *const *p = line + permutation[i];
n_lines = 50
len = 6
i = 41
310	      size_t len = p[1] - p[0];
src/shuf.c:310
310	      size_t len = p[1] - p[0];
n_lines = 50
len = 6
i = 41
src/shuf.c:311
311	      if (fwrite (p[0], sizeof *p[0], len, stdout) != len)
src/shuf.c:311
311	      if (fwrite (p[0], sizeof *p[0], len, stdout) != len)
n_lines = 50
len = 5
i = 41
src/shuf.c:311
311	      if (fwrite (p[0], sizeof *p[0], len, stdout) != len)
src/shuf.c:311
311	      if (fwrite (p[0], sizeof *p[0], len, stdout) != len)
n_lines = 50
len = 5
i = 42
313	    }
src/shuf.c:313
313	    }
n_lines = 50
len = 5
i = 42
307	  for (size_t i = 0; i < n_lines; i++)
src/shuf.c:307
307	  for (size_t i = 0; i < n_lines; i++)
n_lines = 50
i = 42
309	      char *const *p = line + permutation[i];
src/shuf.c:309
309	      char *const *p = line + permutation[i];
n_lines = 50
len = 5
i = 43
310	      size_t len = p[1] - p[0];
src/shuf.c:310
310	      size_t len = p[1] - p[0];
n_lines = 50
len = 5
i = 43
src/shuf.c:311
311	      if (fwrite (p[0], sizeof *p[0], len, stdout) != len)
src/shuf.c:311
311	      if (fwrite (p[0], sizeof *p[0], len, stdout) != len)
n_lines = 50
len = 20
i = 43
src/shuf.c:311
311	      if (fwrite (p[0], sizeof *p[0], len, stdout) != len)
src/shuf.c:311
311	      if (fwrite (p[0], sizeof *p[0], len, stdout) != len)
n_lines = 50
len = 17
i = 44
313	    }
src/shuf.c:313
313	    }
n_lines = 50
len = 17
i = 44
307	  for (size_t i = 0; i < n_lines; i++)
src/shuf.c:307
307	  for (size_t i = 0; i < n_lines; i++)
n_lines = 50
i = 44
309	      char *const *p = line + permutation[i];
src/shuf.c:309
309	      char *const *p = line + permutation[i];
n_lines = 50
len = 17
i = 45
310	      size_t len = p[1] - p[0];
src/shuf.c:310
310	      size_t len = p[1] - p[0];
n_lines = 50
len = 17
i = 45
src/shuf.c:311
311	      if (fwrite (p[0], sizeof *p[0], len, stdout) != len)
src/shuf.c:311
311	      if (fwrite (p[0], sizeof *p[0], len, stdout) != len)
n_lines = 50
len = 6
i = 45
src/shuf.c:311
311	      if (fwrite (p[0], sizeof *p[0], len, stdout) != len)
src/shuf.c:311
311	      if (fwrite (p[0], sizeof *p[0], len, stdout) != len)
n_lines = 50
len = 23
i = 46
313	    }
src/shuf.c:313
313	    }
n_lines = 50
len = 23
i = 46
307	  for (size_t i = 0; i < n_lines; i++)
src/shuf.c:307
307	  for (size_t i = 0; i < n_lines; i++)
n_lines = 50
i = 46
309	      char *const *p = line + permutation[i];
src/shuf.c:309
309	      char *const *p = line + permutation[i];
n_lines = 50
len = 23
i = 47
310	      size_t len = p[1] - p[0];
src/shuf.c:310
310	      size_t len = p[1] - p[0];
n_lines = 50
len = 23
i = 47
src/shuf.c:311
311	      if (fwrite (p[0], sizeof *p[0], len, stdout) != len)
src/shuf.c:311
311	      if (fwrite (p[0], sizeof *p[0], len, stdout) != len)
n_lines = 50
len = 5
i = 47
src/shuf.c:311
311	      if (fwrite (p[0], sizeof *p[0], len, stdout) != len)
src/shuf.c:311
311	      if (fwrite (p[0], sizeof *p[0], len, stdout) != len)
n_lines = 50
len = 4
i = 48
313	    }
src/shuf.c:313
313	    }
n_lines = 50
len = 4
i = 48
307	  for (size_t i = 0; i < n_lines; i++)
src/shuf.c:307
307	  for (size_t i = 0; i < n_lines; i++)
n_lines = 50
i = 48
309	      char *const *p = line + permutation[i];
src/shuf.c:309
309	      char *const *p = line + permutation[i];
n_lines = 50
len = 4
i = 49
310	      size_t len = p[1] - p[0];
src/shuf.c:310
310	      size_t len = p[1] - p[0];
n_lines = 50
len = 4
i = 49
src/shuf.c:311
311	      if (fwrite (p[0], sizeof *p[0], len, stdout) != len)
src/shuf.c:311
311	      if (fwrite (p[0], sizeof *p[0], len, stdout) != len)
n_lines = 50
len = 11
i = 49
ers54hzrehz
xcgfd
4z
ujztjrt5shtrthzh
hrt5hz
zh
herqerh
zg
rddx
gdjs
jgj
awtgfteg
a
hzrtsh
s<wfgeq<w
ftgjndysdrsehedhbgtrf
sdfcvcx
lgzt
r
zht5rhtrjmndzt
re54zhtrhtr6
ljk
ewgrehrtf
45w
12r5z
45e54z¨
dfztd
heasghwarg
z45zg
zzrdtjz75
jnrsrjrts
6uz5erhjtf
rtjrthr5ruz
j53785e6ujz5t
45z
hngftygdsygggggeyd<jndgt
54ze454zggz
gfhjhfjgf
5z5r4z4z45z
gtxfrhjnxf
trehs
er54
utzh
rsegrebgftrrtjmghmn
ersgr5t4hujhr6zh
e5z45
ersahzkhfkztjnteshegha
tze4
45z
tr6shze54z
