<root>
  <Let heavy="from">
    <jc-6z toy="forgot">446718912</jc-6z>
    <gk is="discovery">r3</gk>
    <u satisfied="service">zWPh</u>
    <oX pile="hit">
      <Ma8>?z{1\</Ma8>
      <O adult="captain">
        <j>
          <ghIRpF57rn>OJ</ghIRpF57rn>
          <WRY>09{\MPfDg</WRY>
          <qh6pi from="leaving">)UB}5$</qh6pi>
          <UiVB3oiUPX load="speech">X7\BLX9ge@</UiVB3oiUPX>
          <EHR-OdOz>~ECz |#fi+</EHR-OdOz>
          <x0Vh>-1123570460.5906513</x0Vh>
          <N courage="special">-919862943.3066909</N>
          <UN-4a>ocka6Y:2C</UN-4a>
        </j>
        <URBxeio exactly="waste">2</URBxeio>
        <n theory="represent">5</n>
        <X> Gml62H</X>
        <L62qTRe play="rabbit"/>
        <s85hUdgX>951169982</s85hUdgX>
        <TF3 send="dug">-832737649</TF3>
        <kUM baby="progress">"@5xmXSL)0</kUM>
      </O>
      <Dy_dvk women="receive">C hJw}W{S]</Dy_dvk>
      <Zit-GCiv4d>=atvU|2w</Zit-GCiv4d>
      <sE forgotten="distance">1728256145.438043</sE>
      <lFc0C4-W05 future="half">~j</lFc0C4-W05>
      <b>-388540848</b>
      <Y3UvO6Tqo ready="mice">X!@Q</Y3UvO6Tqo>
    </oX>
    <jf5>`i+l</jf5>
    <zFld1>447929656</zFld1>
    <t0VWFc>S.MEay%</t0VWFc>
    <G religious="horse">J2BUd</G>
  </Let>
  <b>'},{[.8O</b>
  <bczWFw9c>kuXJ</bczWFw9c>
</root>
