Breakpoint 1 at 0x411d40: file sqlite3.c, line 114424.
[Thread debugging using libthread_db enabled]
Using host libthread_db library "/lib/x86_64-linux-gnu/libthread_db.so.1".

Breakpoint 1, sqlite3LocateTable (pParse=0x7fffffffd998, flags=0, zName=0x51c868 "t4", zDbase=0x0) at sqlite3.c:114424
114424	    if( zDbase ){
#0  sqlite3LocateTable (pParse=0x7fffffffd998, flags=0, zName=0x51c868 "t4", zDbase=0x0) at sqlite3.c:114424
114424	    if( zDbase ){
pParse = 0x7fffffffd998
flags = 0
zName = 0x51c868 "t4"
zDbase = 0x0
zMsg = 0x4eb959 "no such table"
p = 0x0
db = 0x50e8c8
114427	      sqlite3ErrorMsg(pParse, "%s: %s", zMsg, zName);
#0  sqlite3LocateTable (pParse=0x7fffffffd998, flags=0, zName=0x51c868 "t4", zDbase=0x0) at sqlite3.c:114427
114427	      sqlite3ErrorMsg(pParse, "%s: %s", zMsg, zName);
pParse = 0x7fffffffd998
flags = 0
zName = 0x51c868 "t4"
zDbase = 0x0
zMsg = 0x4eb959 "no such table"
p = 0x0
db = 0x50e8c8
114429	  }else{
#0  sqlite3LocateTable (pParse=0x7fffffffd998, flags=0, zName=0x51c868 "t4", zDbase=0x0) at sqlite3.c:114429
114429	  }else{
pParse = 0x7fffffffd998
flags = 0
zName = 0x51c868 "t4"
zDbase = 0x0
zMsg = 0x4eb959 "no such table"
p = 0x0
db = 0x50e8c8
114433	  return p;
#0  sqlite3LocateTable (pParse=0x7fffffffd998, flags=0, zName=0x51c868 "t4", zDbase=0x0) at sqlite3.c:114433
114433	  return p;
pParse = 0x7fffffffd998
flags = 0
zName = 0x51c868 "t4"
zDbase = 0x0
p = 0x0
db = 0x50e8c8
114434	}
#0  sqlite3LocateTable (pParse=0x7fffffffd998, flags=0, zName=0x51c868 "t4", zDbase=0x0) at sqlite3.c:114434
114434	}
pParse = 0x7fffffffd998
flags = 0
zName = 0x51c868 "t4"
zDbase = 0x0
p = 0x0
db = 0x50e8c8
sqlite3DropTable (pParse=0x7fffffffd998, pName=0x51c8e8, isView=0, noErr=1) at sqlite3.c:117411
117411	  if( noErr ) db->suppressErr--;
#0  sqlite3DropTable (pParse=0x7fffffffd998, pName=0x51c8e8, isView=0, noErr=1) at sqlite3.c:117411
117411	  if( noErr ) db->suppressErr--;
pParse = 0x7fffffffd998
pName = 0x51c8e8
isView = 0
noErr = 1
pTab = 0x0
v = 0x0
db = 0x50e8c8
iDb = 0
117413	  if( pTab==0 ){
#0  sqlite3DropTable (pParse=0x7fffffffd998, pName=0x51c8e8, isView=0, noErr=1) at sqlite3.c:117413
117413	  if( pTab==0 ){
pParse = 0x7fffffffd998
pName = 0x51c8e8
isView = 0
noErr = 1
pTab = 0x0
v = 0x0
db = 0x50e8c8
iDb = 0
117414	    if( noErr ){
#0  sqlite3DropTable (pParse=0x7fffffffd998, pName=0x51c8e8, isView=0, noErr=1) at sqlite3.c:117414
117414	    if( noErr ){
pParse = 0x7fffffffd998
pName = 0x51c8e8
isView = 0
noErr = 1
pTab = 0x0
v = 0x0
db = 0x50e8c8
iDb = 0
117415	      sqlite3CodeVerifyNamedSchema(pParse, pName->a[0].zDatabase);
#0  sqlite3DropTable (pParse=0x7fffffffd998, pName=0x51c8e8, isView=0, noErr=1) at sqlite3.c:117415
117415	      sqlite3CodeVerifyNamedSchema(pParse, pName->a[0].zDatabase);
pParse = 0x7fffffffd998
pName = 0x51c8e8
isView = 0
noErr = 1
pTab = 0x0
v = 0x0
db = 0x50e8c8
iDb = 0
117416	      sqlite3ForceNotReadOnly(pParse);
#0  sqlite3DropTable (pParse=0x7fffffffd998, pName=0x51c8e8, isView=0, noErr=1) at sqlite3.c:117416
117416	      sqlite3ForceNotReadOnly(pParse);
pParse = 0x7fffffffd998
pName = 0x51c8e8
isView = 0
noErr = 1
pTab = 0x0
v = 0x0
db = 0x50e8c8
iDb = 0
117418	    goto exit_drop_table;
#0  sqlite3DropTable (pParse=0x7fffffffd998, pName=0x51c8e8, isView=0, noErr=1) at sqlite3.c:117418
117418	    goto exit_drop_table;
pParse = 0x7fffffffd998
pName = 0x51c8e8
isView = 0
noErr = 1
pTab = 0x0
v = 0x0
db = 0x50e8c8
iDb = 0
117497	  sqlite3SrcListDelete(db, pName);
#0  sqlite3DropTable (pParse=0x7fffffffd998, pName=0x51c8e8, isView=0, noErr=1) at sqlite3.c:117497
117497	  sqlite3SrcListDelete(db, pName);
pParse = 0x7fffffffd998
pName = 0x51c8e8
isView = 0
noErr = 1
pTab = 0x0
v = 0x0
db = 0x50e8c8
iDb = 0
117498	}
#0  sqlite3DropTable (pParse=0x7fffffffd998, pName=0x51c8e8, isView=0, noErr=1) at sqlite3.c:117498
117498	}
pParse = 0x7fffffffd998
pName = 0x51c8e8
isView = 0
noErr = 1
pTab = 0x0
v = 0x0
db = 0x50e8c8
iDb = 0
yy_reduce (yypParser=0x7fffffffcf80, yyruleno=79, yyLookahead=1, yyLookaheadToken=..., pParse=0x7fffffffd998) at sqlite3.c:165261
165261	        break;
#0  yy_reduce (yypParser=0x7fffffffcf80, yyruleno=79, yyLookahead=1, yyLookaheadToken=..., pParse=0x7fffffffd998) at sqlite3.c:165261
165261	        break;
yypParser = 0x7fffffffcf80
yyruleno = 79
yyLookahead = 1
yyLookaheadToken = {z = 0x51c9ef ";\nDROP TABLE IF EXISTS t5;\nDROP TABLE IF EXISTS t6;\nDROP TABLE IF EXISTS t4n;\nDROP TABLE IF EXIXTS t5n;\nDROP TABLE IF EXISTS t6n;\nDROP TABLE IF EXISTS t7;\nDROP TABLE IF EXISTS t8;\nDROP TABLE IF EXISTS"..., n = 1}
pParse = 0x7fffffffd998
yygoto = 238
yyact = 1315
yymsp = 0x7fffffffcff0
yysize = -1
166460	  yygoto = yyRuleInfoLhs[yyruleno];
#0  yy_reduce (yypParser=0x7fffffffcf80, yyruleno=79, yyLookahead=1, yyLookaheadToken=..., pParse=0x7fffffffd998) at sqlite3.c:166460
166460	  yygoto = yyRuleInfoLhs[yyruleno];
yypParser = 0x7fffffffcf80
yyruleno = 79
yyLookahead = 1
yyLookaheadToken = {z = 0x51c9ef ";\nDROP TABLE IF EXISTS t5;\nDROP TABLE IF EXISTS t6;\nDROP TABLE IF EXISTS t4n;\nDROP TABLE IF EXIXTS t5n;\nDROP TABLE IF EXISTS t6n;\nDROP TABLE IF EXISTS t7;\nDROP TABLE IF EXISTS t8;\nDROP TABLE IF EXISTS"..., n = 1}
pParse = 0x7fffffffd998
yygoto = 238
yyact = 1315
yymsp = 0x7fffffffcff0
yysize = -1
166461	  yysize = yyRuleInfoNRhs[yyruleno];
#0  yy_reduce (yypParser=0x7fffffffcf80, yyruleno=79, yyLookahead=1, yyLookaheadToken=..., pParse=0x7fffffffd998) at sqlite3.c:166461
166461	  yysize = yyRuleInfoNRhs[yyruleno];
yypParser = 0x7fffffffcf80
yyruleno = 79
yyLookahead = 1
yyLookaheadToken = {z = 0x51c9ef ";\nDROP TABLE IF EXISTS t5;\nDROP TABLE IF EXISTS t6;\nDROP TABLE IF EXISTS t4n;\nDROP TABLE IF EXIXTS t5n;\nDROP TABLE IF EXISTS t6n;\nDROP TABLE IF EXISTS t7;\nDROP TABLE IF EXISTS t8;\nDROP TABLE IF EXISTS"..., n = 1}
pParse = 0x7fffffffd998
yygoto = 190
yyact = 1315
yymsp = 0x7fffffffcff0
yysize = -1
166462	  yyact = yy_find_reduce_action(yymsp[yysize].stateno,(YYCODETYPE)yygoto);
#0  yy_reduce (yypParser=0x7fffffffcf80, yyruleno=79, yyLookahead=1, yyLookaheadToken=..., pParse=0x7fffffffd998) at sqlite3.c:166462
166462	  yyact = yy_find_reduce_action(yymsp[yysize].stateno,(YYCODETYPE)yygoto);
yypParser = 0x7fffffffcf80
yyruleno = 79
yyLookahead = 1
yyLookaheadToken = {z = 0x51c9ef ";\nDROP TABLE IF EXISTS t5;\nDROP TABLE IF EXISTS t6;\nDROP TABLE IF EXISTS t4n;\nDROP TABLE IF EXIXTS t5n;\nDROP TABLE IF EXISTS t6n;\nDROP TABLE IF EXISTS t7;\nDROP TABLE IF EXISTS t8;\nDROP TABLE IF EXISTS"..., n = 1}
pParse = 0x7fffffffd998
yygoto = 190
yyact = 1315
yymsp = 0x7fffffffcff0
yysize = -4
166471	  yymsp += yysize+1;
#0  yy_reduce (yypParser=0x7fffffffcf80, yyruleno=79, yyLookahead=1, yyLookaheadToken=..., pParse=0x7fffffffd998) at sqlite3.c:166471
166471	  yymsp += yysize+1;
yypParser = 0x7fffffffcf80
yyruleno = 79
yyLookahead = 1
yyLookaheadToken = {z = 0x51c9ef ";\nDROP TABLE IF EXISTS t5;\nDROP TABLE IF EXISTS t6;\nDROP TABLE IF EXISTS t4n;\nDROP TABLE IF EXIXTS t5n;\nDROP TABLE IF EXISTS t6n;\nDROP TABLE IF EXISTS t7;\nDROP TABLE IF EXISTS t8;\nDROP TABLE IF EXISTS"..., n = 1}
pParse = 0x7fffffffd998
yygoto = 190
yyact = 1238
yymsp = 0x7fffffffcff0
yysize = -4
166472	  yypParser->yytos = yymsp;
#0  yy_reduce (yypParser=0x7fffffffcf80, yyruleno=79, yyLookahead=1, yyLookaheadToken=..., pParse=0x7fffffffd998) at sqlite3.c:166472
166472	  yypParser->yytos = yymsp;
yypParser = 0x7fffffffcf80
yyruleno = 79
yyLookahead = 1
yyLookaheadToken = {z = 0x51c9ef ";\nDROP TABLE IF EXISTS t5;\nDROP TABLE IF EXISTS t6;\nDROP TABLE IF EXISTS t4n;\nDROP TABLE IF EXIXTS t5n;\nDROP TABLE IF EXISTS t6n;\nDROP TABLE IF EXISTS t7;\nDROP TABLE IF EXISTS t8;\nDROP TABLE IF EXISTS"..., n = 1}
pParse = 0x7fffffffd998
yygoto = 190
yyact = 1238
yymsp = 0x7fffffffcfa8
yysize = -4
166473	  yymsp->stateno = (YYACTIONTYPE)yyact;
#0  yy_reduce (yypParser=0x7fffffffcf80, yyruleno=79, yyLookahead=1, yyLookaheadToken=..., pParse=0x7fffffffd998) at sqlite3.c:166473
166473	  yymsp->stateno = (YYACTIONTYPE)yyact;
yypParser = 0x7fffffffcf80
yyruleno = 79
yyLookahead = 1
yyLookaheadToken = {z = 0x51c9ef ";\nDROP TABLE IF EXISTS t5;\nDROP TABLE IF EXISTS t6;\nDROP TABLE IF EXISTS t4n;\nDROP TABLE IF EXIXTS t5n;\nDROP TABLE IF EXISTS t6n;\nDROP TABLE IF EXISTS t7;\nDROP TABLE IF EXISTS t8;\nDROP TABLE IF EXISTS"..., n = 1}
pParse = 0x7fffffffd998
yygoto = 190
yyact = 1238
yymsp = 0x7fffffffcfa8
yysize = -4
166474	  yymsp->major = (YYCODETYPE)yygoto;
#0  yy_reduce (yypParser=0x7fffffffcf80, yyruleno=79, yyLookahead=1, yyLookaheadToken=..., pParse=0x7fffffffd998) at sqlite3.c:166474
166474	  yymsp->major = (YYCODETYPE)yygoto;
yypParser = 0x7fffffffcf80
yyruleno = 79
yyLookahead = 1
yyLookaheadToken = {z = 0x51c9ef ";\nDROP TABLE IF EXISTS t5;\nDROP TABLE IF EXISTS t6;\nDROP TABLE IF EXISTS t4n;\nDROP TABLE IF EXIXTS t5n;\nDROP TABLE IF EXISTS t6n;\nDROP TABLE IF EXISTS t7;\nDROP TABLE IF EXISTS t8;\nDROP TABLE IF EXISTS"..., n = 1}
pParse = 0x7fffffffd998
yygoto = 190
yyact = 1238
yymsp = 0x7fffffffcfa8
yysize = -4
166476	  return yyact;
#0  yy_reduce (yypParser=0x7fffffffcf80, yyruleno=79, yyLookahead=1, yyLookaheadToken=..., pParse=0x7fffffffd998) at sqlite3.c:166476
166476	  return yyact;
yypParser = 0x7fffffffcf80
yyruleno = 79
yyLookahead = 1
yyLookaheadToken = {z = 0x51c9ef ";\nDROP TABLE IF EXISTS t5;\nDROP TABLE IF EXISTS t6;\nDROP TABLE IF EXISTS t4n;\nDROP TABLE IF EXIXTS t5n;\nDROP TABLE IF EXISTS t6n;\nDROP TABLE IF EXISTS t7;\nDROP TABLE IF EXISTS t8;\nDROP TABLE IF EXISTS"..., n = 1}
pParse = 0x7fffffffd998
yygoto = 190
yyact = 1238
yymsp = 0x7fffffffcfa8
yysize = -4
sqlite3Parser (yyp=0x7fffffffcf80, yymajor=1, yyminor=...) at sqlite3.c:166657
166657	    }else if( yyact <= YY_MAX_SHIFTREDUCE ){
#0  sqlite3Parser (yyp=0x7fffffffcf80, yymajor=1, yyminor=...) at sqlite3.c:166657
166657	    }else if( yyact <= YY_MAX_SHIFTREDUCE ){
yyp = 0x7fffffffcf80
yymajor = 1
yyminor = {z = 0x51c9ef ";\nDROP TABLE IF EXISTS t5;\nDROP TABLE IF EXISTS t6;\nDROP TABLE IF EXISTS t4n;\nDROP TABLE IF EXIXTS t5n;\nDROP TABLE IF EXISTS t6n;\nDROP TABLE IF EXISTS t7;\nDROP TABLE IF EXISTS t8;\nDROP TABLE IF EXISTS"..., n = 1}
yyruleno = 79
yyminorunion = {yyinit = 19, yy0 = {z = 0x13 <error: Cannot access memory at address 0x13>, n = 1}, yy33 = 0x13, yy41 = 0x13, yy47 = 0x13, yy131 = 0x13, yy180 = {a = 19, b = 0x1}, yy231 = {value = 19, mask = 0}, yy254 = 0x13, yy285 = 19, yy322 = 0x13, yy385 = 0x13, yy394 = 19, yy444 = 0x13, yy516 = 19 '\023', yy521 = 0x13, yy522 = 0x13 <error: Cannot access memory at address 0x13>, yy528 = 0x13, yy595 = {eType = 19, pExpr = 0x1}}
yyact = 1238
yypParser = 0x7fffffffcf80
pParse = 0x7fffffffd998
166607	  while(1){ /* Exit by "break" */
#0  sqlite3Parser (yyp=0x7fffffffcf80, yymajor=1, yyminor=...) at sqlite3.c:166607
166607	  while(1){ /* Exit by "break" */
yyp = 0x7fffffffcf80
yymajor = 1
yyminor = {z = 0x51c9ef ";\nDROP TABLE IF EXISTS t5;\nDROP TABLE IF EXISTS t6;\nDROP TABLE IF EXISTS t4n;\nDROP TABLE IF EXIXTS t5n;\nDROP TABLE IF EXISTS t6n;\nDROP TABLE IF EXISTS t7;\nDROP TABLE IF EXISTS t8;\nDROP TABLE IF EXISTS"..., n = 1}
yyminorunion = {yyinit = 19, yy0 = {z = 0x13 <error: Cannot access memory at address 0x13>, n = 1}, yy33 = 0x13, yy41 = 0x13, yy47 = 0x13, yy131 = 0x13, yy180 = {a = 19, b = 0x1}, yy231 = {value = 19, mask = 0}, yy254 = 0x13, yy285 = 19, yy322 = 0x13, yy385 = 0x13, yy394 = 19, yy444 = 0x13, yy516 = 19 '\023', yy521 = 0x13, yy522 = 0x13 <error: Cannot access memory at address 0x13>, yy528 = 0x13, yy595 = {eType = 19, pExpr = 0x1}}
yyact = 1238
yypParser = 0x7fffffffcf80
pParse = 0x7fffffffd998
166610	    yyact = yy_find_shift_action((YYCODETYPE)yymajor,yyact);
#0  sqlite3Parser (yyp=0x7fffffffcf80, yymajor=1, yyminor=...) at sqlite3.c:166610
166610	    yyact = yy_find_shift_action((YYCODETYPE)yymajor,yyact);
yyp = 0x7fffffffcf80
yymajor = 1
yyminor = {z = 0x51c9ef ";\nDROP TABLE IF EXISTS t5;\nDROP TABLE IF EXISTS t6;\nDROP TABLE IF EXISTS t4n;\nDROP TABLE IF EXIXTS t5n;\nDROP TABLE IF EXISTS t6n;\nDROP TABLE IF EXISTS t7;\nDROP TABLE IF EXISTS t8;\nDROP TABLE IF EXISTS"..., n = 1}
yyminorunion = {yyinit = 19, yy0 = {z = 0x13 <error: Cannot access memory at address 0x13>, n = 1}, yy33 = 0x13, yy41 = 0x13, yy47 = 0x13, yy131 = 0x13, yy180 = {a = 19, b = 0x1}, yy231 = {value = 19, mask = 0}, yy254 = 0x13, yy285 = 19, yy322 = 0x13, yy385 = 0x13, yy394 = 19, yy444 = 0x13, yy516 = 19 '\023', yy521 = 0x13, yy522 = 0x13 <error: Cannot access memory at address 0x13>, yy528 = 0x13, yy595 = {eType = 19, pExpr = 0x1}}
yyact = 1238
yypParser = 0x7fffffffcf80
pParse = 0x7fffffffd998
166611	    if( yyact >= YY_MIN_REDUCE ){
#0  sqlite3Parser (yyp=0x7fffffffcf80, yymajor=1, yyminor=...) at sqlite3.c:166611
166611	    if( yyact >= YY_MIN_REDUCE ){
yyp = 0x7fffffffcf80
yymajor = 1
yyminor = {z = 0x51c9ef ";\nDROP TABLE IF EXISTS t5;\nDROP TABLE IF EXISTS t6;\nDROP TABLE IF EXISTS t4n;\nDROP TABLE IF EXIXTS t5n;\nDROP TABLE IF EXISTS t6n;\nDROP TABLE IF EXISTS t7;\nDROP TABLE IF EXISTS t8;\nDROP TABLE IF EXISTS"..., n = 1}
yyminorunion = {yyinit = 19, yy0 = {z = 0x13 <error: Cannot access memory at address 0x13>, n = 1}, yy33 = 0x13, yy41 = 0x13, yy47 = 0x13, yy131 = 0x13, yy180 = {a = 19, b = 0x1}, yy231 = {value = 19, mask = 0}, yy254 = 0x13, yy285 = 19, yy322 = 0x13, yy385 = 0x13, yy394 = 19, yy444 = 0x13, yy516 = 19 '\023', yy521 = 0x13, yy522 = 0x13 <error: Cannot access memory at address 0x13>, yy528 = 0x13, yy595 = {eType = 19, pExpr = 0x1}}
yyact = 1238
yypParser = 0x7fffffffcf80
pParse = 0x7fffffffd998
166612	      unsigned int yyruleno = yyact - YY_MIN_REDUCE; /* Reduce by this rule */
#0  sqlite3Parser (yyp=0x7fffffffcf80, yymajor=1, yyminor=...) at sqlite3.c:166612
166612	      unsigned int yyruleno = yyact - YY_MIN_REDUCE; /* Reduce by this rule */
yyp = 0x7fffffffcf80
yymajor = 1
yyminor = {z = 0x51c9ef ";\nDROP TABLE IF EXISTS t5;\nDROP TABLE IF EXISTS t6;\nDROP TABLE IF EXISTS t4n;\nDROP TABLE IF EXIXTS t5n;\nDROP TABLE IF EXISTS t6n;\nDROP TABLE IF EXISTS t7;\nDROP TABLE IF EXISTS t8;\nDROP TABLE IF EXISTS"..., n = 1}
yyruleno = 79
yyminorunion = {yyinit = 19, yy0 = {z = 0x13 <error: Cannot access memory at address 0x13>, n = 1}, yy33 = 0x13, yy41 = 0x13, yy47 = 0x13, yy131 = 0x13, yy180 = {a = 19, b = 0x1}, yy231 = {value = 19, mask = 0}, yy254 = 0x13, yy285 = 19, yy322 = 0x13, yy385 = 0x13, yy394 = 19, yy444 = 0x13, yy516 = 19 '\023', yy521 = 0x13, yy522 = 0x13 <error: Cannot access memory at address 0x13>, yy528 = 0x13, yy595 = {eType = 19, pExpr = 0x1}}
yyact = 1238
yypParser = 0x7fffffffcf80
pParse = 0x7fffffffd998
166634	      if( yyRuleInfoNRhs[yyruleno]==0 ){
#0  sqlite3Parser (yyp=0x7fffffffcf80, yymajor=1, yyminor=...) at sqlite3.c:166634
166634	      if( yyRuleInfoNRhs[yyruleno]==0 ){
yyp = 0x7fffffffcf80
yymajor = 1
yyminor = {z = 0x51c9ef ";\nDROP TABLE IF EXISTS t5;\nDROP TABLE IF EXISTS t6;\nDROP TABLE IF EXISTS t4n;\nDROP TABLE IF EXIXTS t5n;\nDROP TABLE IF EXISTS t6n;\nDROP TABLE IF EXISTS t7;\nDROP TABLE IF EXISTS t8;\nDROP TABLE IF EXISTS"..., n = 1}
yyruleno = 2
yyminorunion = {yyinit = 19, yy0 = {z = 0x13 <error: Cannot access memory at address 0x13>, n = 1}, yy33 = 0x13, yy41 = 0x13, yy47 = 0x13, yy131 = 0x13, yy180 = {a = 19, b = 0x1}, yy231 = {value = 19, mask = 0}, yy254 = 0x13, yy285 = 19, yy322 = 0x13, yy385 = 0x13, yy394 = 19, yy444 = 0x13, yy516 = 19 '\023', yy521 = 0x13, yy522 = 0x13 <error: Cannot access memory at address 0x13>, yy528 = 0x13, yy595 = {eType = 19, pExpr = 0x1}}
yyact = 1238
yypParser = 0x7fffffffcf80
pParse = 0x7fffffffd998
166656	      yyact = yy_reduce(yypParser,yyruleno,yymajor,yyminor sqlite3ParserCTX_PARAM);
#0  sqlite3Parser (yyp=0x7fffffffcf80, yymajor=1, yyminor=...) at sqlite3.c:166656
166656	      yyact = yy_reduce(yypParser,yyruleno,yymajor,yyminor sqlite3ParserCTX_PARAM);
yyp = 0x7fffffffcf80
yymajor = 1
yyminor = {z = 0x51c9ef ";\nDROP TABLE IF EXISTS t5;\nDROP TABLE IF EXISTS t6;\nDROP TABLE IF EXISTS t4n;\nDROP TABLE IF EXIXTS t5n;\nDROP TABLE IF EXISTS t6n;\nDROP TABLE IF EXISTS t7;\nDROP TABLE IF EXISTS t8;\nDROP TABLE IF EXISTS"..., n = 1}
yyruleno = 2
yyminorunion = {yyinit = 19, yy0 = {z = 0x13 <error: Cannot access memory at address 0x13>, n = 1}, yy33 = 0x13, yy41 = 0x13, yy47 = 0x13, yy131 = 0x13, yy180 = {a = 19, b = 0x1}, yy231 = {value = 19, mask = 0}, yy254 = 0x13, yy285 = 19, yy322 = 0x13, yy385 = 0x13, yy394 = 19, yy444 = 0x13, yy516 = 19 '\023', yy521 = 0x13, yy522 = 0x13 <error: Cannot access memory at address 0x13>, yy528 = 0x13, yy595 = {eType = 19, pExpr = 0x1}}
yyact = 1238
yypParser = 0x7fffffffcf80
pParse = 0x7fffffffd998
166657	    }else if( yyact <= YY_MAX_SHIFTREDUCE ){
#0  sqlite3Parser (yyp=0x7fffffffcf80, yymajor=1, yyminor=...) at sqlite3.c:166657
166657	    }else if( yyact <= YY_MAX_SHIFTREDUCE ){
yyp = 0x7fffffffcf80
yymajor = 1
yyminor = {z = 0x51c9ef ";\nDROP TABLE IF EXISTS t5;\nDROP TABLE IF EXISTS t6;\nDROP TABLE IF EXISTS t4n;\nDROP TABLE IF EXIXTS t5n;\nDROP TABLE IF EXISTS t6n;\nDROP TABLE IF EXISTS t7;\nDROP TABLE IF EXISTS t8;\nDROP TABLE IF EXISTS"..., n = 1}
yyruleno = 2
yyminorunion = {yyinit = 19, yy0 = {z = 0x13 <error: Cannot access memory at address 0x13>, n = 1}, yy33 = 0x13, yy41 = 0x13, yy47 = 0x13, yy131 = 0x13, yy180 = {a = 19, b = 0x1}, yy231 = {value = 19, mask = 0}, yy254 = 0x13, yy285 = 19, yy322 = 0x13, yy385 = 0x13, yy394 = 19, yy444 = 0x13, yy516 = 19 '\023', yy521 = 0x13, yy522 = 0x13 <error: Cannot access memory at address 0x13>, yy528 = 0x13, yy595 = {eType = 19, pExpr = 0x1}}
yyact = 573
yypParser = 0x7fffffffcf80
pParse = 0x7fffffffd998
166607	  while(1){ /* Exit by "break" */
#0  sqlite3Parser (yyp=0x7fffffffcf80, yymajor=1, yyminor=...) at sqlite3.c:166607
166607	  while(1){ /* Exit by "break" */
yyp = 0x7fffffffcf80
yymajor = 1
yyminor = {z = 0x51c9ef ";\nDROP TABLE IF EXISTS t5;\nDROP TABLE IF EXISTS t6;\nDROP TABLE IF EXISTS t4n;\nDROP TABLE IF EXIXTS t5n;\nDROP TABLE IF EXISTS t6n;\nDROP TABLE IF EXISTS t7;\nDROP TABLE IF EXISTS t8;\nDROP TABLE IF EXISTS"..., n = 1}
yyminorunion = {yyinit = 19, yy0 = {z = 0x13 <error: Cannot access memory at address 0x13>, n = 1}, yy33 = 0x13, yy41 = 0x13, yy47 = 0x13, yy131 = 0x13, yy180 = {a = 19, b = 0x1}, yy231 = {value = 19, mask = 0}, yy254 = 0x13, yy285 = 19, yy322 = 0x13, yy385 = 0x13, yy394 = 19, yy444 = 0x13, yy516 = 19 '\023', yy521 = 0x13, yy522 = 0x13 <error: Cannot access memory at address 0x13>, yy528 = 0x13, yy595 = {eType = 19, pExpr = 0x1}}
yyact = 573
yypParser = 0x7fffffffcf80
pParse = 0x7fffffffd998
166610	    yyact = yy_find_shift_action((YYCODETYPE)yymajor,yyact);
#0  sqlite3Parser (yyp=0x7fffffffcf80, yymajor=1, yyminor=...) at sqlite3.c:166610
166610	    yyact = yy_find_shift_action((YYCODETYPE)yymajor,yyact);
yyp = 0x7fffffffcf80
yymajor = 1
yyminor = {z = 0x51c9ef ";\nDROP TABLE IF EXISTS t5;\nDROP TABLE IF EXISTS t6;\nDROP TABLE IF EXISTS t4n;\nDROP TABLE IF EXIXTS t5n;\nDROP TABLE IF EXISTS t6n;\nDROP TABLE IF EXISTS t7;\nDROP TABLE IF EXISTS t8;\nDROP TABLE IF EXISTS"..., n = 1}
yyminorunion = {yyinit = 19, yy0 = {z = 0x13 <error: Cannot access memory at address 0x13>, n = 1}, yy33 = 0x13, yy41 = 0x13, yy47 = 0x13, yy131 = 0x13, yy180 = {a = 19, b = 0x1}, yy231 = {value = 19, mask = 0}, yy254 = 0x13, yy285 = 19, yy322 = 0x13, yy385 = 0x13, yy394 = 19, yy444 = 0x13, yy516 = 19 '\023', yy521 = 0x13, yy522 = 0x13 <error: Cannot access memory at address 0x13>, yy528 = 0x13, yy595 = {eType = 19, pExpr = 0x1}}
yyact = 573
yypParser = 0x7fffffffcf80
pParse = 0x7fffffffd998
166611	    if( yyact >= YY_MIN_REDUCE ){
#0  sqlite3Parser (yyp=0x7fffffffcf80, yymajor=1, yyminor=...) at sqlite3.c:166611
166611	    if( yyact >= YY_MIN_REDUCE ){
yyp = 0x7fffffffcf80
yymajor = 1
yyminor = {z = 0x51c9ef ";\nDROP TABLE IF EXISTS t5;\nDROP TABLE IF EXISTS t6;\nDROP TABLE IF EXISTS t4n;\nDROP TABLE IF EXIXTS t5n;\nDROP TABLE IF EXISTS t6n;\nDROP TABLE IF EXISTS t7;\nDROP TABLE IF EXISTS t8;\nDROP TABLE IF EXISTS"..., n = 1}
yyminorunion = {yyinit = 19, yy0 = {z = 0x13 <error: Cannot access memory at address 0x13>, n = 1}, yy33 = 0x13, yy41 = 0x13, yy47 = 0x13, yy131 = 0x13, yy180 = {a = 19, b = 0x1}, yy231 = {value = 19, mask = 0}, yy254 = 0x13, yy285 = 19, yy322 = 0x13, yy385 = 0x13, yy394 = 19, yy444 = 0x13, yy516 = 19 '\023', yy521 = 0x13, yy522 = 0x13 <error: Cannot access memory at address 0x13>, yy528 = 0x13, yy595 = {eType = 19, pExpr = 0x1}}
yyact = 1175
yypParser = 0x7fffffffcf80
pParse = 0x7fffffffd998
166658	      yy_shift(yypParser,yyact,(YYCODETYPE)yymajor,yyminor);
#0  sqlite3Parser (yyp=0x7fffffffcf80, yymajor=1, yyminor=...) at sqlite3.c:166658
166658	      yy_shift(yypParser,yyact,(YYCODETYPE)yymajor,yyminor);
yyp = 0x7fffffffcf80
yymajor = 1
yyminor = {z = 0x51c9ef ";\nDROP TABLE IF EXISTS t5;\nDROP TABLE IF EXISTS t6;\nDROP TABLE IF EXISTS t4n;\nDROP TABLE IF EXIXTS t5n;\nDROP TABLE IF EXISTS t6n;\nDROP TABLE IF EXISTS t7;\nDROP TABLE IF EXISTS t8;\nDROP TABLE IF EXISTS"..., n = 1}
yyminorunion = {yyinit = 19, yy0 = {z = 0x13 <error: Cannot access memory at address 0x13>, n = 1}, yy33 = 0x13, yy41 = 0x13, yy47 = 0x13, yy131 = 0x13, yy180 = {a = 19, b = 0x1}, yy231 = {value = 19, mask = 0}, yy254 = 0x13, yy285 = 19, yy322 = 0x13, yy385 = 0x13, yy394 = 19, yy444 = 0x13, yy516 = 19 '\023', yy521 = 0x13, yy522 = 0x13 <error: Cannot access memory at address 0x13>, yy528 = 0x13, yy595 = {eType = 19, pExpr = 0x1}}
yyact = 1175
yypParser = 0x7fffffffcf80
pParse = 0x7fffffffd998

Breakpoint 1, sqlite3LocateTable (pParse=0x7fffffffd998, flags=0, zName=0x51c868 "t5", zDbase=0x0) at sqlite3.c:114424
114424	    if( zDbase ){
#0  sqlite3LocateTable (pParse=0x7fffffffd998, flags=0, zName=0x51c868 "t5", zDbase=0x0) at sqlite3.c:114424
114424	    if( zDbase ){
pParse = 0x7fffffffd998
flags = 0
zName = 0x51c868 "t5"
zDbase = 0x0
zMsg = 0x4eb959 "no such table"
p = 0x0
db = 0x50e8c8
114427	      sqlite3ErrorMsg(pParse, "%s: %s", zMsg, zName);
#0  sqlite3LocateTable (pParse=0x7fffffffd998, flags=0, zName=0x51c868 "t5", zDbase=0x0) at sqlite3.c:114427
114427	      sqlite3ErrorMsg(pParse, "%s: %s", zMsg, zName);
pParse = 0x7fffffffd998
flags = 0
zName = 0x51c868 "t5"
zDbase = 0x0
zMsg = 0x4eb959 "no such table"
p = 0x0
db = 0x50e8c8
114429	  }else{
#0  sqlite3LocateTable (pParse=0x7fffffffd998, flags=0, zName=0x51c868 "t5", zDbase=0x0) at sqlite3.c:114429
114429	  }else{
pParse = 0x7fffffffd998
flags = 0
zName = 0x51c868 "t5"
zDbase = 0x0
zMsg = 0x4eb959 "no such table"
p = 0x0
db = 0x50e8c8
114433	  return p;
#0  sqlite3LocateTable (pParse=0x7fffffffd998, flags=0, zName=0x51c868 "t5", zDbase=0x0) at sqlite3.c:114433
114433	  return p;
pParse = 0x7fffffffd998
flags = 0
zName = 0x51c868 "t5"
zDbase = 0x0
p = 0x0
db = 0x50e8c8
114434	}
#0  sqlite3LocateTable (pParse=0x7fffffffd998, flags=0, zName=0x51c868 "t5", zDbase=0x0) at sqlite3.c:114434
114434	}
pParse = 0x7fffffffd998
flags = 0
zName = 0x51c868 "t5"
zDbase = 0x0
p = 0x0
db = 0x50e8c8
sqlite3DropTable (pParse=0x7fffffffd998, pName=0x51c8e8, isView=0, noErr=1) at sqlite3.c:117411
117411	  if( noErr ) db->suppressErr--;
#0  sqlite3DropTable (pParse=0x7fffffffd998, pName=0x51c8e8, isView=0, noErr=1) at sqlite3.c:117411
117411	  if( noErr ) db->suppressErr--;
pParse = 0x7fffffffd998
pName = 0x51c8e8
isView = 0
noErr = 1
pTab = 0x0
v = 0x0
db = 0x50e8c8
iDb = 0
117413	  if( pTab==0 ){
#0  sqlite3DropTable (pParse=0x7fffffffd998, pName=0x51c8e8, isView=0, noErr=1) at sqlite3.c:117413
117413	  if( pTab==0 ){
pParse = 0x7fffffffd998
pName = 0x51c8e8
isView = 0
noErr = 1
pTab = 0x0
v = 0x0
db = 0x50e8c8
iDb = 0
117414	    if( noErr ){
#0  sqlite3DropTable (pParse=0x7fffffffd998, pName=0x51c8e8, isView=0, noErr=1) at sqlite3.c:117414
117414	    if( noErr ){
pParse = 0x7fffffffd998
pName = 0x51c8e8
isView = 0
noErr = 1
pTab = 0x0
v = 0x0
db = 0x50e8c8
iDb = 0
117415	      sqlite3CodeVerifyNamedSchema(pParse, pName->a[0].zDatabase);
#0  sqlite3DropTable (pParse=0x7fffffffd998, pName=0x51c8e8, isView=0, noErr=1) at sqlite3.c:117415
117415	      sqlite3CodeVerifyNamedSchema(pParse, pName->a[0].zDatabase);
pParse = 0x7fffffffd998
pName = 0x51c8e8
isView = 0
noErr = 1
pTab = 0x0
v = 0x0
db = 0x50e8c8
iDb = 0
117416	      sqlite3ForceNotReadOnly(pParse);
#0  sqlite3DropTable (pParse=0x7fffffffd998, pName=0x51c8e8, isView=0, noErr=1) at sqlite3.c:117416
117416	      sqlite3ForceNotReadOnly(pParse);
pParse = 0x7fffffffd998
pName = 0x51c8e8
isView = 0
noErr = 1
pTab = 0x0
v = 0x0
db = 0x50e8c8
iDb = 0
117418	    goto exit_drop_table;
#0  sqlite3DropTable (pParse=0x7fffffffd998, pName=0x51c8e8, isView=0, noErr=1) at sqlite3.c:117418
117418	    goto exit_drop_table;
pParse = 0x7fffffffd998
pName = 0x51c8e8
isView = 0
noErr = 1
pTab = 0x0
v = 0x0
db = 0x50e8c8
iDb = 0
117497	  sqlite3SrcListDelete(db, pName);
#0  sqlite3DropTable (pParse=0x7fffffffd998, pName=0x51c8e8, isView=0, noErr=1) at sqlite3.c:117497
117497	  sqlite3SrcListDelete(db, pName);
pParse = 0x7fffffffd998
pName = 0x51c8e8
isView = 0
noErr = 1
pTab = 0x0
v = 0x0
db = 0x50e8c8
iDb = 0
117498	}
#0  sqlite3DropTable (pParse=0x7fffffffd998, pName=0x51c8e8, isView=0, noErr=1) at sqlite3.c:117498
117498	}
pParse = 0x7fffffffd998
pName = 0x51c8e8
isView = 0
noErr = 1
pTab = 0x0
v = 0x0
db = 0x50e8c8
iDb = 0
yy_reduce (yypParser=0x7fffffffcf80, yyruleno=79, yyLookahead=1, yyLookaheadToken=..., pParse=0x7fffffffd998) at sqlite3.c:165261
165261	        break;
#0  yy_reduce (yypParser=0x7fffffffcf80, yyruleno=79, yyLookahead=1, yyLookaheadToken=..., pParse=0x7fffffffd998) at sqlite3.c:165261
165261	        break;
yypParser = 0x7fffffffcf80
yyruleno = 79
yyLookahead = 1
yyLookaheadToken = {z = 0x51ca08 ";\nDROP TABLE IF EXISTS t6;\nDROP TABLE IF EXISTS t4n;\nDROP TABLE IF EXIXTS t5n;\nDROP TABLE IF EXISTS t6n;\nDROP TABLE IF EXISTS t7;\nDROP TABLE IF EXISTS t8;\nDROP TABLE IF EXISTS t7n;\nDROP TABLE IF EXIXT"..., n = 1}
pParse = 0x7fffffffd998
yygoto = 238
yyact = 1315
yymsp = 0x7fffffffcff0
yysize = -1
166460	  yygoto = yyRuleInfoLhs[yyruleno];
#0  yy_reduce (yypParser=0x7fffffffcf80, yyruleno=79, yyLookahead=1, yyLookaheadToken=..., pParse=0x7fffffffd998) at sqlite3.c:166460
166460	  yygoto = yyRuleInfoLhs[yyruleno];
yypParser = 0x7fffffffcf80
yyruleno = 79
yyLookahead = 1
yyLookaheadToken = {z = 0x51ca08 ";\nDROP TABLE IF EXISTS t6;\nDROP TABLE IF EXISTS t4n;\nDROP TABLE IF EXIXTS t5n;\nDROP TABLE IF EXISTS t6n;\nDROP TABLE IF EXISTS t7;\nDROP TABLE IF EXISTS t8;\nDROP TABLE IF EXISTS t7n;\nDROP TABLE IF EXIXT"..., n = 1}
pParse = 0x7fffffffd998
yygoto = 238
yyact = 1315
yymsp = 0x7fffffffcff0
yysize = -1
166461	  yysize = yyRuleInfoNRhs[yyruleno];
#0  yy_reduce (yypParser=0x7fffffffcf80, yyruleno=79, yyLookahead=1, yyLookaheadToken=..., pParse=0x7fffffffd998) at sqlite3.c:166461
166461	  yysize = yyRuleInfoNRhs[yyruleno];
yypParser = 0x7fffffffcf80
yyruleno = 79
yyLookahead = 1
yyLookaheadToken = {z = 0x51ca08 ";\nDROP TABLE IF EXISTS t6;\nDROP TABLE IF EXISTS t4n;\nDROP TABLE IF EXIXTS t5n;\nDROP TABLE IF EXISTS t6n;\nDROP TABLE IF EXISTS t7;\nDROP TABLE IF EXISTS t8;\nDROP TABLE IF EXISTS t7n;\nDROP TABLE IF EXIXT"..., n = 1}
pParse = 0x7fffffffd998
yygoto = 190
yyact = 1315
yymsp = 0x7fffffffcff0
yysize = -1
166462	  yyact = yy_find_reduce_action(yymsp[yysize].stateno,(YYCODETYPE)yygoto);
#0  yy_reduce (yypParser=0x7fffffffcf80, yyruleno=79, yyLookahead=1, yyLookaheadToken=..., pParse=0x7fffffffd998) at sqlite3.c:166462
166462	  yyact = yy_find_reduce_action(yymsp[yysize].stateno,(YYCODETYPE)yygoto);
yypParser = 0x7fffffffcf80
yyruleno = 79
yyLookahead = 1
yyLookaheadToken = {z = 0x51ca08 ";\nDROP TABLE IF EXISTS t6;\nDROP TABLE IF EXISTS t4n;\nDROP TABLE IF EXIXTS t5n;\nDROP TABLE IF EXISTS t6n;\nDROP TABLE IF EXISTS t7;\nDROP TABLE IF EXISTS t8;\nDROP TABLE IF EXISTS t7n;\nDROP TABLE IF EXIXT"..., n = 1}
pParse = 0x7fffffffd998
yygoto = 190
yyact = 1315
yymsp = 0x7fffffffcff0
yysize = -4
166471	  yymsp += yysize+1;
#0  yy_reduce (yypParser=0x7fffffffcf80, yyruleno=79, yyLookahead=1, yyLookaheadToken=..., pParse=0x7fffffffd998) at sqlite3.c:166471
166471	  yymsp += yysize+1;
yypParser = 0x7fffffffcf80
yyruleno = 79
yyLookahead = 1
yyLookaheadToken = {z = 0x51ca08 ";\nDROP TABLE IF EXISTS t6;\nDROP TABLE IF EXISTS t4n;\nDROP TABLE IF EXIXTS t5n;\nDROP TABLE IF EXISTS t6n;\nDROP TABLE IF EXISTS t7;\nDROP TABLE IF EXISTS t8;\nDROP TABLE IF EXISTS t7n;\nDROP TABLE IF EXIXT"..., n = 1}
pParse = 0x7fffffffd998
yygoto = 190
yyact = 1238
yymsp = 0x7fffffffcff0
yysize = -4
166472	  yypParser->yytos = yymsp;
#0  yy_reduce (yypParser=0x7fffffffcf80, yyruleno=79, yyLookahead=1, yyLookaheadToken=..., pParse=0x7fffffffd998) at sqlite3.c:166472
166472	  yypParser->yytos = yymsp;
yypParser = 0x7fffffffcf80
yyruleno = 79
yyLookahead = 1
yyLookaheadToken = {z = 0x51ca08 ";\nDROP TABLE IF EXISTS t6;\nDROP TABLE IF EXISTS t4n;\nDROP TABLE IF EXIXTS t5n;\nDROP TABLE IF EXISTS t6n;\nDROP TABLE IF EXISTS t7;\nDROP TABLE IF EXISTS t8;\nDROP TABLE IF EXISTS t7n;\nDROP TABLE IF EXIXT"..., n = 1}
pParse = 0x7fffffffd998
yygoto = 190
yyact = 1238
yymsp = 0x7fffffffcfa8
yysize = -4
166473	  yymsp->stateno = (YYACTIONTYPE)yyact;
#0  yy_reduce (yypParser=0x7fffffffcf80, yyruleno=79, yyLookahead=1, yyLookaheadToken=..., pParse=0x7fffffffd998) at sqlite3.c:166473
166473	  yymsp->stateno = (YYACTIONTYPE)yyact;
yypParser = 0x7fffffffcf80
yyruleno = 79
yyLookahead = 1
yyLookaheadToken = {z = 0x51ca08 ";\nDROP TABLE IF EXISTS t6;\nDROP TABLE IF EXISTS t4n;\nDROP TABLE IF EXIXTS t5n;\nDROP TABLE IF EXISTS t6n;\nDROP TABLE IF EXISTS t7;\nDROP TABLE IF EXISTS t8;\nDROP TABLE IF EXISTS t7n;\nDROP TABLE IF EXIXT"..., n = 1}
pParse = 0x7fffffffd998
yygoto = 190
yyact = 1238
yymsp = 0x7fffffffcfa8
yysize = -4
166474	  yymsp->major = (YYCODETYPE)yygoto;
#0  yy_reduce (yypParser=0x7fffffffcf80, yyruleno=79, yyLookahead=1, yyLookaheadToken=..., pParse=0x7fffffffd998) at sqlite3.c:166474
166474	  yymsp->major = (YYCODETYPE)yygoto;
yypParser = 0x7fffffffcf80
yyruleno = 79
yyLookahead = 1
yyLookaheadToken = {z = 0x51ca08 ";\nDROP TABLE IF EXISTS t6;\nDROP TABLE IF EXISTS t4n;\nDROP TABLE IF EXIXTS t5n;\nDROP TABLE IF EXISTS t6n;\nDROP TABLE IF EXISTS t7;\nDROP TABLE IF EXISTS t8;\nDROP TABLE IF EXISTS t7n;\nDROP TABLE IF EXIXT"..., n = 1}
pParse = 0x7fffffffd998
yygoto = 190
yyact = 1238
yymsp = 0x7fffffffcfa8
yysize = -4
166476	  return yyact;
#0  yy_reduce (yypParser=0x7fffffffcf80, yyruleno=79, yyLookahead=1, yyLookaheadToken=..., pParse=0x7fffffffd998) at sqlite3.c:166476
166476	  return yyact;
yypParser = 0x7fffffffcf80
yyruleno = 79
yyLookahead = 1
yyLookaheadToken = {z = 0x51ca08 ";\nDROP TABLE IF EXISTS t6;\nDROP TABLE IF EXISTS t4n;\nDROP TABLE IF EXIXTS t5n;\nDROP TABLE IF EXISTS t6n;\nDROP TABLE IF EXISTS t7;\nDROP TABLE IF EXISTS t8;\nDROP TABLE IF EXISTS t7n;\nDROP TABLE IF EXIXT"..., n = 1}
pParse = 0x7fffffffd998
yygoto = 190
yyact = 1238
yymsp = 0x7fffffffcfa8
yysize = -4
sqlite3Parser (yyp=0x7fffffffcf80, yymajor=1, yyminor=...) at sqlite3.c:166657
166657	    }else if( yyact <= YY_MAX_SHIFTREDUCE ){
#0  sqlite3Parser (yyp=0x7fffffffcf80, yymajor=1, yyminor=...) at sqlite3.c:166657
166657	    }else if( yyact <= YY_MAX_SHIFTREDUCE ){
yyp = 0x7fffffffcf80
yymajor = 1
yyminor = {z = 0x51ca08 ";\nDROP TABLE IF EXISTS t6;\nDROP TABLE IF EXISTS t4n;\nDROP TABLE IF EXIXTS t5n;\nDROP TABLE IF EXISTS t6n;\nDROP TABLE IF EXISTS t7;\nDROP TABLE IF EXISTS t8;\nDROP TABLE IF EXISTS t7n;\nDROP TABLE IF EXIXT"..., n = 1}
yyruleno = 79
yyminorunion = {yyinit = 19, yy0 = {z = 0x13 <error: Cannot access memory at address 0x13>, n = 4494528}, yy33 = 0x13, yy41 = 0x13, yy47 = 0x13, yy131 = 0x13, yy180 = {a = 19, b = 0x4494c0 <sqlite3VdbeExec+42768>}, yy231 = {value = 19, mask = 0}, yy254 = 0x13, yy285 = 19, yy322 = 0x13, yy385 = 0x13, yy394 = 19, yy444 = 0x13, yy516 = 19 '\023', yy521 = 0x13, yy522 = 0x13 <error: Cannot access memory at address 0x13>, yy528 = 0x13, yy595 = {eType = 19, pExpr = 0x4494c0 <sqlite3VdbeExec+42768>}}
yyact = 1238
yypParser = 0x7fffffffcf80
pParse = 0x7fffffffd998
166607	  while(1){ /* Exit by "break" */
#0  sqlite3Parser (yyp=0x7fffffffcf80, yymajor=1, yyminor=...) at sqlite3.c:166607
166607	  while(1){ /* Exit by "break" */
yyp = 0x7fffffffcf80
yymajor = 1
yyminor = {z = 0x51ca08 ";\nDROP TABLE IF EXISTS t6;\nDROP TABLE IF EXISTS t4n;\nDROP TABLE IF EXIXTS t5n;\nDROP TABLE IF EXISTS t6n;\nDROP TABLE IF EXISTS t7;\nDROP TABLE IF EXISTS t8;\nDROP TABLE IF EXISTS t7n;\nDROP TABLE IF EXIXT"..., n = 1}
yyminorunion = {yyinit = 19, yy0 = {z = 0x13 <error: Cannot access memory at address 0x13>, n = 4494528}, yy33 = 0x13, yy41 = 0x13, yy47 = 0x13, yy131 = 0x13, yy180 = {a = 19, b = 0x4494c0 <sqlite3VdbeExec+42768>}, yy231 = {value = 19, mask = 0}, yy254 = 0x13, yy285 = 19, yy322 = 0x13, yy385 = 0x13, yy394 = 19, yy444 = 0x13, yy516 = 19 '\023', yy521 = 0x13, yy522 = 0x13 <error: Cannot access memory at address 0x13>, yy528 = 0x13, yy595 = {eType = 19, pExpr = 0x4494c0 <sqlite3VdbeExec+42768>}}
yyact = 1238
yypParser = 0x7fffffffcf80
pParse = 0x7fffffffd998
166610	    yyact = yy_find_shift_action((YYCODETYPE)yymajor,yyact);
#0  sqlite3Parser (yyp=0x7fffffffcf80, yymajor=1, yyminor=...) at sqlite3.c:166610
166610	    yyact = yy_find_shift_action((YYCODETYPE)yymajor,yyact);
yyp = 0x7fffffffcf80
yymajor = 1
yyminor = {z = 0x51ca08 ";\nDROP TABLE IF EXISTS t6;\nDROP TABLE IF EXISTS t4n;\nDROP TABLE IF EXIXTS t5n;\nDROP TABLE IF EXISTS t6n;\nDROP TABLE IF EXISTS t7;\nDROP TABLE IF EXISTS t8;\nDROP TABLE IF EXISTS t7n;\nDROP TABLE IF EXIXT"..., n = 1}
yyminorunion = {yyinit = 19, yy0 = {z = 0x13 <error: Cannot access memory at address 0x13>, n = 4494528}, yy33 = 0x13, yy41 = 0x13, yy47 = 0x13, yy131 = 0x13, yy180 = {a = 19, b = 0x4494c0 <sqlite3VdbeExec+42768>}, yy231 = {value = 19, mask = 0}, yy254 = 0x13, yy285 = 19, yy322 = 0x13, yy385 = 0x13, yy394 = 19, yy444 = 0x13, yy516 = 19 '\023', yy521 = 0x13, yy522 = 0x13 <error: Cannot access memory at address 0x13>, yy528 = 0x13, yy595 = {eType = 19, pExpr = 0x4494c0 <sqlite3VdbeExec+42768>}}
yyact = 1238
yypParser = 0x7fffffffcf80
pParse = 0x7fffffffd998
166611	    if( yyact >= YY_MIN_REDUCE ){
#0  sqlite3Parser (yyp=0x7fffffffcf80, yymajor=1, yyminor=...) at sqlite3.c:166611
166611	    if( yyact >= YY_MIN_REDUCE ){
yyp = 0x7fffffffcf80
yymajor = 1
yyminor = {z = 0x51ca08 ";\nDROP TABLE IF EXISTS t6;\nDROP TABLE IF EXISTS t4n;\nDROP TABLE IF EXIXTS t5n;\nDROP TABLE IF EXISTS t6n;\nDROP TABLE IF EXISTS t7;\nDROP TABLE IF EXISTS t8;\nDROP TABLE IF EXISTS t7n;\nDROP TABLE IF EXIXT"..., n = 1}
yyminorunion = {yyinit = 19, yy0 = {z = 0x13 <error: Cannot access memory at address 0x13>, n = 4494528}, yy33 = 0x13, yy41 = 0x13, yy47 = 0x13, yy131 = 0x13, yy180 = {a = 19, b = 0x4494c0 <sqlite3VdbeExec+42768>}, yy231 = {value = 19, mask = 0}, yy254 = 0x13, yy285 = 19, yy322 = 0x13, yy385 = 0x13, yy394 = 19, yy444 = 0x13, yy516 = 19 '\023', yy521 = 0x13, yy522 = 0x13 <error: Cannot access memory at address 0x13>, yy528 = 0x13, yy595 = {eType = 19, pExpr = 0x4494c0 <sqlite3VdbeExec+42768>}}
yyact = 1238
yypParser = 0x7fffffffcf80
pParse = 0x7fffffffd998
166612	      unsigned int yyruleno = yyact - YY_MIN_REDUCE; /* Reduce by this rule */
#0  sqlite3Parser (yyp=0x7fffffffcf80, yymajor=1, yyminor=...) at sqlite3.c:166612
166612	      unsigned int yyruleno = yyact - YY_MIN_REDUCE; /* Reduce by this rule */
yyp = 0x7fffffffcf80
yymajor = 1
yyminor = {z = 0x51ca08 ";\nDROP TABLE IF EXISTS t6;\nDROP TABLE IF EXISTS t4n;\nDROP TABLE IF EXIXTS t5n;\nDROP TABLE IF EXISTS t6n;\nDROP TABLE IF EXISTS t7;\nDROP TABLE IF EXISTS t8;\nDROP TABLE IF EXISTS t7n;\nDROP TABLE IF EXIXT"..., n = 1}
yyruleno = 79
yyminorunion = {yyinit = 19, yy0 = {z = 0x13 <error: Cannot access memory at address 0x13>, n = 4494528}, yy33 = 0x13, yy41 = 0x13, yy47 = 0x13, yy131 = 0x13, yy180 = {a = 19, b = 0x4494c0 <sqlite3VdbeExec+42768>}, yy231 = {value = 19, mask = 0}, yy254 = 0x13, yy285 = 19, yy322 = 0x13, yy385 = 0x13, yy394 = 19, yy444 = 0x13, yy516 = 19 '\023', yy521 = 0x13, yy522 = 0x13 <error: Cannot access memory at address 0x13>, yy528 = 0x13, yy595 = {eType = 19, pExpr = 0x4494c0 <sqlite3VdbeExec+42768>}}
yyact = 1238
yypParser = 0x7fffffffcf80
pParse = 0x7fffffffd998
166634	      if( yyRuleInfoNRhs[yyruleno]==0 ){
#0  sqlite3Parser (yyp=0x7fffffffcf80, yymajor=1, yyminor=...) at sqlite3.c:166634
166634	      if( yyRuleInfoNRhs[yyruleno]==0 ){
yyp = 0x7fffffffcf80
yymajor = 1
yyminor = {z = 0x51ca08 ";\nDROP TABLE IF EXISTS t6;\nDROP TABLE IF EXISTS t4n;\nDROP TABLE IF EXIXTS t5n;\nDROP TABLE IF EXISTS t6n;\nDROP TABLE IF EXISTS t7;\nDROP TABLE IF EXISTS t8;\nDROP TABLE IF EXISTS t7n;\nDROP TABLE IF EXIXT"..., n = 1}
yyruleno = 2
yyminorunion = {yyinit = 19, yy0 = {z = 0x13 <error: Cannot access memory at address 0x13>, n = 4494528}, yy33 = 0x13, yy41 = 0x13, yy47 = 0x13, yy131 = 0x13, yy180 = {a = 19, b = 0x4494c0 <sqlite3VdbeExec+42768>}, yy231 = {value = 19, mask = 0}, yy254 = 0x13, yy285 = 19, yy322 = 0x13, yy385 = 0x13, yy394 = 19, yy444 = 0x13, yy516 = 19 '\023', yy521 = 0x13, yy522 = 0x13 <error: Cannot access memory at address 0x13>, yy528 = 0x13, yy595 = {eType = 19, pExpr = 0x4494c0 <sqlite3VdbeExec+42768>}}
yyact = 1238
yypParser = 0x7fffffffcf80
pParse = 0x7fffffffd998
166656	      yyact = yy_reduce(yypParser,yyruleno,yymajor,yyminor sqlite3ParserCTX_PARAM);
#0  sqlite3Parser (yyp=0x7fffffffcf80, yymajor=1, yyminor=...) at sqlite3.c:166656
166656	      yyact = yy_reduce(yypParser,yyruleno,yymajor,yyminor sqlite3ParserCTX_PARAM);
yyp = 0x7fffffffcf80
yymajor = 1
yyminor = {z = 0x51ca08 ";\nDROP TABLE IF EXISTS t6;\nDROP TABLE IF EXISTS t4n;\nDROP TABLE IF EXIXTS t5n;\nDROP TABLE IF EXISTS t6n;\nDROP TABLE IF EXISTS t7;\nDROP TABLE IF EXISTS t8;\nDROP TABLE IF EXISTS t7n;\nDROP TABLE IF EXIXT"..., n = 1}
yyruleno = 2
yyminorunion = {yyinit = 19, yy0 = {z = 0x13 <error: Cannot access memory at address 0x13>, n = 4494528}, yy33 = 0x13, yy41 = 0x13, yy47 = 0x13, yy131 = 0x13, yy180 = {a = 19, b = 0x4494c0 <sqlite3VdbeExec+42768>}, yy231 = {value = 19, mask = 0}, yy254 = 0x13, yy285 = 19, yy322 = 0x13, yy385 = 0x13, yy394 = 19, yy444 = 0x13, yy516 = 19 '\023', yy521 = 0x13, yy522 = 0x13 <error: Cannot access memory at address 0x13>, yy528 = 0x13, yy595 = {eType = 19, pExpr = 0x4494c0 <sqlite3VdbeExec+42768>}}
yyact = 1238
yypParser = 0x7fffffffcf80
pParse = 0x7fffffffd998
166657	    }else if( yyact <= YY_MAX_SHIFTREDUCE ){
#0  sqlite3Parser (yyp=0x7fffffffcf80, yymajor=1, yyminor=...) at sqlite3.c:166657
166657	    }else if( yyact <= YY_MAX_SHIFTREDUCE ){
yyp = 0x7fffffffcf80
yymajor = 1
yyminor = {z = 0x51ca08 ";\nDROP TABLE IF EXISTS t6;\nDROP TABLE IF EXISTS t4n;\nDROP TABLE IF EXIXTS t5n;\nDROP TABLE IF EXISTS t6n;\nDROP TABLE IF EXISTS t7;\nDROP TABLE IF EXISTS t8;\nDROP TABLE IF EXISTS t7n;\nDROP TABLE IF EXIXT"..., n = 1}
yyruleno = 2
yyminorunion = {yyinit = 19, yy0 = {z = 0x13 <error: Cannot access memory at address 0x13>, n = 4494528}, yy33 = 0x13, yy41 = 0x13, yy47 = 0x13, yy131 = 0x13, yy180 = {a = 19, b = 0x4494c0 <sqlite3VdbeExec+42768>}, yy231 = {value = 19, mask = 0}, yy254 = 0x13, yy285 = 19, yy322 = 0x13, yy385 = 0x13, yy394 = 19, yy444 = 0x13, yy516 = 19 '\023', yy521 = 0x13, yy522 = 0x13 <error: Cannot access memory at address 0x13>, yy528 = 0x13, yy595 = {eType = 19, pExpr = 0x4494c0 <sqlite3VdbeExec+42768>}}
yyact = 573
yypParser = 0x7fffffffcf80
pParse = 0x7fffffffd998
166607	  while(1){ /* Exit by "break" */
#0  sqlite3Parser (yyp=0x7fffffffcf80, yymajor=1, yyminor=...) at sqlite3.c:166607
166607	  while(1){ /* Exit by "break" */
yyp = 0x7fffffffcf80
yymajor = 1
yyminor = {z = 0x51ca08 ";\nDROP TABLE IF EXISTS t6;\nDROP TABLE IF EXISTS t4n;\nDROP TABLE IF EXIXTS t5n;\nDROP TABLE IF EXISTS t6n;\nDROP TABLE IF EXISTS t7;\nDROP TABLE IF EXISTS t8;\nDROP TABLE IF EXISTS t7n;\nDROP TABLE IF EXIXT"..., n = 1}
yyminorunion = {yyinit = 19, yy0 = {z = 0x13 <error: Cannot access memory at address 0x13>, n = 4494528}, yy33 = 0x13, yy41 = 0x13, yy47 = 0x13, yy131 = 0x13, yy180 = {a = 19, b = 0x4494c0 <sqlite3VdbeExec+42768>}, yy231 = {value = 19, mask = 0}, yy254 = 0x13, yy285 = 19, yy322 = 0x13, yy385 = 0x13, yy394 = 19, yy444 = 0x13, yy516 = 19 '\023', yy521 = 0x13, yy522 = 0x13 <error: Cannot access memory at address 0x13>, yy528 = 0x13, yy595 = {eType = 19, pExpr = 0x4494c0 <sqlite3VdbeExec+42768>}}
yyact = 573
yypParser = 0x7fffffffcf80
pParse = 0x7fffffffd998
166610	    yyact = yy_find_shift_action((YYCODETYPE)yymajor,yyact);
#0  sqlite3Parser (yyp=0x7fffffffcf80, yymajor=1, yyminor=...) at sqlite3.c:166610
166610	    yyact = yy_find_shift_action((YYCODETYPE)yymajor,yyact);
yyp = 0x7fffffffcf80
yymajor = 1
yyminor = {z = 0x51ca08 ";\nDROP TABLE IF EXISTS t6;\nDROP TABLE IF EXISTS t4n;\nDROP TABLE IF EXIXTS t5n;\nDROP TABLE IF EXISTS t6n;\nDROP TABLE IF EXISTS t7;\nDROP TABLE IF EXISTS t8;\nDROP TABLE IF EXISTS t7n;\nDROP TABLE IF EXIXT"..., n = 1}
yyminorunion = {yyinit = 19, yy0 = {z = 0x13 <error: Cannot access memory at address 0x13>, n = 4494528}, yy33 = 0x13, yy41 = 0x13, yy47 = 0x13, yy131 = 0x13, yy180 = {a = 19, b = 0x4494c0 <sqlite3VdbeExec+42768>}, yy231 = {value = 19, mask = 0}, yy254 = 0x13, yy285 = 19, yy322 = 0x13, yy385 = 0x13, yy394 = 19, yy444 = 0x13, yy516 = 19 '\023', yy521 = 0x13, yy522 = 0x13 <error: Cannot access memory at address 0x13>, yy528 = 0x13, yy595 = {eType = 19, pExpr = 0x4494c0 <sqlite3VdbeExec+42768>}}
yyact = 573
yypParser = 0x7fffffffcf80
pParse = 0x7fffffffd998
166611	    if( yyact >= YY_MIN_REDUCE ){
#0  sqlite3Parser (yyp=0x7fffffffcf80, yymajor=1, yyminor=...) at sqlite3.c:166611
166611	    if( yyact >= YY_MIN_REDUCE ){
yyp = 0x7fffffffcf80
yymajor = 1
yyminor = {z = 0x51ca08 ";\nDROP TABLE IF EXISTS t6;\nDROP TABLE IF EXISTS t4n;\nDROP TABLE IF EXIXTS t5n;\nDROP TABLE IF EXISTS t6n;\nDROP TABLE IF EXISTS t7;\nDROP TABLE IF EXISTS t8;\nDROP TABLE IF EXISTS t7n;\nDROP TABLE IF EXIXT"..., n = 1}
yyminorunion = {yyinit = 19, yy0 = {z = 0x13 <error: Cannot access memory at address 0x13>, n = 4494528}, yy33 = 0x13, yy41 = 0x13, yy47 = 0x13, yy131 = 0x13, yy180 = {a = 19, b = 0x4494c0 <sqlite3VdbeExec+42768>}, yy231 = {value = 19, mask = 0}, yy254 = 0x13, yy285 = 19, yy322 = 0x13, yy385 = 0x13, yy394 = 19, yy444 = 0x13, yy516 = 19 '\023', yy521 = 0x13, yy522 = 0x13 <error: Cannot access memory at address 0x13>, yy528 = 0x13, yy595 = {eType = 19, pExpr = 0x4494c0 <sqlite3VdbeExec+42768>}}
yyact = 1175
yypParser = 0x7fffffffcf80
pParse = 0x7fffffffd998
166658	      yy_shift(yypParser,yyact,(YYCODETYPE)yymajor,yyminor);
#0  sqlite3Parser (yyp=0x7fffffffcf80, yymajor=1, yyminor=...) at sqlite3.c:166658
166658	      yy_shift(yypParser,yyact,(YYCODETYPE)yymajor,yyminor);
yyp = 0x7fffffffcf80
yymajor = 1
yyminor = {z = 0x51ca08 ";\nDROP TABLE IF EXISTS t6;\nDROP TABLE IF EXISTS t4n;\nDROP TABLE IF EXIXTS t5n;\nDROP TABLE IF EXISTS t6n;\nDROP TABLE IF EXISTS t7;\nDROP TABLE IF EXISTS t8;\nDROP TABLE IF EXISTS t7n;\nDROP TABLE IF EXIXT"..., n = 1}
yyminorunion = {yyinit = 19, yy0 = {z = 0x13 <error: Cannot access memory at address 0x13>, n = 4494528}, yy33 = 0x13, yy41 = 0x13, yy47 = 0x13, yy131 = 0x13, yy180 = {a = 19, b = 0x4494c0 <sqlite3VdbeExec+42768>}, yy231 = {value = 19, mask = 0}, yy254 = 0x13, yy285 = 19, yy322 = 0x13, yy385 = 0x13, yy394 = 19, yy444 = 0x13, yy516 = 19 '\023', yy521 = 0x13, yy522 = 0x13 <error: Cannot access memory at address 0x13>, yy528 = 0x13, yy595 = {eType = 19, pExpr = 0x4494c0 <sqlite3VdbeExec+42768>}}
yyact = 1175
yypParser = 0x7fffffffcf80
pParse = 0x7fffffffd998

Breakpoint 1, sqlite3LocateTable (pParse=0x7fffffffd998, flags=0, zName=0x51c868 "t6", zDbase=0x0) at sqlite3.c:114424
114424	    if( zDbase ){
#0  sqlite3LocateTable (pParse=0x7fffffffd998, flags=0, zName=0x51c868 "t6", zDbase=0x0) at sqlite3.c:114424
114424	    if( zDbase ){
pParse = 0x7fffffffd998
flags = 0
zName = 0x51c868 "t6"
zDbase = 0x0
zMsg = 0x4eb959 "no such table"
p = 0x0
db = 0x50e8c8
114427	      sqlite3ErrorMsg(pParse, "%s: %s", zMsg, zName);
#0  sqlite3LocateTable (pParse=0x7fffffffd998, flags=0, zName=0x51c868 "t6", zDbase=0x0) at sqlite3.c:114427
114427	      sqlite3ErrorMsg(pParse, "%s: %s", zMsg, zName);
pParse = 0x7fffffffd998
flags = 0
zName = 0x51c868 "t6"
zDbase = 0x0
zMsg = 0x4eb959 "no such table"
p = 0x0
db = 0x50e8c8
114429	  }else{
#0  sqlite3LocateTable (pParse=0x7fffffffd998, flags=0, zName=0x51c868 "t6", zDbase=0x0) at sqlite3.c:114429
114429	  }else{
pParse = 0x7fffffffd998
flags = 0
zName = 0x51c868 "t6"
zDbase = 0x0
zMsg = 0x4eb959 "no such table"
p = 0x0
db = 0x50e8c8
114433	  return p;
#0  sqlite3LocateTable (pParse=0x7fffffffd998, flags=0, zName=0x51c868 "t6", zDbase=0x0) at sqlite3.c:114433
114433	  return p;
pParse = 0x7fffffffd998
flags = 0
zName = 0x51c868 "t6"
zDbase = 0x0
p = 0x0
db = 0x50e8c8
114434	}
#0  sqlite3LocateTable (pParse=0x7fffffffd998, flags=0, zName=0x51c868 "t6", zDbase=0x0) at sqlite3.c:114434
114434	}
pParse = 0x7fffffffd998
flags = 0
zName = 0x51c868 "t6"
zDbase = 0x0
p = 0x0
db = 0x50e8c8
sqlite3DropTable (pParse=0x7fffffffd998, pName=0x51c8e8, isView=0, noErr=1) at sqlite3.c:117411
117411	  if( noErr ) db->suppressErr--;
#0  sqlite3DropTable (pParse=0x7fffffffd998, pName=0x51c8e8, isView=0, noErr=1) at sqlite3.c:117411
117411	  if( noErr ) db->suppressErr--;
pParse = 0x7fffffffd998
pName = 0x51c8e8
isView = 0
noErr = 1
pTab = 0x0
v = 0x0
db = 0x50e8c8
iDb = 0
117413	  if( pTab==0 ){
#0  sqlite3DropTable (pParse=0x7fffffffd998, pName=0x51c8e8, isView=0, noErr=1) at sqlite3.c:117413
117413	  if( pTab==0 ){
pParse = 0x7fffffffd998
pName = 0x51c8e8
isView = 0
noErr = 1
pTab = 0x0
v = 0x0
db = 0x50e8c8
iDb = 0
117414	    if( noErr ){
#0  sqlite3DropTable (pParse=0x7fffffffd998, pName=0x51c8e8, isView=0, noErr=1) at sqlite3.c:117414
117414	    if( noErr ){
pParse = 0x7fffffffd998
pName = 0x51c8e8
isView = 0
noErr = 1
pTab = 0x0
v = 0x0
db = 0x50e8c8
iDb = 0
117415	      sqlite3CodeVerifyNamedSchema(pParse, pName->a[0].zDatabase);
#0  sqlite3DropTable (pParse=0x7fffffffd998, pName=0x51c8e8, isView=0, noErr=1) at sqlite3.c:117415
117415	      sqlite3CodeVerifyNamedSchema(pParse, pName->a[0].zDatabase);
pParse = 0x7fffffffd998
pName = 0x51c8e8
isView = 0
noErr = 1
pTab = 0x0
v = 0x0
db = 0x50e8c8
iDb = 0
117416	      sqlite3ForceNotReadOnly(pParse);
#0  sqlite3DropTable (pParse=0x7fffffffd998, pName=0x51c8e8, isView=0, noErr=1) at sqlite3.c:117416
117416	      sqlite3ForceNotReadOnly(pParse);
pParse = 0x7fffffffd998
pName = 0x51c8e8
isView = 0
noErr = 1
pTab = 0x0
v = 0x0
db = 0x50e8c8
iDb = 0
117418	    goto exit_drop_table;
#0  sqlite3DropTable (pParse=0x7fffffffd998, pName=0x51c8e8, isView=0, noErr=1) at sqlite3.c:117418
117418	    goto exit_drop_table;
pParse = 0x7fffffffd998
pName = 0x51c8e8
isView = 0
noErr = 1
pTab = 0x0
v = 0x0
db = 0x50e8c8
iDb = 0
117497	  sqlite3SrcListDelete(db, pName);
#0  sqlite3DropTable (pParse=0x7fffffffd998, pName=0x51c8e8, isView=0, noErr=1) at sqlite3.c:117497
117497	  sqlite3SrcListDelete(db, pName);
pParse = 0x7fffffffd998
pName = 0x51c8e8
isView = 0
noErr = 1
pTab = 0x0
v = 0x0
db = 0x50e8c8
iDb = 0
117498	}
#0  sqlite3DropTable (pParse=0x7fffffffd998, pName=0x51c8e8, isView=0, noErr=1) at sqlite3.c:117498
117498	}
pParse = 0x7fffffffd998
pName = 0x51c8e8
isView = 0
noErr = 1
pTab = 0x0
v = 0x0
db = 0x50e8c8
iDb = 0
yy_reduce (yypParser=0x7fffffffcf80, yyruleno=79, yyLookahead=1, yyLookaheadToken=..., pParse=0x7fffffffd998) at sqlite3.c:165261
165261	        break;
#0  yy_reduce (yypParser=0x7fffffffcf80, yyruleno=79, yyLookahead=1, yyLookaheadToken=..., pParse=0x7fffffffd998) at sqlite3.c:165261
165261	        break;
yypParser = 0x7fffffffcf80
yyruleno = 79
yyLookahead = 1
yyLookaheadToken = {z = 0x51ca21 ";\nDROP TABLE IF EXISTS t4n;\nDROP TABLE IF EXIXTS t5n;\nDROP TABLE IF EXISTS t6n;\nDROP TABLE IF EXISTS t7;\nDROP TABLE IF EXISTS t8;\nDROP TABLE IF EXISTS t7n;\nDROP TABLE IF EXIXTS t8n;\nCREATE TABLE t4(a "..., n = 1}
pParse = 0x7fffffffd998
yygoto = 238
yyact = 1315
yymsp = 0x7fffffffcff0
yysize = -1
166460	  yygoto = yyRuleInfoLhs[yyruleno];
#0  yy_reduce (yypParser=0x7fffffffcf80, yyruleno=79, yyLookahead=1, yyLookaheadToken=..., pParse=0x7fffffffd998) at sqlite3.c:166460
166460	  yygoto = yyRuleInfoLhs[yyruleno];
yypParser = 0x7fffffffcf80
yyruleno = 79
yyLookahead = 1
yyLookaheadToken = {z = 0x51ca21 ";\nDROP TABLE IF EXISTS t4n;\nDROP TABLE IF EXIXTS t5n;\nDROP TABLE IF EXISTS t6n;\nDROP TABLE IF EXISTS t7;\nDROP TABLE IF EXISTS t8;\nDROP TABLE IF EXISTS t7n;\nDROP TABLE IF EXIXTS t8n;\nCREATE TABLE t4(a "..., n = 1}
pParse = 0x7fffffffd998
yygoto = 238
yyact = 1315
yymsp = 0x7fffffffcff0
yysize = -1
166461	  yysize = yyRuleInfoNRhs[yyruleno];
#0  yy_reduce (yypParser=0x7fffffffcf80, yyruleno=79, yyLookahead=1, yyLookaheadToken=..., pParse=0x7fffffffd998) at sqlite3.c:166461
166461	  yysize = yyRuleInfoNRhs[yyruleno];
yypParser = 0x7fffffffcf80
yyruleno = 79
yyLookahead = 1
yyLookaheadToken = {z = 0x51ca21 ";\nDROP TABLE IF EXISTS t4n;\nDROP TABLE IF EXIXTS t5n;\nDROP TABLE IF EXISTS t6n;\nDROP TABLE IF EXISTS t7;\nDROP TABLE IF EXISTS t8;\nDROP TABLE IF EXISTS t7n;\nDROP TABLE IF EXIXTS t8n;\nCREATE TABLE t4(a "..., n = 1}
pParse = 0x7fffffffd998
yygoto = 190
yyact = 1315
yymsp = 0x7fffffffcff0
yysize = -1
166462	  yyact = yy_find_reduce_action(yymsp[yysize].stateno,(YYCODETYPE)yygoto);
#0  yy_reduce (yypParser=0x7fffffffcf80, yyruleno=79, yyLookahead=1, yyLookaheadToken=..., pParse=0x7fffffffd998) at sqlite3.c:166462
166462	  yyact = yy_find_reduce_action(yymsp[yysize].stateno,(YYCODETYPE)yygoto);
yypParser = 0x7fffffffcf80
yyruleno = 79
yyLookahead = 1
yyLookaheadToken = {z = 0x51ca21 ";\nDROP TABLE IF EXISTS t4n;\nDROP TABLE IF EXIXTS t5n;\nDROP TABLE IF EXISTS t6n;\nDROP TABLE IF EXISTS t7;\nDROP TABLE IF EXISTS t8;\nDROP TABLE IF EXISTS t7n;\nDROP TABLE IF EXIXTS t8n;\nCREATE TABLE t4(a "..., n = 1}
pParse = 0x7fffffffd998
yygoto = 190
yyact = 1315
yymsp = 0x7fffffffcff0
yysize = -4
166471	  yymsp += yysize+1;
#0  yy_reduce (yypParser=0x7fffffffcf80, yyruleno=79, yyLookahead=1, yyLookaheadToken=..., pParse=0x7fffffffd998) at sqlite3.c:166471
166471	  yymsp += yysize+1;
yypParser = 0x7fffffffcf80
yyruleno = 79
yyLookahead = 1
yyLookaheadToken = {z = 0x51ca21 ";\nDROP TABLE IF EXISTS t4n;\nDROP TABLE IF EXIXTS t5n;\nDROP TABLE IF EXISTS t6n;\nDROP TABLE IF EXISTS t7;\nDROP TABLE IF EXISTS t8;\nDROP TABLE IF EXISTS t7n;\nDROP TABLE IF EXIXTS t8n;\nCREATE TABLE t4(a "..., n = 1}
pParse = 0x7fffffffd998
yygoto = 190
yyact = 1238
yymsp = 0x7fffffffcff0
yysize = -4
166472	  yypParser->yytos = yymsp;
#0  yy_reduce (yypParser=0x7fffffffcf80, yyruleno=79, yyLookahead=1, yyLookaheadToken=..., pParse=0x7fffffffd998) at sqlite3.c:166472
166472	  yypParser->yytos = yymsp;
yypParser = 0x7fffffffcf80
yyruleno = 79
yyLookahead = 1
yyLookaheadToken = {z = 0x51ca21 ";\nDROP TABLE IF EXISTS t4n;\nDROP TABLE IF EXIXTS t5n;\nDROP TABLE IF EXISTS t6n;\nDROP TABLE IF EXISTS t7;\nDROP TABLE IF EXISTS t8;\nDROP TABLE IF EXISTS t7n;\nDROP TABLE IF EXIXTS t8n;\nCREATE TABLE t4(a "..., n = 1}
pParse = 0x7fffffffd998
yygoto = 190
yyact = 1238
yymsp = 0x7fffffffcfa8
yysize = -4
166473	  yymsp->stateno = (YYACTIONTYPE)yyact;
#0  yy_reduce (yypParser=0x7fffffffcf80, yyruleno=79, yyLookahead=1, yyLookaheadToken=..., pParse=0x7fffffffd998) at sqlite3.c:166473
166473	  yymsp->stateno = (YYACTIONTYPE)yyact;
yypParser = 0x7fffffffcf80
yyruleno = 79
yyLookahead = 1
yyLookaheadToken = {z = 0x51ca21 ";\nDROP TABLE IF EXISTS t4n;\nDROP TABLE IF EXIXTS t5n;\nDROP TABLE IF EXISTS t6n;\nDROP TABLE IF EXISTS t7;\nDROP TABLE IF EXISTS t8;\nDROP TABLE IF EXISTS t7n;\nDROP TABLE IF EXIXTS t8n;\nCREATE TABLE t4(a "..., n = 1}
pParse = 0x7fffffffd998
yygoto = 190
yyact = 1238
yymsp = 0x7fffffffcfa8
yysize = -4
166474	  yymsp->major = (YYCODETYPE)yygoto;
#0  yy_reduce (yypParser=0x7fffffffcf80, yyruleno=79, yyLookahead=1, yyLookaheadToken=..., pParse=0x7fffffffd998) at sqlite3.c:166474
166474	  yymsp->major = (YYCODETYPE)yygoto;
yypParser = 0x7fffffffcf80
yyruleno = 79
yyLookahead = 1
yyLookaheadToken = {z = 0x51ca21 ";\nDROP TABLE IF EXISTS t4n;\nDROP TABLE IF EXIXTS t5n;\nDROP TABLE IF EXISTS t6n;\nDROP TABLE IF EXISTS t7;\nDROP TABLE IF EXISTS t8;\nDROP TABLE IF EXISTS t7n;\nDROP TABLE IF EXIXTS t8n;\nCREATE TABLE t4(a "..., n = 1}
pParse = 0x7fffffffd998
yygoto = 190
yyact = 1238
yymsp = 0x7fffffffcfa8
yysize = -4
166476	  return yyact;
#0  yy_reduce (yypParser=0x7fffffffcf80, yyruleno=79, yyLookahead=1, yyLookaheadToken=..., pParse=0x7fffffffd998) at sqlite3.c:166476
166476	  return yyact;
yypParser = 0x7fffffffcf80
yyruleno = 79
yyLookahead = 1
yyLookaheadToken = {z = 0x51ca21 ";\nDROP TABLE IF EXISTS t4n;\nDROP TABLE IF EXIXTS t5n;\nDROP TABLE IF EXISTS t6n;\nDROP TABLE IF EXISTS t7;\nDROP TABLE IF EXISTS t8;\nDROP TABLE IF EXISTS t7n;\nDROP TABLE IF EXIXTS t8n;\nCREATE TABLE t4(a "..., n = 1}
pParse = 0x7fffffffd998
yygoto = 190
yyact = 1238
yymsp = 0x7fffffffcfa8
yysize = -4
sqlite3Parser (yyp=0x7fffffffcf80, yymajor=1, yyminor=...) at sqlite3.c:166657
166657	    }else if( yyact <= YY_MAX_SHIFTREDUCE ){
#0  sqlite3Parser (yyp=0x7fffffffcf80, yymajor=1, yyminor=...) at sqlite3.c:166657
166657	    }else if( yyact <= YY_MAX_SHIFTREDUCE ){
yyp = 0x7fffffffcf80
yymajor = 1
yyminor = {z = 0x51ca21 ";\nDROP TABLE IF EXISTS t4n;\nDROP TABLE IF EXIXTS t5n;\nDROP TABLE IF EXISTS t6n;\nDROP TABLE IF EXISTS t7;\nDROP TABLE IF EXISTS t8;\nDROP TABLE IF EXISTS t7n;\nDROP TABLE IF EXIXTS t8n;\nCREATE TABLE t4(a "..., n = 1}
yyruleno = 79
yyminorunion = {yyinit = 19, yy0 = {z = 0x13 <error: Cannot access memory at address 0x13>, n = 4494528}, yy33 = 0x13, yy41 = 0x13, yy47 = 0x13, yy131 = 0x13, yy180 = {a = 19, b = 0x4494c0 <sqlite3VdbeExec+42768>}, yy231 = {value = 19, mask = 0}, yy254 = 0x13, yy285 = 19, yy322 = 0x13, yy385 = 0x13, yy394 = 19, yy444 = 0x13, yy516 = 19 '\023', yy521 = 0x13, yy522 = 0x13 <error: Cannot access memory at address 0x13>, yy528 = 0x13, yy595 = {eType = 19, pExpr = 0x4494c0 <sqlite3VdbeExec+42768>}}
yyact = 1238
yypParser = 0x7fffffffcf80
pParse = 0x7fffffffd998
166607	  while(1){ /* Exit by "break" */
#0  sqlite3Parser (yyp=0x7fffffffcf80, yymajor=1, yyminor=...) at sqlite3.c:166607
166607	  while(1){ /* Exit by "break" */
yyp = 0x7fffffffcf80
yymajor = 1
yyminor = {z = 0x51ca21 ";\nDROP TABLE IF EXISTS t4n;\nDROP TABLE IF EXIXTS t5n;\nDROP TABLE IF EXISTS t6n;\nDROP TABLE IF EXISTS t7;\nDROP TABLE IF EXISTS t8;\nDROP TABLE IF EXISTS t7n;\nDROP TABLE IF EXIXTS t8n;\nCREATE TABLE t4(a "..., n = 1}
yyminorunion = {yyinit = 19, yy0 = {z = 0x13 <error: Cannot access memory at address 0x13>, n = 4494528}, yy33 = 0x13, yy41 = 0x13, yy47 = 0x13, yy131 = 0x13, yy180 = {a = 19, b = 0x4494c0 <sqlite3VdbeExec+42768>}, yy231 = {value = 19, mask = 0}, yy254 = 0x13, yy285 = 19, yy322 = 0x13, yy385 = 0x13, yy394 = 19, yy444 = 0x13, yy516 = 19 '\023', yy521 = 0x13, yy522 = 0x13 <error: Cannot access memory at address 0x13>, yy528 = 0x13, yy595 = {eType = 19, pExpr = 0x4494c0 <sqlite3VdbeExec+42768>}}
yyact = 1238
yypParser = 0x7fffffffcf80
pParse = 0x7fffffffd998
166610	    yyact = yy_find_shift_action((YYCODETYPE)yymajor,yyact);
#0  sqlite3Parser (yyp=0x7fffffffcf80, yymajor=1, yyminor=...) at sqlite3.c:166610
166610	    yyact = yy_find_shift_action((YYCODETYPE)yymajor,yyact);
yyp = 0x7fffffffcf80
yymajor = 1
yyminor = {z = 0x51ca21 ";\nDROP TABLE IF EXISTS t4n;\nDROP TABLE IF EXIXTS t5n;\nDROP TABLE IF EXISTS t6n;\nDROP TABLE IF EXISTS t7;\nDROP TABLE IF EXISTS t8;\nDROP TABLE IF EXISTS t7n;\nDROP TABLE IF EXIXTS t8n;\nCREATE TABLE t4(a "..., n = 1}
yyminorunion = {yyinit = 19, yy0 = {z = 0x13 <error: Cannot access memory at address 0x13>, n = 4494528}, yy33 = 0x13, yy41 = 0x13, yy47 = 0x13, yy131 = 0x13, yy180 = {a = 19, b = 0x4494c0 <sqlite3VdbeExec+42768>}, yy231 = {value = 19, mask = 0}, yy254 = 0x13, yy285 = 19, yy322 = 0x13, yy385 = 0x13, yy394 = 19, yy444 = 0x13, yy516 = 19 '\023', yy521 = 0x13, yy522 = 0x13 <error: Cannot access memory at address 0x13>, yy528 = 0x13, yy595 = {eType = 19, pExpr = 0x4494c0 <sqlite3VdbeExec+42768>}}
yyact = 1238
yypParser = 0x7fffffffcf80
pParse = 0x7fffffffd998
166611	    if( yyact >= YY_MIN_REDUCE ){
#0  sqlite3Parser (yyp=0x7fffffffcf80, yymajor=1, yyminor=...) at sqlite3.c:166611
166611	    if( yyact >= YY_MIN_REDUCE ){
yyp = 0x7fffffffcf80
yymajor = 1
yyminor = {z = 0x51ca21 ";\nDROP TABLE IF EXISTS t4n;\nDROP TABLE IF EXIXTS t5n;\nDROP TABLE IF EXISTS t6n;\nDROP TABLE IF EXISTS t7;\nDROP TABLE IF EXISTS t8;\nDROP TABLE IF EXISTS t7n;\nDROP TABLE IF EXIXTS t8n;\nCREATE TABLE t4(a "..., n = 1}
yyminorunion = {yyinit = 19, yy0 = {z = 0x13 <error: Cannot access memory at address 0x13>, n = 4494528}, yy33 = 0x13, yy41 = 0x13, yy47 = 0x13, yy131 = 0x13, yy180 = {a = 19, b = 0x4494c0 <sqlite3VdbeExec+42768>}, yy231 = {value = 19, mask = 0}, yy254 = 0x13, yy285 = 19, yy322 = 0x13, yy385 = 0x13, yy394 = 19, yy444 = 0x13, yy516 = 19 '\023', yy521 = 0x13, yy522 = 0x13 <error: Cannot access memory at address 0x13>, yy528 = 0x13, yy595 = {eType = 19, pExpr = 0x4494c0 <sqlite3VdbeExec+42768>}}
yyact = 1238
yypParser = 0x7fffffffcf80
pParse = 0x7fffffffd998
166612	      unsigned int yyruleno = yyact - YY_MIN_REDUCE; /* Reduce by this rule */
#0  sqlite3Parser (yyp=0x7fffffffcf80, yymajor=1, yyminor=...) at sqlite3.c:166612
166612	      unsigned int yyruleno = yyact - YY_MIN_REDUCE; /* Reduce by this rule */
yyp = 0x7fffffffcf80
yymajor = 1
yyminor = {z = 0x51ca21 ";\nDROP TABLE IF EXISTS t4n;\nDROP TABLE IF EXIXTS t5n;\nDROP TABLE IF EXISTS t6n;\nDROP TABLE IF EXISTS t7;\nDROP TABLE IF EXISTS t8;\nDROP TABLE IF EXISTS t7n;\nDROP TABLE IF EXIXTS t8n;\nCREATE TABLE t4(a "..., n = 1}
yyruleno = 79
yyminorunion = {yyinit = 19, yy0 = {z = 0x13 <error: Cannot access memory at address 0x13>, n = 4494528}, yy33 = 0x13, yy41 = 0x13, yy47 = 0x13, yy131 = 0x13, yy180 = {a = 19, b = 0x4494c0 <sqlite3VdbeExec+42768>}, yy231 = {value = 19, mask = 0}, yy254 = 0x13, yy285 = 19, yy322 = 0x13, yy385 = 0x13, yy394 = 19, yy444 = 0x13, yy516 = 19 '\023', yy521 = 0x13, yy522 = 0x13 <error: Cannot access memory at address 0x13>, yy528 = 0x13, yy595 = {eType = 19, pExpr = 0x4494c0 <sqlite3VdbeExec+42768>}}
yyact = 1238
yypParser = 0x7fffffffcf80
pParse = 0x7fffffffd998
166634	      if( yyRuleInfoNRhs[yyruleno]==0 ){
#0  sqlite3Parser (yyp=0x7fffffffcf80, yymajor=1, yyminor=...) at sqlite3.c:166634
166634	      if( yyRuleInfoNRhs[yyruleno]==0 ){
yyp = 0x7fffffffcf80
yymajor = 1
yyminor = {z = 0x51ca21 ";\nDROP TABLE IF EXISTS t4n;\nDROP TABLE IF EXIXTS t5n;\nDROP TABLE IF EXISTS t6n;\nDROP TABLE IF EXISTS t7;\nDROP TABLE IF EXISTS t8;\nDROP TABLE IF EXISTS t7n;\nDROP TABLE IF EXIXTS t8n;\nCREATE TABLE t4(a "..., n = 1}
yyruleno = 2
yyminorunion = {yyinit = 19, yy0 = {z = 0x13 <error: Cannot access memory at address 0x13>, n = 4494528}, yy33 = 0x13, yy41 = 0x13, yy47 = 0x13, yy131 = 0x13, yy180 = {a = 19, b = 0x4494c0 <sqlite3VdbeExec+42768>}, yy231 = {value = 19, mask = 0}, yy254 = 0x13, yy285 = 19, yy322 = 0x13, yy385 = 0x13, yy394 = 19, yy444 = 0x13, yy516 = 19 '\023', yy521 = 0x13, yy522 = 0x13 <error: Cannot access memory at address 0x13>, yy528 = 0x13, yy595 = {eType = 19, pExpr = 0x4494c0 <sqlite3VdbeExec+42768>}}
yyact = 1238
yypParser = 0x7fffffffcf80
pParse = 0x7fffffffd998
166656	      yyact = yy_reduce(yypParser,yyruleno,yymajor,yyminor sqlite3ParserCTX_PARAM);
#0  sqlite3Parser (yyp=0x7fffffffcf80, yymajor=1, yyminor=...) at sqlite3.c:166656
166656	      yyact = yy_reduce(yypParser,yyruleno,yymajor,yyminor sqlite3ParserCTX_PARAM);
yyp = 0x7fffffffcf80
yymajor = 1
yyminor = {z = 0x51ca21 ";\nDROP TABLE IF EXISTS t4n;\nDROP TABLE IF EXIXTS t5n;\nDROP TABLE IF EXISTS t6n;\nDROP TABLE IF EXISTS t7;\nDROP TABLE IF EXISTS t8;\nDROP TABLE IF EXISTS t7n;\nDROP TABLE IF EXIXTS t8n;\nCREATE TABLE t4(a "..., n = 1}
yyruleno = 2
yyminorunion = {yyinit = 19, yy0 = {z = 0x13 <error: Cannot access memory at address 0x13>, n = 4494528}, yy33 = 0x13, yy41 = 0x13, yy47 = 0x13, yy131 = 0x13, yy180 = {a = 19, b = 0x4494c0 <sqlite3VdbeExec+42768>}, yy231 = {value = 19, mask = 0}, yy254 = 0x13, yy285 = 19, yy322 = 0x13, yy385 = 0x13, yy394 = 19, yy444 = 0x13, yy516 = 19 '\023', yy521 = 0x13, yy522 = 0x13 <error: Cannot access memory at address 0x13>, yy528 = 0x13, yy595 = {eType = 19, pExpr = 0x4494c0 <sqlite3VdbeExec+42768>}}
yyact = 1238
yypParser = 0x7fffffffcf80
pParse = 0x7fffffffd998
166657	    }else if( yyact <= YY_MAX_SHIFTREDUCE ){
#0  sqlite3Parser (yyp=0x7fffffffcf80, yymajor=1, yyminor=...) at sqlite3.c:166657
166657	    }else if( yyact <= YY_MAX_SHIFTREDUCE ){
yyp = 0x7fffffffcf80
yymajor = 1
yyminor = {z = 0x51ca21 ";\nDROP TABLE IF EXISTS t4n;\nDROP TABLE IF EXIXTS t5n;\nDROP TABLE IF EXISTS t6n;\nDROP TABLE IF EXISTS t7;\nDROP TABLE IF EXISTS t8;\nDROP TABLE IF EXISTS t7n;\nDROP TABLE IF EXIXTS t8n;\nCREATE TABLE t4(a "..., n = 1}
yyruleno = 2
yyminorunion = {yyinit = 19, yy0 = {z = 0x13 <error: Cannot access memory at address 0x13>, n = 4494528}, yy33 = 0x13, yy41 = 0x13, yy47 = 0x13, yy131 = 0x13, yy180 = {a = 19, b = 0x4494c0 <sqlite3VdbeExec+42768>}, yy231 = {value = 19, mask = 0}, yy254 = 0x13, yy285 = 19, yy322 = 0x13, yy385 = 0x13, yy394 = 19, yy444 = 0x13, yy516 = 19 '\023', yy521 = 0x13, yy522 = 0x13 <error: Cannot access memory at address 0x13>, yy528 = 0x13, yy595 = {eType = 19, pExpr = 0x4494c0 <sqlite3VdbeExec+42768>}}
yyact = 573
yypParser = 0x7fffffffcf80
pParse = 0x7fffffffd998
166607	  while(1){ /* Exit by "break" */
#0  sqlite3Parser (yyp=0x7fffffffcf80, yymajor=1, yyminor=...) at sqlite3.c:166607
166607	  while(1){ /* Exit by "break" */
yyp = 0x7fffffffcf80
yymajor = 1
yyminor = {z = 0x51ca21 ";\nDROP TABLE IF EXISTS t4n;\nDROP TABLE IF EXIXTS t5n;\nDROP TABLE IF EXISTS t6n;\nDROP TABLE IF EXISTS t7;\nDROP TABLE IF EXISTS t8;\nDROP TABLE IF EXISTS t7n;\nDROP TABLE IF EXIXTS t8n;\nCREATE TABLE t4(a "..., n = 1}
yyminorunion = {yyinit = 19, yy0 = {z = 0x13 <error: Cannot access memory at address 0x13>, n = 4494528}, yy33 = 0x13, yy41 = 0x13, yy47 = 0x13, yy131 = 0x13, yy180 = {a = 19, b = 0x4494c0 <sqlite3VdbeExec+42768>}, yy231 = {value = 19, mask = 0}, yy254 = 0x13, yy285 = 19, yy322 = 0x13, yy385 = 0x13, yy394 = 19, yy444 = 0x13, yy516 = 19 '\023', yy521 = 0x13, yy522 = 0x13 <error: Cannot access memory at address 0x13>, yy528 = 0x13, yy595 = {eType = 19, pExpr = 0x4494c0 <sqlite3VdbeExec+42768>}}
yyact = 573
yypParser = 0x7fffffffcf80
pParse = 0x7fffffffd998
166610	    yyact = yy_find_shift_action((YYCODETYPE)yymajor,yyact);
#0  sqlite3Parser (yyp=0x7fffffffcf80, yymajor=1, yyminor=...) at sqlite3.c:166610
166610	    yyact = yy_find_shift_action((YYCODETYPE)yymajor,yyact);
yyp = 0x7fffffffcf80
yymajor = 1
yyminor = {z = 0x51ca21 ";\nDROP TABLE IF EXISTS t4n;\nDROP TABLE IF EXIXTS t5n;\nDROP TABLE IF EXISTS t6n;\nDROP TABLE IF EXISTS t7;\nDROP TABLE IF EXISTS t8;\nDROP TABLE IF EXISTS t7n;\nDROP TABLE IF EXIXTS t8n;\nCREATE TABLE t4(a "..., n = 1}
yyminorunion = {yyinit = 19, yy0 = {z = 0x13 <error: Cannot access memory at address 0x13>, n = 4494528}, yy33 = 0x13, yy41 = 0x13, yy47 = 0x13, yy131 = 0x13, yy180 = {a = 19, b = 0x4494c0 <sqlite3VdbeExec+42768>}, yy231 = {value = 19, mask = 0}, yy254 = 0x13, yy285 = 19, yy322 = 0x13, yy385 = 0x13, yy394 = 19, yy444 = 0x13, yy516 = 19 '\023', yy521 = 0x13, yy522 = 0x13 <error: Cannot access memory at address 0x13>, yy528 = 0x13, yy595 = {eType = 19, pExpr = 0x4494c0 <sqlite3VdbeExec+42768>}}
yyact = 573
yypParser = 0x7fffffffcf80
pParse = 0x7fffffffd998
166611	    if( yyact >= YY_MIN_REDUCE ){
#0  sqlite3Parser (yyp=0x7fffffffcf80, yymajor=1, yyminor=...) at sqlite3.c:166611
166611	    if( yyact >= YY_MIN_REDUCE ){
yyp = 0x7fffffffcf80
yymajor = 1
yyminor = {z = 0x51ca21 ";\nDROP TABLE IF EXISTS t4n;\nDROP TABLE IF EXIXTS t5n;\nDROP TABLE IF EXISTS t6n;\nDROP TABLE IF EXISTS t7;\nDROP TABLE IF EXISTS t8;\nDROP TABLE IF EXISTS t7n;\nDROP TABLE IF EXIXTS t8n;\nCREATE TABLE t4(a "..., n = 1}
yyminorunion = {yyinit = 19, yy0 = {z = 0x13 <error: Cannot access memory at address 0x13>, n = 4494528}, yy33 = 0x13, yy41 = 0x13, yy47 = 0x13, yy131 = 0x13, yy180 = {a = 19, b = 0x4494c0 <sqlite3VdbeExec+42768>}, yy231 = {value = 19, mask = 0}, yy254 = 0x13, yy285 = 19, yy322 = 0x13, yy385 = 0x13, yy394 = 19, yy444 = 0x13, yy516 = 19 '\023', yy521 = 0x13, yy522 = 0x13 <error: Cannot access memory at address 0x13>, yy528 = 0x13, yy595 = {eType = 19, pExpr = 0x4494c0 <sqlite3VdbeExec+42768>}}
yyact = 1175
yypParser = 0x7fffffffcf80
pParse = 0x7fffffffd998
166658	      yy_shift(yypParser,yyact,(YYCODETYPE)yymajor,yyminor);
#0  sqlite3Parser (yyp=0x7fffffffcf80, yymajor=1, yyminor=...) at sqlite3.c:166658
166658	      yy_shift(yypParser,yyact,(YYCODETYPE)yymajor,yyminor);
yyp = 0x7fffffffcf80
yymajor = 1
yyminor = {z = 0x51ca21 ";\nDROP TABLE IF EXISTS t4n;\nDROP TABLE IF EXIXTS t5n;\nDROP TABLE IF EXISTS t6n;\nDROP TABLE IF EXISTS t7;\nDROP TABLE IF EXISTS t8;\nDROP TABLE IF EXISTS t7n;\nDROP TABLE IF EXIXTS t8n;\nCREATE TABLE t4(a "..., n = 1}
yyminorunion = {yyinit = 19, yy0 = {z = 0x13 <error: Cannot access memory at address 0x13>, n = 4494528}, yy33 = 0x13, yy41 = 0x13, yy47 = 0x13, yy131 = 0x13, yy180 = {a = 19, b = 0x4494c0 <sqlite3VdbeExec+42768>}, yy231 = {value = 19, mask = 0}, yy254 = 0x13, yy285 = 19, yy322 = 0x13, yy385 = 0x13, yy394 = 19, yy444 = 0x13, yy516 = 19 '\023', yy521 = 0x13, yy522 = 0x13 <error: Cannot access memory at address 0x13>, yy528 = 0x13, yy595 = {eType = 19, pExpr = 0x4494c0 <sqlite3VdbeExec+42768>}}
yyact = 1175
yypParser = 0x7fffffffcf80
pParse = 0x7fffffffd998

Breakpoint 1, sqlite3LocateTable (pParse=0x7fffffffd998, flags=0, zName=0x51c868 "t4n", zDbase=0x0) at sqlite3.c:114424
114424	    if( zDbase ){
#0  sqlite3LocateTable (pParse=0x7fffffffd998, flags=0, zName=0x51c868 "t4n", zDbase=0x0) at sqlite3.c:114424
114424	    if( zDbase ){
pParse = 0x7fffffffd998
flags = 0
zName = 0x51c868 "t4n"
zDbase = 0x0
zMsg = 0x4eb959 "no such table"
p = 0x0
db = 0x50e8c8
114427	      sqlite3ErrorMsg(pParse, "%s: %s", zMsg, zName);
#0  sqlite3LocateTable (pParse=0x7fffffffd998, flags=0, zName=0x51c868 "t4n", zDbase=0x0) at sqlite3.c:114427
114427	      sqlite3ErrorMsg(pParse, "%s: %s", zMsg, zName);
pParse = 0x7fffffffd998
flags = 0
zName = 0x51c868 "t4n"
zDbase = 0x0
zMsg = 0x4eb959 "no such table"
p = 0x0
db = 0x50e8c8
114429	  }else{
#0  sqlite3LocateTable (pParse=0x7fffffffd998, flags=0, zName=0x51c868 "t4n", zDbase=0x0) at sqlite3.c:114429
114429	  }else{
pParse = 0x7fffffffd998
flags = 0
zName = 0x51c868 "t4n"
zDbase = 0x0
zMsg = 0x4eb959 "no such table"
p = 0x0
db = 0x50e8c8
114433	  return p;
#0  sqlite3LocateTable (pParse=0x7fffffffd998, flags=0, zName=0x51c868 "t4n", zDbase=0x0) at sqlite3.c:114433
114433	  return p;
pParse = 0x7fffffffd998
flags = 0
zName = 0x51c868 "t4n"
zDbase = 0x0
p = 0x0
db = 0x50e8c8
114434	}
#0  sqlite3LocateTable (pParse=0x7fffffffd998, flags=0, zName=0x51c868 "t4n", zDbase=0x0) at sqlite3.c:114434
114434	}
pParse = 0x7fffffffd998
flags = 0
zName = 0x51c868 "t4n"
zDbase = 0x0
p = 0x0
db = 0x50e8c8
sqlite3DropTable (pParse=0x7fffffffd998, pName=0x51c8e8, isView=0, noErr=1) at sqlite3.c:117411
117411	  if( noErr ) db->suppressErr--;
#0  sqlite3DropTable (pParse=0x7fffffffd998, pName=0x51c8e8, isView=0, noErr=1) at sqlite3.c:117411
117411	  if( noErr ) db->suppressErr--;
pParse = 0x7fffffffd998
pName = 0x51c8e8
isView = 0
noErr = 1
pTab = 0x0
v = 0x0
db = 0x50e8c8
iDb = 0
117413	  if( pTab==0 ){
#0  sqlite3DropTable (pParse=0x7fffffffd998, pName=0x51c8e8, isView=0, noErr=1) at sqlite3.c:117413
117413	  if( pTab==0 ){
pParse = 0x7fffffffd998
pName = 0x51c8e8
isView = 0
noErr = 1
pTab = 0x0
v = 0x0
db = 0x50e8c8
iDb = 0
117414	    if( noErr ){
#0  sqlite3DropTable (pParse=0x7fffffffd998, pName=0x51c8e8, isView=0, noErr=1) at sqlite3.c:117414
117414	    if( noErr ){
pParse = 0x7fffffffd998
pName = 0x51c8e8
isView = 0
noErr = 1
pTab = 0x0
v = 0x0
db = 0x50e8c8
iDb = 0
117415	      sqlite3CodeVerifyNamedSchema(pParse, pName->a[0].zDatabase);
#0  sqlite3DropTable (pParse=0x7fffffffd998, pName=0x51c8e8, isView=0, noErr=1) at sqlite3.c:117415
117415	      sqlite3CodeVerifyNamedSchema(pParse, pName->a[0].zDatabase);
pParse = 0x7fffffffd998
pName = 0x51c8e8
isView = 0
noErr = 1
pTab = 0x0
v = 0x0
db = 0x50e8c8
iDb = 0
117416	      sqlite3ForceNotReadOnly(pParse);
#0  sqlite3DropTable (pParse=0x7fffffffd998, pName=0x51c8e8, isView=0, noErr=1) at sqlite3.c:117416
117416	      sqlite3ForceNotReadOnly(pParse);
pParse = 0x7fffffffd998
pName = 0x51c8e8
isView = 0
noErr = 1
pTab = 0x0
v = 0x0
db = 0x50e8c8
iDb = 0
117418	    goto exit_drop_table;
#0  sqlite3DropTable (pParse=0x7fffffffd998, pName=0x51c8e8, isView=0, noErr=1) at sqlite3.c:117418
117418	    goto exit_drop_table;
pParse = 0x7fffffffd998
pName = 0x51c8e8
isView = 0
noErr = 1
pTab = 0x0
v = 0x0
db = 0x50e8c8
iDb = 0
117497	  sqlite3SrcListDelete(db, pName);
#0  sqlite3DropTable (pParse=0x7fffffffd998, pName=0x51c8e8, isView=0, noErr=1) at sqlite3.c:117497
117497	  sqlite3SrcListDelete(db, pName);
pParse = 0x7fffffffd998
pName = 0x51c8e8
isView = 0
noErr = 1
pTab = 0x0
v = 0x0
db = 0x50e8c8
iDb = 0
117498	}
#0  sqlite3DropTable (pParse=0x7fffffffd998, pName=0x51c8e8, isView=0, noErr=1) at sqlite3.c:117498
117498	}
pParse = 0x7fffffffd998
pName = 0x51c8e8
isView = 0
noErr = 1
pTab = 0x0
v = 0x0
db = 0x50e8c8
iDb = 0
yy_reduce (yypParser=0x7fffffffcf80, yyruleno=79, yyLookahead=1, yyLookaheadToken=..., pParse=0x7fffffffd998) at sqlite3.c:165261
165261	        break;
#0  yy_reduce (yypParser=0x7fffffffcf80, yyruleno=79, yyLookahead=1, yyLookaheadToken=..., pParse=0x7fffffffd998) at sqlite3.c:165261
165261	        break;
yypParser = 0x7fffffffcf80
yyruleno = 79
yyLookahead = 1
yyLookaheadToken = {z = 0x51ca3b ";\nDROP TABLE IF EXIXTS t5n;\nDROP TABLE IF EXISTS t6n;\nDROP TABLE IF EXISTS t7;\nDROP TABLE IF EXISTS t8;\nDROP TABLE IF EXISTS t7n;\nDROP TABLE IF EXIXTS t8n;\nCREATE TABLE t4(a UNIQUE);\nCREATE TABLE t5(b"..., n = 1}
pParse = 0x7fffffffd998
yygoto = 238
yyact = 1315
yymsp = 0x7fffffffcff0
yysize = -1
166460	  yygoto = yyRuleInfoLhs[yyruleno];
#0  yy_reduce (yypParser=0x7fffffffcf80, yyruleno=79, yyLookahead=1, yyLookaheadToken=..., pParse=0x7fffffffd998) at sqlite3.c:166460
166460	  yygoto = yyRuleInfoLhs[yyruleno];
yypParser = 0x7fffffffcf80
yyruleno = 79
yyLookahead = 1
yyLookaheadToken = {z = 0x51ca3b ";\nDROP TABLE IF EXIXTS t5n;\nDROP TABLE IF EXISTS t6n;\nDROP TABLE IF EXISTS t7;\nDROP TABLE IF EXISTS t8;\nDROP TABLE IF EXISTS t7n;\nDROP TABLE IF EXIXTS t8n;\nCREATE TABLE t4(a UNIQUE);\nCREATE TABLE t5(b"..., n = 1}
pParse = 0x7fffffffd998
yygoto = 238
yyact = 1315
yymsp = 0x7fffffffcff0
yysize = -1
166461	  yysize = yyRuleInfoNRhs[yyruleno];
#0  yy_reduce (yypParser=0x7fffffffcf80, yyruleno=79, yyLookahead=1, yyLookaheadToken=..., pParse=0x7fffffffd998) at sqlite3.c:166461
166461	  yysize = yyRuleInfoNRhs[yyruleno];
yypParser = 0x7fffffffcf80
yyruleno = 79
yyLookahead = 1
yyLookaheadToken = {z = 0x51ca3b ";\nDROP TABLE IF EXIXTS t5n;\nDROP TABLE IF EXISTS t6n;\nDROP TABLE IF EXISTS t7;\nDROP TABLE IF EXISTS t8;\nDROP TABLE IF EXISTS t7n;\nDROP TABLE IF EXIXTS t8n;\nCREATE TABLE t4(a UNIQUE);\nCREATE TABLE t5(b"..., n = 1}
pParse = 0x7fffffffd998
yygoto = 190
yyact = 1315
yymsp = 0x7fffffffcff0
yysize = -1
166462	  yyact = yy_find_reduce_action(yymsp[yysize].stateno,(YYCODETYPE)yygoto);
#0  yy_reduce (yypParser=0x7fffffffcf80, yyruleno=79, yyLookahead=1, yyLookaheadToken=..., pParse=0x7fffffffd998) at sqlite3.c:166462
166462	  yyact = yy_find_reduce_action(yymsp[yysize].stateno,(YYCODETYPE)yygoto);
yypParser = 0x7fffffffcf80
yyruleno = 79
yyLookahead = 1
yyLookaheadToken = {z = 0x51ca3b ";\nDROP TABLE IF EXIXTS t5n;\nDROP TABLE IF EXISTS t6n;\nDROP TABLE IF EXISTS t7;\nDROP TABLE IF EXISTS t8;\nDROP TABLE IF EXISTS t7n;\nDROP TABLE IF EXIXTS t8n;\nCREATE TABLE t4(a UNIQUE);\nCREATE TABLE t5(b"..., n = 1}
pParse = 0x7fffffffd998
yygoto = 190
yyact = 1315
yymsp = 0x7fffffffcff0
yysize = -4
166471	  yymsp += yysize+1;
#0  yy_reduce (yypParser=0x7fffffffcf80, yyruleno=79, yyLookahead=1, yyLookaheadToken=..., pParse=0x7fffffffd998) at sqlite3.c:166471
166471	  yymsp += yysize+1;
yypParser = 0x7fffffffcf80
yyruleno = 79
yyLookahead = 1
yyLookaheadToken = {z = 0x51ca3b ";\nDROP TABLE IF EXIXTS t5n;\nDROP TABLE IF EXISTS t6n;\nDROP TABLE IF EXISTS t7;\nDROP TABLE IF EXISTS t8;\nDROP TABLE IF EXISTS t7n;\nDROP TABLE IF EXIXTS t8n;\nCREATE TABLE t4(a UNIQUE);\nCREATE TABLE t5(b"..., n = 1}
pParse = 0x7fffffffd998
yygoto = 190
yyact = 1238
yymsp = 0x7fffffffcff0
yysize = -4
166472	  yypParser->yytos = yymsp;
#0  yy_reduce (yypParser=0x7fffffffcf80, yyruleno=79, yyLookahead=1, yyLookaheadToken=..., pParse=0x7fffffffd998) at sqlite3.c:166472
166472	  yypParser->yytos = yymsp;
yypParser = 0x7fffffffcf80
yyruleno = 79
yyLookahead = 1
yyLookaheadToken = {z = 0x51ca3b ";\nDROP TABLE IF EXIXTS t5n;\nDROP TABLE IF EXISTS t6n;\nDROP TABLE IF EXISTS t7;\nDROP TABLE IF EXISTS t8;\nDROP TABLE IF EXISTS t7n;\nDROP TABLE IF EXIXTS t8n;\nCREATE TABLE t4(a UNIQUE);\nCREATE TABLE t5(b"..., n = 1}
pParse = 0x7fffffffd998
yygoto = 190
yyact = 1238
yymsp = 0x7fffffffcfa8
yysize = -4
166473	  yymsp->stateno = (YYACTIONTYPE)yyact;
#0  yy_reduce (yypParser=0x7fffffffcf80, yyruleno=79, yyLookahead=1, yyLookaheadToken=..., pParse=0x7fffffffd998) at sqlite3.c:166473
166473	  yymsp->stateno = (YYACTIONTYPE)yyact;
yypParser = 0x7fffffffcf80
yyruleno = 79
yyLookahead = 1
yyLookaheadToken = {z = 0x51ca3b ";\nDROP TABLE IF EXIXTS t5n;\nDROP TABLE IF EXISTS t6n;\nDROP TABLE IF EXISTS t7;\nDROP TABLE IF EXISTS t8;\nDROP TABLE IF EXISTS t7n;\nDROP TABLE IF EXIXTS t8n;\nCREATE TABLE t4(a UNIQUE);\nCREATE TABLE t5(b"..., n = 1}
pParse = 0x7fffffffd998
yygoto = 190
yyact = 1238
yymsp = 0x7fffffffcfa8
yysize = -4
166474	  yymsp->major = (YYCODETYPE)yygoto;
#0  yy_reduce (yypParser=0x7fffffffcf80, yyruleno=79, yyLookahead=1, yyLookaheadToken=..., pParse=0x7fffffffd998) at sqlite3.c:166474
166474	  yymsp->major = (YYCODETYPE)yygoto;
yypParser = 0x7fffffffcf80
yyruleno = 79
yyLookahead = 1
yyLookaheadToken = {z = 0x51ca3b ";\nDROP TABLE IF EXIXTS t5n;\nDROP TABLE IF EXISTS t6n;\nDROP TABLE IF EXISTS t7;\nDROP TABLE IF EXISTS t8;\nDROP TABLE IF EXISTS t7n;\nDROP TABLE IF EXIXTS t8n;\nCREATE TABLE t4(a UNIQUE);\nCREATE TABLE t5(b"..., n = 1}
pParse = 0x7fffffffd998
yygoto = 190
yyact = 1238
yymsp = 0x7fffffffcfa8
yysize = -4
166476	  return yyact;
#0  yy_reduce (yypParser=0x7fffffffcf80, yyruleno=79, yyLookahead=1, yyLookaheadToken=..., pParse=0x7fffffffd998) at sqlite3.c:166476
166476	  return yyact;
yypParser = 0x7fffffffcf80
yyruleno = 79
yyLookahead = 1
yyLookaheadToken = {z = 0x51ca3b ";\nDROP TABLE IF EXIXTS t5n;\nDROP TABLE IF EXISTS t6n;\nDROP TABLE IF EXISTS t7;\nDROP TABLE IF EXISTS t8;\nDROP TABLE IF EXISTS t7n;\nDROP TABLE IF EXIXTS t8n;\nCREATE TABLE t4(a UNIQUE);\nCREATE TABLE t5(b"..., n = 1}
pParse = 0x7fffffffd998
yygoto = 190
yyact = 1238
yymsp = 0x7fffffffcfa8
yysize = -4
sqlite3Parser (yyp=0x7fffffffcf80, yymajor=1, yyminor=...) at sqlite3.c:166657
166657	    }else if( yyact <= YY_MAX_SHIFTREDUCE ){
#0  sqlite3Parser (yyp=0x7fffffffcf80, yymajor=1, yyminor=...) at sqlite3.c:166657
166657	    }else if( yyact <= YY_MAX_SHIFTREDUCE ){
yyp = 0x7fffffffcf80
yymajor = 1
yyminor = {z = 0x51ca3b ";\nDROP TABLE IF EXIXTS t5n;\nDROP TABLE IF EXISTS t6n;\nDROP TABLE IF EXISTS t7;\nDROP TABLE IF EXISTS t8;\nDROP TABLE IF EXISTS t7n;\nDROP TABLE IF EXIXTS t8n;\nCREATE TABLE t4(a UNIQUE);\nCREATE TABLE t5(b"..., n = 1}
yyruleno = 79
yyminorunion = {yyinit = 19, yy0 = {z = 0x13 <error: Cannot access memory at address 0x13>, n = 4494528}, yy33 = 0x13, yy41 = 0x13, yy47 = 0x13, yy131 = 0x13, yy180 = {a = 19, b = 0x4494c0 <sqlite3VdbeExec+42768>}, yy231 = {value = 19, mask = 0}, yy254 = 0x13, yy285 = 19, yy322 = 0x13, yy385 = 0x13, yy394 = 19, yy444 = 0x13, yy516 = 19 '\023', yy521 = 0x13, yy522 = 0x13 <error: Cannot access memory at address 0x13>, yy528 = 0x13, yy595 = {eType = 19, pExpr = 0x4494c0 <sqlite3VdbeExec+42768>}}
yyact = 1238
yypParser = 0x7fffffffcf80
pParse = 0x7fffffffd998
166607	  while(1){ /* Exit by "break" */
#0  sqlite3Parser (yyp=0x7fffffffcf80, yymajor=1, yyminor=...) at sqlite3.c:166607
166607	  while(1){ /* Exit by "break" */
yyp = 0x7fffffffcf80
yymajor = 1
yyminor = {z = 0x51ca3b ";\nDROP TABLE IF EXIXTS t5n;\nDROP TABLE IF EXISTS t6n;\nDROP TABLE IF EXISTS t7;\nDROP TABLE IF EXISTS t8;\nDROP TABLE IF EXISTS t7n;\nDROP TABLE IF EXIXTS t8n;\nCREATE TABLE t4(a UNIQUE);\nCREATE TABLE t5(b"..., n = 1}
yyminorunion = {yyinit = 19, yy0 = {z = 0x13 <error: Cannot access memory at address 0x13>, n = 4494528}, yy33 = 0x13, yy41 = 0x13, yy47 = 0x13, yy131 = 0x13, yy180 = {a = 19, b = 0x4494c0 <sqlite3VdbeExec+42768>}, yy231 = {value = 19, mask = 0}, yy254 = 0x13, yy285 = 19, yy322 = 0x13, yy385 = 0x13, yy394 = 19, yy444 = 0x13, yy516 = 19 '\023', yy521 = 0x13, yy522 = 0x13 <error: Cannot access memory at address 0x13>, yy528 = 0x13, yy595 = {eType = 19, pExpr = 0x4494c0 <sqlite3VdbeExec+42768>}}
yyact = 1238
yypParser = 0x7fffffffcf80
pParse = 0x7fffffffd998
166610	    yyact = yy_find_shift_action((YYCODETYPE)yymajor,yyact);
#0  sqlite3Parser (yyp=0x7fffffffcf80, yymajor=1, yyminor=...) at sqlite3.c:166610
166610	    yyact = yy_find_shift_action((YYCODETYPE)yymajor,yyact);
yyp = 0x7fffffffcf80
yymajor = 1
yyminor = {z = 0x51ca3b ";\nDROP TABLE IF EXIXTS t5n;\nDROP TABLE IF EXISTS t6n;\nDROP TABLE IF EXISTS t7;\nDROP TABLE IF EXISTS t8;\nDROP TABLE IF EXISTS t7n;\nDROP TABLE IF EXIXTS t8n;\nCREATE TABLE t4(a UNIQUE);\nCREATE TABLE t5(b"..., n = 1}
yyminorunion = {yyinit = 19, yy0 = {z = 0x13 <error: Cannot access memory at address 0x13>, n = 4494528}, yy33 = 0x13, yy41 = 0x13, yy47 = 0x13, yy131 = 0x13, yy180 = {a = 19, b = 0x4494c0 <sqlite3VdbeExec+42768>}, yy231 = {value = 19, mask = 0}, yy254 = 0x13, yy285 = 19, yy322 = 0x13, yy385 = 0x13, yy394 = 19, yy444 = 0x13, yy516 = 19 '\023', yy521 = 0x13, yy522 = 0x13 <error: Cannot access memory at address 0x13>, yy528 = 0x13, yy595 = {eType = 19, pExpr = 0x4494c0 <sqlite3VdbeExec+42768>}}
yyact = 1238
yypParser = 0x7fffffffcf80
pParse = 0x7fffffffd998
166611	    if( yyact >= YY_MIN_REDUCE ){
#0  sqlite3Parser (yyp=0x7fffffffcf80, yymajor=1, yyminor=...) at sqlite3.c:166611
166611	    if( yyact >= YY_MIN_REDUCE ){
yyp = 0x7fffffffcf80
yymajor = 1
yyminor = {z = 0x51ca3b ";\nDROP TABLE IF EXIXTS t5n;\nDROP TABLE IF EXISTS t6n;\nDROP TABLE IF EXISTS t7;\nDROP TABLE IF EXISTS t8;\nDROP TABLE IF EXISTS t7n;\nDROP TABLE IF EXIXTS t8n;\nCREATE TABLE t4(a UNIQUE);\nCREATE TABLE t5(b"..., n = 1}
yyminorunion = {yyinit = 19, yy0 = {z = 0x13 <error: Cannot access memory at address 0x13>, n = 4494528}, yy33 = 0x13, yy41 = 0x13, yy47 = 0x13, yy131 = 0x13, yy180 = {a = 19, b = 0x4494c0 <sqlite3VdbeExec+42768>}, yy231 = {value = 19, mask = 0}, yy254 = 0x13, yy285 = 19, yy322 = 0x13, yy385 = 0x13, yy394 = 19, yy444 = 0x13, yy516 = 19 '\023', yy521 = 0x13, yy522 = 0x13 <error: Cannot access memory at address 0x13>, yy528 = 0x13, yy595 = {eType = 19, pExpr = 0x4494c0 <sqlite3VdbeExec+42768>}}
yyact = 1238
yypParser = 0x7fffffffcf80
pParse = 0x7fffffffd998
166612	      unsigned int yyruleno = yyact - YY_MIN_REDUCE; /* Reduce by this rule */
#0  sqlite3Parser (yyp=0x7fffffffcf80, yymajor=1, yyminor=...) at sqlite3.c:166612
166612	      unsigned int yyruleno = yyact - YY_MIN_REDUCE; /* Reduce by this rule */
yyp = 0x7fffffffcf80
yymajor = 1
yyminor = {z = 0x51ca3b ";\nDROP TABLE IF EXIXTS t5n;\nDROP TABLE IF EXISTS t6n;\nDROP TABLE IF EXISTS t7;\nDROP TABLE IF EXISTS t8;\nDROP TABLE IF EXISTS t7n;\nDROP TABLE IF EXIXTS t8n;\nCREATE TABLE t4(a UNIQUE);\nCREATE TABLE t5(b"..., n = 1}
yyruleno = 79
yyminorunion = {yyinit = 19, yy0 = {z = 0x13 <error: Cannot access memory at address 0x13>, n = 4494528}, yy33 = 0x13, yy41 = 0x13, yy47 = 0x13, yy131 = 0x13, yy180 = {a = 19, b = 0x4494c0 <sqlite3VdbeExec+42768>}, yy231 = {value = 19, mask = 0}, yy254 = 0x13, yy285 = 19, yy322 = 0x13, yy385 = 0x13, yy394 = 19, yy444 = 0x13, yy516 = 19 '\023', yy521 = 0x13, yy522 = 0x13 <error: Cannot access memory at address 0x13>, yy528 = 0x13, yy595 = {eType = 19, pExpr = 0x4494c0 <sqlite3VdbeExec+42768>}}
yyact = 1238
yypParser = 0x7fffffffcf80
pParse = 0x7fffffffd998
166634	      if( yyRuleInfoNRhs[yyruleno]==0 ){
#0  sqlite3Parser (yyp=0x7fffffffcf80, yymajor=1, yyminor=...) at sqlite3.c:166634
166634	      if( yyRuleInfoNRhs[yyruleno]==0 ){
yyp = 0x7fffffffcf80
yymajor = 1
yyminor = {z = 0x51ca3b ";\nDROP TABLE IF EXIXTS t5n;\nDROP TABLE IF EXISTS t6n;\nDROP TABLE IF EXISTS t7;\nDROP TABLE IF EXISTS t8;\nDROP TABLE IF EXISTS t7n;\nDROP TABLE IF EXIXTS t8n;\nCREATE TABLE t4(a UNIQUE);\nCREATE TABLE t5(b"..., n = 1}
yyruleno = 2
yyminorunion = {yyinit = 19, yy0 = {z = 0x13 <error: Cannot access memory at address 0x13>, n = 4494528}, yy33 = 0x13, yy41 = 0x13, yy47 = 0x13, yy131 = 0x13, yy180 = {a = 19, b = 0x4494c0 <sqlite3VdbeExec+42768>}, yy231 = {value = 19, mask = 0}, yy254 = 0x13, yy285 = 19, yy322 = 0x13, yy385 = 0x13, yy394 = 19, yy444 = 0x13, yy516 = 19 '\023', yy521 = 0x13, yy522 = 0x13 <error: Cannot access memory at address 0x13>, yy528 = 0x13, yy595 = {eType = 19, pExpr = 0x4494c0 <sqlite3VdbeExec+42768>}}
yyact = 1238
yypParser = 0x7fffffffcf80
pParse = 0x7fffffffd998
166656	      yyact = yy_reduce(yypParser,yyruleno,yymajor,yyminor sqlite3ParserCTX_PARAM);
#0  sqlite3Parser (yyp=0x7fffffffcf80, yymajor=1, yyminor=...) at sqlite3.c:166656
166656	      yyact = yy_reduce(yypParser,yyruleno,yymajor,yyminor sqlite3ParserCTX_PARAM);
yyp = 0x7fffffffcf80
yymajor = 1
yyminor = {z = 0x51ca3b ";\nDROP TABLE IF EXIXTS t5n;\nDROP TABLE IF EXISTS t6n;\nDROP TABLE IF EXISTS t7;\nDROP TABLE IF EXISTS t8;\nDROP TABLE IF EXISTS t7n;\nDROP TABLE IF EXIXTS t8n;\nCREATE TABLE t4(a UNIQUE);\nCREATE TABLE t5(b"..., n = 1}
yyruleno = 2
yyminorunion = {yyinit = 19, yy0 = {z = 0x13 <error: Cannot access memory at address 0x13>, n = 4494528}, yy33 = 0x13, yy41 = 0x13, yy47 = 0x13, yy131 = 0x13, yy180 = {a = 19, b = 0x4494c0 <sqlite3VdbeExec+42768>}, yy231 = {value = 19, mask = 0}, yy254 = 0x13, yy285 = 19, yy322 = 0x13, yy385 = 0x13, yy394 = 19, yy444 = 0x13, yy516 = 19 '\023', yy521 = 0x13, yy522 = 0x13 <error: Cannot access memory at address 0x13>, yy528 = 0x13, yy595 = {eType = 19, pExpr = 0x4494c0 <sqlite3VdbeExec+42768>}}
yyact = 1238
yypParser = 0x7fffffffcf80
pParse = 0x7fffffffd998
166657	    }else if( yyact <= YY_MAX_SHIFTREDUCE ){
#0  sqlite3Parser (yyp=0x7fffffffcf80, yymajor=1, yyminor=...) at sqlite3.c:166657
166657	    }else if( yyact <= YY_MAX_SHIFTREDUCE ){
yyp = 0x7fffffffcf80
yymajor = 1
yyminor = {z = 0x51ca3b ";\nDROP TABLE IF EXIXTS t5n;\nDROP TABLE IF EXISTS t6n;\nDROP TABLE IF EXISTS t7;\nDROP TABLE IF EXISTS t8;\nDROP TABLE IF EXISTS t7n;\nDROP TABLE IF EXIXTS t8n;\nCREATE TABLE t4(a UNIQUE);\nCREATE TABLE t5(b"..., n = 1}
yyruleno = 2
yyminorunion = {yyinit = 19, yy0 = {z = 0x13 <error: Cannot access memory at address 0x13>, n = 4494528}, yy33 = 0x13, yy41 = 0x13, yy47 = 0x13, yy131 = 0x13, yy180 = {a = 19, b = 0x4494c0 <sqlite3VdbeExec+42768>}, yy231 = {value = 19, mask = 0}, yy254 = 0x13, yy285 = 19, yy322 = 0x13, yy385 = 0x13, yy394 = 19, yy444 = 0x13, yy516 = 19 '\023', yy521 = 0x13, yy522 = 0x13 <error: Cannot access memory at address 0x13>, yy528 = 0x13, yy595 = {eType = 19, pExpr = 0x4494c0 <sqlite3VdbeExec+42768>}}
yyact = 573
yypParser = 0x7fffffffcf80
pParse = 0x7fffffffd998
166607	  while(1){ /* Exit by "break" */
#0  sqlite3Parser (yyp=0x7fffffffcf80, yymajor=1, yyminor=...) at sqlite3.c:166607
166607	  while(1){ /* Exit by "break" */
yyp = 0x7fffffffcf80
yymajor = 1
yyminor = {z = 0x51ca3b ";\nDROP TABLE IF EXIXTS t5n;\nDROP TABLE IF EXISTS t6n;\nDROP TABLE IF EXISTS t7;\nDROP TABLE IF EXISTS t8;\nDROP TABLE IF EXISTS t7n;\nDROP TABLE IF EXIXTS t8n;\nCREATE TABLE t4(a UNIQUE);\nCREATE TABLE t5(b"..., n = 1}
yyminorunion = {yyinit = 19, yy0 = {z = 0x13 <error: Cannot access memory at address 0x13>, n = 4494528}, yy33 = 0x13, yy41 = 0x13, yy47 = 0x13, yy131 = 0x13, yy180 = {a = 19, b = 0x4494c0 <sqlite3VdbeExec+42768>}, yy231 = {value = 19, mask = 0}, yy254 = 0x13, yy285 = 19, yy322 = 0x13, yy385 = 0x13, yy394 = 19, yy444 = 0x13, yy516 = 19 '\023', yy521 = 0x13, yy522 = 0x13 <error: Cannot access memory at address 0x13>, yy528 = 0x13, yy595 = {eType = 19, pExpr = 0x4494c0 <sqlite3VdbeExec+42768>}}
yyact = 573
yypParser = 0x7fffffffcf80
pParse = 0x7fffffffd998
166610	    yyact = yy_find_shift_action((YYCODETYPE)yymajor,yyact);
#0  sqlite3Parser (yyp=0x7fffffffcf80, yymajor=1, yyminor=...) at sqlite3.c:166610
166610	    yyact = yy_find_shift_action((YYCODETYPE)yymajor,yyact);
yyp = 0x7fffffffcf80
yymajor = 1
yyminor = {z = 0x51ca3b ";\nDROP TABLE IF EXIXTS t5n;\nDROP TABLE IF EXISTS t6n;\nDROP TABLE IF EXISTS t7;\nDROP TABLE IF EXISTS t8;\nDROP TABLE IF EXISTS t7n;\nDROP TABLE IF EXIXTS t8n;\nCREATE TABLE t4(a UNIQUE);\nCREATE TABLE t5(b"..., n = 1}
yyminorunion = {yyinit = 19, yy0 = {z = 0x13 <error: Cannot access memory at address 0x13>, n = 4494528}, yy33 = 0x13, yy41 = 0x13, yy47 = 0x13, yy131 = 0x13, yy180 = {a = 19, b = 0x4494c0 <sqlite3VdbeExec+42768>}, yy231 = {value = 19, mask = 0}, yy254 = 0x13, yy285 = 19, yy322 = 0x13, yy385 = 0x13, yy394 = 19, yy444 = 0x13, yy516 = 19 '\023', yy521 = 0x13, yy522 = 0x13 <error: Cannot access memory at address 0x13>, yy528 = 0x13, yy595 = {eType = 19, pExpr = 0x4494c0 <sqlite3VdbeExec+42768>}}
yyact = 573
yypParser = 0x7fffffffcf80
pParse = 0x7fffffffd998
166611	    if( yyact >= YY_MIN_REDUCE ){
#0  sqlite3Parser (yyp=0x7fffffffcf80, yymajor=1, yyminor=...) at sqlite3.c:166611
166611	    if( yyact >= YY_MIN_REDUCE ){
yyp = 0x7fffffffcf80
yymajor = 1
yyminor = {z = 0x51ca3b ";\nDROP TABLE IF EXIXTS t5n;\nDROP TABLE IF EXISTS t6n;\nDROP TABLE IF EXISTS t7;\nDROP TABLE IF EXISTS t8;\nDROP TABLE IF EXISTS t7n;\nDROP TABLE IF EXIXTS t8n;\nCREATE TABLE t4(a UNIQUE);\nCREATE TABLE t5(b"..., n = 1}
yyminorunion = {yyinit = 19, yy0 = {z = 0x13 <error: Cannot access memory at address 0x13>, n = 4494528}, yy33 = 0x13, yy41 = 0x13, yy47 = 0x13, yy131 = 0x13, yy180 = {a = 19, b = 0x4494c0 <sqlite3VdbeExec+42768>}, yy231 = {value = 19, mask = 0}, yy254 = 0x13, yy285 = 19, yy322 = 0x13, yy385 = 0x13, yy394 = 19, yy444 = 0x13, yy516 = 19 '\023', yy521 = 0x13, yy522 = 0x13 <error: Cannot access memory at address 0x13>, yy528 = 0x13, yy595 = {eType = 19, pExpr = 0x4494c0 <sqlite3VdbeExec+42768>}}
yyact = 1175
yypParser = 0x7fffffffcf80
pParse = 0x7fffffffd998
166658	      yy_shift(yypParser,yyact,(YYCODETYPE)yymajor,yyminor);
#0  sqlite3Parser (yyp=0x7fffffffcf80, yymajor=1, yyminor=...) at sqlite3.c:166658
166658	      yy_shift(yypParser,yyact,(YYCODETYPE)yymajor,yyminor);
yyp = 0x7fffffffcf80
yymajor = 1
yyminor = {z = 0x51ca3b ";\nDROP TABLE IF EXIXTS t5n;\nDROP TABLE IF EXISTS t6n;\nDROP TABLE IF EXISTS t7;\nDROP TABLE IF EXISTS t8;\nDROP TABLE IF EXISTS t7n;\nDROP TABLE IF EXIXTS t8n;\nCREATE TABLE t4(a UNIQUE);\nCREATE TABLE t5(b"..., n = 1}
yyminorunion = {yyinit = 19, yy0 = {z = 0x13 <error: Cannot access memory at address 0x13>, n = 4494528}, yy33 = 0x13, yy41 = 0x13, yy47 = 0x13, yy131 = 0x13, yy180 = {a = 19, b = 0x4494c0 <sqlite3VdbeExec+42768>}, yy231 = {value = 19, mask = 0}, yy254 = 0x13, yy285 = 19, yy322 = 0x13, yy385 = 0x13, yy394 = 19, yy444 = 0x13, yy516 = 19 '\023', yy521 = 0x13, yy522 = 0x13 <error: Cannot access memory at address 0x13>, yy528 = 0x13, yy595 = {eType = 19, pExpr = 0x4494c0 <sqlite3VdbeExec+42768>}}
yyact = 1175
yypParser = 0x7fffffffcf80
pParse = 0x7fffffffd998
[Inferior 1 (process 4000) exited normally]
