=====================================================================
TIME: 2022-06-01.07:38:42
=====================================================================
FUZZER ARGS:
 mutationsPerRun : 5
 externalCmd     : NULL
 fuzzStdin       : FALSE
 timeout         : 1 (sec)
 ignoreAddr      : (nil)
 ASLimit         : 0 (MiB)
 RSSLimit        : 0 (MiB)
 DATALimit       : 0 (MiB)
 wordlistFile    : NULL
 dynFileMethod   : 
 fuzzTarget      : ./shuf ___FILE___ --random-source ../../random.txt 
CRASH:
DESCRIPTION: 
ORIG_FNAME: becd95434c19fbb1e3e8c7ac9262582e.000001ab.honggfuzz.cov
FUZZ_FNAME: /home/asl/Desktop/git5/ast-project-silvanbi-julesb/libs/coreutils/shuf/55_3/honggfuzz/SIGFPE.PC.427504.STACK.dff220a92.CODE.1.ADDR.427504.INSTR.idiv___%ebx.fuzz
PID: 857855
SIGNAL: SIGFPE (8)
PC: 0x427504
FAULT ADDRESS: 0x427504
INSTRUCTION: idiv___%ebx
STACK HASH: 0000000dff220a92
STACK:
 <0x0000000000426fe4> [func:main file:/home/asl/Desktop/git_coreutils_hongg/coreutils/src/shuf.c line:593 module:/home/asl/Desktop/git5/ast-project-silvanbi-julesb/libs/coreutils/shuf/55_3/honggfuzz/shuf]
 <0x00007ffff7c4b0b3> [func:UNKNOWN file: line:0 module:/usr/lib/x86_64-linux-gnu/libc-2.31.so]
 <0x0000000000405a3e> [func:_start file: line:0 module:/home/asl/Desktop/git5/ast-project-silvanbi-julesb/libs/coreutils/shuf/55_3/honggfuzz/shuf]
=====================================================================
