Breakpoint 1 at 0x40253b: file src/shuf.c, line 58.
Breakpoint 2 at 0x403665: file src/shuf.c, line 157.
Breakpoint 3 at 0x4039aa: file src/shuf.c, line 204.
Breakpoint 4 at 0x403a9a: file src/shuf.c, line 232.
Breakpoint 5 at 0x403a63: file src/shuf.c, line 225.
Breakpoint 6 at 0x403d05: file src/shuf.c, line 246.
Breakpoint 7 at 0x40371e: file src/shuf.c, line 278.
Breakpoint 8 at 0x403766: file src/shuf.c, line 281.
Breakpoint 9 at 0x403e6b: file src/shuf.c, line 311.
Breakpoint 10 at 0x403db1: file src/shuf.c, line 327.
Breakpoint 11 at 0x403b94: file src/shuf.c, line 345.
Breakpoint 12 at 0x403c58: file src/shuf.c, line 364.
Breakpoint 13 at 0x402f1f: file src/shuf.c, line 484.
Breakpoint 14 at 0x402f5c: file src/shuf.c, line 489.
Breakpoint 15 at 0x402fdf: file src/shuf.c, line 496.
Breakpoint 16 at 0x403285: file src/shuf.c, line 547.
Breakpoint 17 at 0x4032c3: file src/shuf.c, line 559.
Breakpoint 18 at 0x403329: file src/shuf.c, line 562.
Breakpoint 19 at 0x4033bf: file src/shuf.c, line 569.
Breakpoint 20 at 0x4034ee: file src/shuf.c, line 595.
Breakpoint 21 at 0x402b4d: file src/shuf.c, line 417.
Breakpoint 22 at 0x402b7b: file src/shuf.c, line 421.
Breakpoint 23 at 0x402cb3: file src/shuf.c, line 435.
Breakpoint 24 at 0x402d48: file src/shuf.c, line 446.
Breakpoint 25 at 0x402d94: file src/shuf.c, line 448.
Breakpoint 26 at 0x402de6: file src/shuf.c, line 455.
Breakpoint 27 at 0x402e3c: file src/shuf.c, line 461.
Breakpoint 28 at 0x402fff: file src/shuf.c, line 501.
Breakpoint 29 at 0x40302e: file src/shuf.c, line 507.
Breakpoint 30 at 0x4030f6: file src/shuf.c, line 522.
Breakpoint 31 at 0x4033c9: file src/shuf.c, line 571.
Breakpoint 32 at 0x4033e3: file src/shuf.c, line 575.
Breakpoint 33 at 0x40340e: file src/shuf.c, line 577.
Breakpoint 34 at 0x40346e: file src/shuf.c, line 586.

Breakpoint 27, main (argc=4, argv=0x7fffffffdf08) at src/shuf.c:461
461	        if (random_source && !STREQ (random_source, optarg))

Breakpoint 13, main (argc=4, argv=0x7fffffffdf08) at src/shuf.c:484
484	  if (echo && input_range)

Breakpoint 14, main (argc=4, argv=0x7fffffffdf08) at src/shuf.c:489
489	  if (input_range ? 0 < n_operands : !echo && 1 < n_operands)

Breakpoint 15, main (argc=4, argv=0x7fffffffdf08) at src/shuf.c:496
496	  if (head_lines == 0)

Breakpoint 28, main (argc=4, argv=0x7fffffffdf08) at src/shuf.c:501
501	  else if (echo)

Breakpoint 29, main (argc=4, argv=0x7fffffffdf08) at src/shuf.c:507
507	  else if (input_range)

Breakpoint 30, main (argc=4, argv=0x7fffffffdf08) at src/shuf.c:522
522	      if (repeat || head_lines == SIZE_MAX

Breakpoint 7, read_input (in=0x7ffff7fb0980 <_IO_2_1_stdin_>, eolbyte=10 '\n', pline=0x7fffffffddc0) at src/shuf.c:278
278	  if (!(buf = fread_file (in, 0, &used)))

Breakpoint 8, read_input (in=0x7ffff7fb0980 <_IO_2_1_stdin_>, eolbyte=10 '\n', pline=0x7fffffffddc0) at src/shuf.c:281
281	  if (used && buf[used - 1] != eolbyte)

Breakpoint 16, main (argc=4, argv=0x7fffffffdf08) at src/shuf.c:547
547	  if (use_reservoir_sampling)

Breakpoint 17, main (argc=4, argv=0x7fffffffdf08) at src/shuf.c:559
559	  if (! (head_lines == 0 || echo || input_range || fclose (stdin) == 0))

Breakpoint 18, main (argc=4, argv=0x7fffffffdf08) at src/shuf.c:562
562	  if (!repeat)

Breakpoint 19, main (argc=4, argv=0x7fffffffdf08) at src/shuf.c:569
569	  if (repeat)

Breakpoint 34, main (argc=4, argv=0x7fffffffdf08) at src/shuf.c:586
586	      if (use_reservoir_sampling)

Breakpoint 9, write_permuted_lines (n_lines=50, line=0x41c700, permutation=0x41b6f0) at src/shuf.c:311
311	      if (fwrite (p[0], sizeof *p[0], len, stdout) != len)

Breakpoint 9, write_permuted_lines (n_lines=50, line=0x41c700, permutation=0x41b6f0) at src/shuf.c:311
311	      if (fwrite (p[0], sizeof *p[0], len, stdout) != len)

Breakpoint 9, write_permuted_lines (n_lines=50, line=0x41c700, permutation=0x41b6f0) at src/shuf.c:311
311	      if (fwrite (p[0], sizeof *p[0], len, stdout) != len)

Breakpoint 9, write_permuted_lines (n_lines=50, line=0x41c700, permutation=0x41b6f0) at src/shuf.c:311
311	      if (fwrite (p[0], sizeof *p[0], len, stdout) != len)

Breakpoint 9, write_permuted_lines (n_lines=50, line=0x41c700, permutation=0x41b6f0) at src/shuf.c:311
311	      if (fwrite (p[0], sizeof *p[0], len, stdout) != len)

Breakpoint 9, write_permuted_lines (n_lines=50, line=0x41c700, permutation=0x41b6f0) at src/shuf.c:311
311	      if (fwrite (p[0], sizeof *p[0], len, stdout) != len)

Breakpoint 9, write_permuted_lines (n_lines=50, line=0x41c700, permutation=0x41b6f0) at src/shuf.c:311
311	      if (fwrite (p[0], sizeof *p[0], len, stdout) != len)

Breakpoint 9, write_permuted_lines (n_lines=50, line=0x41c700, permutation=0x41b6f0) at src/shuf.c:311
311	      if (fwrite (p[0], sizeof *p[0], len, stdout) != len)

Breakpoint 9, write_permuted_lines (n_lines=50, line=0x41c700, permutation=0x41b6f0) at src/shuf.c:311
311	      if (fwrite (p[0], sizeof *p[0], len, stdout) != len)

Breakpoint 9, write_permuted_lines (n_lines=50, line=0x41c700, permutation=0x41b6f0) at src/shuf.c:311
311	      if (fwrite (p[0], sizeof *p[0], len, stdout) != len)

Breakpoint 9, write_permuted_lines (n_lines=50, line=0x41c700, permutation=0x41b6f0) at src/shuf.c:311
311	      if (fwrite (p[0], sizeof *p[0], len, stdout) != len)

Breakpoint 9, write_permuted_lines (n_lines=50, line=0x41c700, permutation=0x41b6f0) at src/shuf.c:311
311	      if (fwrite (p[0], sizeof *p[0], len, stdout) != len)

Breakpoint 9, write_permuted_lines (n_lines=50, line=0x41c700, permutation=0x41b6f0) at src/shuf.c:311
311	      if (fwrite (p[0], sizeof *p[0], len, stdout) != len)

Breakpoint 9, write_permuted_lines (n_lines=50, line=0x41c700, permutation=0x41b6f0) at src/shuf.c:311
311	      if (fwrite (p[0], sizeof *p[0], len, stdout) != len)

Breakpoint 9, write_permuted_lines (n_lines=50, line=0x41c700, permutation=0x41b6f0) at src/shuf.c:311
311	      if (fwrite (p[0], sizeof *p[0], len, stdout) != len)

Breakpoint 9, write_permuted_lines (n_lines=50, line=0x41c700, permutation=0x41b6f0) at src/shuf.c:311
311	      if (fwrite (p[0], sizeof *p[0], len, stdout) != len)

Breakpoint 9, write_permuted_lines (n_lines=50, line=0x41c700, permutation=0x41b6f0) at src/shuf.c:311
311	      if (fwrite (p[0], sizeof *p[0], len, stdout) != len)

Breakpoint 9, write_permuted_lines (n_lines=50, line=0x41c700, permutation=0x41b6f0) at src/shuf.c:311
311	      if (fwrite (p[0], sizeof *p[0], len, stdout) != len)

Breakpoint 9, write_permuted_lines (n_lines=50, line=0x41c700, permutation=0x41b6f0) at src/shuf.c:311
311	      if (fwrite (p[0], sizeof *p[0], len, stdout) != len)

Breakpoint 9, write_permuted_lines (n_lines=50, line=0x41c700, permutation=0x41b6f0) at src/shuf.c:311
311	      if (fwrite (p[0], sizeof *p[0], len, stdout) != len)

Breakpoint 9, write_permuted_lines (n_lines=50, line=0x41c700, permutation=0x41b6f0) at src/shuf.c:311
311	      if (fwrite (p[0], sizeof *p[0], len, stdout) != len)

Breakpoint 9, write_permuted_lines (n_lines=50, line=0x41c700, permutation=0x41b6f0) at src/shuf.c:311
311	      if (fwrite (p[0], sizeof *p[0], len, stdout) != len)

Breakpoint 9, write_permuted_lines (n_lines=50, line=0x41c700, permutation=0x41b6f0) at src/shuf.c:311
311	      if (fwrite (p[0], sizeof *p[0], len, stdout) != len)

Breakpoint 9, write_permuted_lines (n_lines=50, line=0x41c700, permutation=0x41b6f0) at src/shuf.c:311
311	      if (fwrite (p[0], sizeof *p[0], len, stdout) != len)

Breakpoint 9, write_permuted_lines (n_lines=50, line=0x41c700, permutation=0x41b6f0) at src/shuf.c:311
311	      if (fwrite (p[0], sizeof *p[0], len, stdout) != len)

Breakpoint 9, write_permuted_lines (n_lines=50, line=0x41c700, permutation=0x41b6f0) at src/shuf.c:311
311	      if (fwrite (p[0], sizeof *p[0], len, stdout) != len)

Breakpoint 9, write_permuted_lines (n_lines=50, line=0x41c700, permutation=0x41b6f0) at src/shuf.c:311
311	      if (fwrite (p[0], sizeof *p[0], len, stdout) != len)

Breakpoint 9, write_permuted_lines (n_lines=50, line=0x41c700, permutation=0x41b6f0) at src/shuf.c:311
311	      if (fwrite (p[0], sizeof *p[0], len, stdout) != len)

Breakpoint 9, write_permuted_lines (n_lines=50, line=0x41c700, permutation=0x41b6f0) at src/shuf.c:311
311	      if (fwrite (p[0], sizeof *p[0], len, stdout) != len)

Breakpoint 9, write_permuted_lines (n_lines=50, line=0x41c700, permutation=0x41b6f0) at src/shuf.c:311
311	      if (fwrite (p[0], sizeof *p[0], len, stdout) != len)

Breakpoint 9, write_permuted_lines (n_lines=50, line=0x41c700, permutation=0x41b6f0) at src/shuf.c:311
311	      if (fwrite (p[0], sizeof *p[0], len, stdout) != len)

Breakpoint 9, write_permuted_lines (n_lines=50, line=0x41c700, permutation=0x41b6f0) at src/shuf.c:311
311	      if (fwrite (p[0], sizeof *p[0], len, stdout) != len)

Breakpoint 9, write_permuted_lines (n_lines=50, line=0x41c700, permutation=0x41b6f0) at src/shuf.c:311
311	      if (fwrite (p[0], sizeof *p[0], len, stdout) != len)

Breakpoint 9, write_permuted_lines (n_lines=50, line=0x41c700, permutation=0x41b6f0) at src/shuf.c:311
311	      if (fwrite (p[0], sizeof *p[0], len, stdout) != len)

Breakpoint 9, write_permuted_lines (n_lines=50, line=0x41c700, permutation=0x41b6f0) at src/shuf.c:311
311	      if (fwrite (p[0], sizeof *p[0], len, stdout) != len)

Breakpoint 9, write_permuted_lines (n_lines=50, line=0x41c700, permutation=0x41b6f0) at src/shuf.c:311
311	      if (fwrite (p[0], sizeof *p[0], len, stdout) != len)

Breakpoint 9, write_permuted_lines (n_lines=50, line=0x41c700, permutation=0x41b6f0) at src/shuf.c:311
311	      if (fwrite (p[0], sizeof *p[0], len, stdout) != len)

Breakpoint 9, write_permuted_lines (n_lines=50, line=0x41c700, permutation=0x41b6f0) at src/shuf.c:311
311	      if (fwrite (p[0], sizeof *p[0], len, stdout) != len)

Breakpoint 9, write_permuted_lines (n_lines=50, line=0x41c700, permutation=0x41b6f0) at src/shuf.c:311
311	      if (fwrite (p[0], sizeof *p[0], len, stdout) != len)

Breakpoint 9, write_permuted_lines (n_lines=50, line=0x41c700, permutation=0x41b6f0) at src/shuf.c:311
311	      if (fwrite (p[0], sizeof *p[0], len, stdout) != len)

Breakpoint 9, write_permuted_lines (n_lines=50, line=0x41c700, permutation=0x41b6f0) at src/shuf.c:311
311	      if (fwrite (p[0], sizeof *p[0], len, stdout) != len)

Breakpoint 9, write_permuted_lines (n_lines=50, line=0x41c700, permutation=0x41b6f0) at src/shuf.c:311
311	      if (fwrite (p[0], sizeof *p[0], len, stdout) != len)

Breakpoint 9, write_permuted_lines (n_lines=50, line=0x41c700, permutation=0x41b6f0) at src/shuf.c:311
311	      if (fwrite (p[0], sizeof *p[0], len, stdout) != len)

Breakpoint 9, write_permuted_lines (n_lines=50, line=0x41c700, permutation=0x41b6f0) at src/shuf.c:311
311	      if (fwrite (p[0], sizeof *p[0], len, stdout) != len)

Breakpoint 9, write_permuted_lines (n_lines=50, line=0x41c700, permutation=0x41b6f0) at src/shuf.c:311
311	      if (fwrite (p[0], sizeof *p[0], len, stdout) != len)

Breakpoint 9, write_permuted_lines (n_lines=50, line=0x41c700, permutation=0x41b6f0) at src/shuf.c:311
311	      if (fwrite (p[0], sizeof *p[0], len, stdout) != len)

Breakpoint 9, write_permuted_lines (n_lines=50, line=0x41c700, permutation=0x41b6f0) at src/shuf.c:311
311	      if (fwrite (p[0], sizeof *p[0], len, stdout) != len)

Breakpoint 9, write_permuted_lines (n_lines=50, line=0x41c700, permutation=0x41b6f0) at src/shuf.c:311
311	      if (fwrite (p[0], sizeof *p[0], len, stdout) != len)

Breakpoint 9, write_permuted_lines (n_lines=50, line=0x41c700, permutation=0x41b6f0) at src/shuf.c:311
311	      if (fwrite (p[0], sizeof *p[0], len, stdout) != len)

Breakpoint 9, write_permuted_lines (n_lines=50, line=0x41c700, permutation=0x41b6f0) at src/shuf.c:311
311	      if (fwrite (p[0], sizeof *p[0], len, stdout) != len)

Breakpoint 20, main (argc=4, argv=0x7fffffffdf08) at src/shuf.c:595
595	  if (i != 0)
ers54hzrehz
xcgfd
4z
ujztjrt5shtrthzh
hrt5hz
zh
herqerh
zg
rddx
gdjs
jgj
awtgfteg
a
hzrtsh
s<wfgeq<w
ftgjndysdrsehedhbgtrf
sdfcvcx
lgzt
r
zht5rhtrjmndzt
re54zhtrhtr6
ljk
ewgrehrtf
45w
12r5z
45e54z¨
dfztd
heasghwarg
z45zg
zzrdtjz75
jnrsrjrts
6uz5erhjtf
rtjrthr5ruz
j53785e6ujz5t
45z
hngftygdsygggggeyd<jndgt
54ze454zggz
gfhjhfjgf
5z5r4z4z45z
gtxfrhjnxf
trehs
er54
utzh
rsegrebgftrrtjmghmn
ersgr5t4hujhr6zh
e5z45
ersahzkhfkztjnteshegha
tze4
45z
tr6shze54z
[Inferior 1 (process 28445) exited normally]
