=====================================================================
TIME: 2022-05-29.16:22:54
=====================================================================
FUZZER ARGS:
 mutationsPerRun : 5
 externalCmd     : NULL
 fuzzStdin       : FALSE
 timeout         : 1 (sec)
 ignoreAddr      : (nil)
 ASLimit         : 0 (MiB)
 RSSLimit        : 0 (MiB)
 DATALimit       : 0 (MiB)
 wordlistFile    : ../../../sqlite/dictionary.txt
 dynFileMethod   : 
 fuzzTarget      : ./bug4-hfuzz ___FILE___ 
CRASH:
DESCRIPTION: 
ORIG_FNAME: fe0d1d392cb913273091105f1908ee40.0000191d.honggfuzz.cov
FUZZ_FNAME: /home/asl/Documents/ast-project-silvanbi-julesb/libs/sqlite/b4/SIGFPE.PC.437ece.STACK.1a4a4eef57.CODE.1.ADDR.437ece.INSTR.idiv___%ebx.fuzz
PID: 1698432
SIGNAL: SIGFPE (8)
PC: 0x437ece
FAULT ADDRESS: 0x437ece
INSTRUCTION: idiv___%ebx
STACK HASH: 0000001a4a4eef57
STACK:
 <0x00000000004382b6> [func:enlargeAndAppend file:/home/asl/Documents/ast-project-silvanbi-julesb/libs/sqlite/b4/sqlite3_30396_1.c line:30461 module:/home/asl/Documents/ast-project-silvanbi-julesb/libs/sqlite/b4/bug4-hfuzz-opt]
 <0x000000000043656a> [func:sqlite3_str_vappendf file: line:0 module:/home/asl/Documents/ast-project-silvanbi-julesb/libs/sqlite/b4/bug4-hfuzz-opt]
 <0x0000000000438dda> [func:sqlite3StrAccumFinish file:/home/asl/Documents/ast-project-silvanbi-julesb/libs/sqlite/b4/sqlite3_30396_1.c line:30513 module:/home/asl/Documents/ast-project-silvanbi-julesb/libs/sqlite/b4/bug4-hfuzz-opt]
 <0x0000000000425fea> [func:LLVMFuzzerTestOneInput file:/home/asl/Documents/ast-project-silvanbi-julesb/sqlite/sqlite-amalgamation-3380500/ossfuzz.c line:179 module:/home/asl/Documents/ast-project-silvanbi-julesb/libs/sqlite/b4/bug4-hfuzz-opt]
 <0x0000000000425d1b> [func:main file:/home/asl/Documents/ast-project-silvanbi-julesb/sqlite/sqlite-amalgamation-3380500/sqlharness.c line:0 module:/home/asl/Documents/ast-project-silvanbi-julesb/libs/sqlite/b4/bug4-hfuzz-opt]
 <0x00007ffff7c480b3> [func:UNKNOWN file: line:0 module:/usr/lib/x86_64-linux-gnu/libc-2.31.so]
 <0x00000000004058ce> [func:_start file: line:0 module:/home/asl/Documents/ast-project-silvanbi-julesb/libs/sqlite/b4/bug4-hfuzz-opt]
=====================================================================
