set pagination off
set breakpoint pending on 
break buf.c:126
break buf.c:137
break buf.c:158
break buf.c:161
break buf.c:171
break buf.c:173
break buf.c:199
break buf.c:201
break buf.c:203
break buf.c:205
break buf.c:233
break buf.c:237
break buf.c:261
break buf.c:283
break buf.c:290
break buf.c:293
break buf.c:307
break buf.c:323
break buf.c:331
break buf.c:334
break buf.c:349
break buf.c:350
break buf.c:353
break buf.c:355
break buf.c:382
break buf.c:384
break buf.c:385
break buf.c:388
break buf.c:401
break buf.c:403
break buf.c:434
break buf.c:437
break buf.c:440
break buf.c:443
break buf.c:450
break buf.c:462
break buf.c:454
break buf.c:466
break buf.c:474
break buf.c:499
break buf.c:500
break buf.c:503
break buf.c:520
break buf.c:527
break buf.c:535
break buf.c:553
break buf.c:571
break buf.c:591
break buf.c:594
break buf.c:599
break buf.c:618
break buf.c:637
break buf.c:658
break buf.c:676
break buf.c:699
break buf.c:703
break buf.c:704
break buf.c:715
break buf.c:759
break buf.c:708
break buf.c:762
break buf.c:770
break buf.c:778
break buf.c:795
break buf.c:780
break buf.c:789
break buf.c:823
break buf.c:827
break buf.c:828
break buf.c:835
break buf.c:840
break buf.c:841
break buf.c:843
break buf.c:844
break buf.c:847
break buf.c:856
break buf.c:851
break buf.c:881
break buf.c:884
break buf.c:885
break buf.c:919
break buf.c:922
break buf.c:924
break buf.c:925
break buf.c:976
break buf.c:980
break buf.c:1012
break buf.c:1015
break buf.c:1024
break buf.c:1033
break buf.c:1067
break buf.c:1072
break buf.c:1091
break buf.c:1112
break buf.c:1120
break buf.c:1142
break buf.c:1144
break chvalid.c:173
break chvalid.c:174
break chvalid.c:175
break chvalid.c:182
break chvalid.c:185
break chvalid.c:193
break chvalid.c:201
break chvalid.c:204
break dict.c:174
break dict.c:177
break dict.c:198
break dict.c:225
break dict.c:264
break dict.c:255
break dict.c:257
break dict.c:265
break dict.c:269
break dict.c:271
break dict.c:274
break dict.c:332
break dict.c:323
break dict.c:325
break dict.c:333
break dict.c:337
break dict.c:339
break dict.c:342
break dict.c:385
break dict.c:456
break dict.c:459
break dict.c:501
break dict.c:506
break dict.c:539
break dict.c:508
break dict.c:512
break dict.c:580
break dict.c:589
break dict.c:581
break dict.c:598
break dict.c:627
break dict.c:648
break dict.c:652
break dict.c:649
break dict.c:680
break dict.c:682
break dict.c:684
break dict.c:693
break dict.c:695
break dict.c:699
break dict.c:713
break dict.c:716
break dict.c:722
break dict.c:730
break dict.c:759
break dict.c:764
break dict.c:809
break dict.c:812
break dict.c:819
break dict.c:826
break dict.c:830
break dict.c:813
break dict.c:874
break dict.c:877
break dict.c:883
break dict.c:892
break dict.c:921
break dict.c:966
break dict.c:968
break dict.c:982
break dict.c:987
break dict.c:910
break dict.c:898
break dict.c:925
break dict.c:934
break dict.c:952
break dict.c:940
break dict.c:972
break dict.c:989
break dict.c:1013
break dict.c:1016
break dict.c:1020
break dict.c:1029
break dict.c:1058
break dict.c:1047
break dict.c:1035
break dict.c:1062
break dict.c:1071
break dict.c:1089
break dict.c:1077
break dict.c:1123
break dict.c:1137
break dict.c:1152
break dict.c:1182
break dict.c:1184
break dict.c:1197
break dict.c:1156
break dict.c:1165
break dict.c:1188
break dict.c:1224
break dict.c:1228
break dict.c:1248
break dict.c:1269
break dict.c:1290
break dict_o.c:174
break dict_o.c:177
break dict_o.c:198
break dict_o.c:225
break dict_o.c:264
break dict_o.c:255
break dict_o.c:257
break dict_o.c:265
break dict_o.c:269
break dict_o.c:271
break dict_o.c:274
break dict_o.c:332
break dict_o.c:323
break dict_o.c:325
break dict_o.c:333
break dict_o.c:337
break dict_o.c:339
break dict_o.c:342
break dict_o.c:385
break dict_o.c:456
break dict_o.c:459
break dict_o.c:501
break dict_o.c:506
break dict_o.c:539
break dict_o.c:508
break dict_o.c:512
break dict_o.c:580
break dict_o.c:589
break dict_o.c:581
break dict_o.c:598
break dict_o.c:627
break dict_o.c:648
break dict_o.c:652
break dict_o.c:649
break dict_o.c:680
break dict_o.c:682
break dict_o.c:684
break dict_o.c:693
break dict_o.c:695
break dict_o.c:699
break dict_o.c:713
break dict_o.c:716
break dict_o.c:722
break dict_o.c:730
break dict_o.c:759
break dict_o.c:764
break dict_o.c:809
break dict_o.c:812
break dict_o.c:819
break dict_o.c:826
break dict_o.c:830
break dict_o.c:813
break dict_o.c:874
break dict_o.c:877
break dict_o.c:882
break dict_o.c:891
break dict_o.c:920
break dict_o.c:965
break dict_o.c:967
break dict_o.c:981
break dict_o.c:986
break dict_o.c:909
break dict_o.c:897
break dict_o.c:924
break dict_o.c:933
break dict_o.c:951
break dict_o.c:939
break dict_o.c:971
break dict_o.c:988
break dict_o.c:1012
break dict_o.c:1015
break dict_o.c:1019
break dict_o.c:1028
break dict_o.c:1057
break dict_o.c:1046
break dict_o.c:1034
break dict_o.c:1061
break dict_o.c:1070
break dict_o.c:1088
break dict_o.c:1076
break dict_o.c:1122
break dict_o.c:1136
break dict_o.c:1151
break dict_o.c:1181
break dict_o.c:1183
break dict_o.c:1196
break dict_o.c:1155
break dict_o.c:1164
break dict_o.c:1187
break dict_o.c:1223
break dict_o.c:1227
break dict_o.c:1247
break dict_o.c:1268
break dict_o.c:1289
break encoding.c:1351
break encoding.c:1357
break encoding.c:1368
break encoding.c:1378
break encoding.c:1364
break encoding.c:1424
break encoding.c:1429
break encoding.c:1436
break encoding.c:1430
break encoding.c:1486
break encoding.c:1490
break encoding.c:1510
break encoding.c:1511
break encoding.c:1517
break encoding.c:1527
break encoding.c:1528
break encoding.c:1547
break encoding.c:1693
break encoding.c:1702
break encoding.c:1714
break encoding.c:1804
break encoding.c:1710
break encoding.c:1716
break encoding.c:1807
break encoding.c:1984
break encoding.c:1986
break encoding.c:2033
break encoding.c:2035
break encoding.c:2080
break encoding.c:2081
break encoding.c:2082
break encoding.c:2095
break encoding.c:2102
break encoding.c:2112
break encoding.c:2140
break encoding.c:2141
break encoding.c:2096
break encoding.c:2099
break encoding.c:2191
break encoding.c:2198
break encoding.c:2209
break encoding.c:2216
break encoding.c:2220
break encoding.c:2229
break encoding.c:2270
break encoding.c:2271
break encoding.c:2210
break encoding.c:2213
break encoding.c:2298
break encoding.c:2305
break encoding.c:2307
break encoding.c:2310
break encoding.c:2312
break encoding.c:2318
break encoding.c:2327
break encoding.c:2368
break encoding.c:2315
break encoding.c:2394
break encoding.c:2396
break encoding.c:2398
break encoding.c:2402
break encoding.c:2405
break encoding.c:2414
break encoding.c:2454
break encoding.c:2658
break encoding.c:2659
break encoding.c:2665
break encoding.c:2671
break encoding.c:2689
break encoding.c:2691
break encoding.c:2701
break encoding.c:2702
break encoding.c:2744
break encoding.c:2769
break encoding.c:2810
break encoding.c:2811
break encoding.c:2812
break encoding.c:2854
break encoding.c:2814
break encoding.c:2891
break encoding.c:2893
break encoding.c:2894
break encoding.c:2902
break encoding.c:2924
break encoding.c:2914
break encoding.c:2915
break globals.c:464
break globals.c:539
break globals.c:642
break globals.c:752
break globals.c:778
break globals.c:815
break globals.c:850
break globals.c:859
break globals.c:868
break globals.c:885
break globals.c:902
break globals.c:919
break globals.c:936
break globals.c:953
break globals.c:970
break globals.c:987
break globals.c:996
break globals.c:1013
break globals.c:1030
break hash.c:89
break hash.c:96
break hash.c:102
break hash.c:129
break hash.c:135
break hash.c:141
break hash.c:147
break hash.c:153
break hash.c:159
break hash.c:179
break hash.c:183
break hash.c:188
break hash.c:214
break hash.c:240
break hash.c:242
break hash.c:244
break hash.c:249
break hash.c:253
break hash.c:267
break hash.c:286
break hash.c:329
break hash.c:331
break hash.c:538
break hash.c:544
break hash.c:566
break hash.c:598
break hash.c:606
break hash.c:620
break hash.c:545
break hash.c:550
break hash.c:555
break hash.c:547
break hash.c:552
break hash.c:557
break hash.c:569
break hash.c:578
break hash.c:572
break hash.c:591
break hash.c:585
break hash.c:602
break hash.c:654
break hash.c:660
break hash.c:682
break hash.c:728
break hash.c:736
break hash.c:751
break hash.c:661
break hash.c:666
break hash.c:671
break hash.c:663
break hash.c:668
break hash.c:673
break hash.c:685
break hash.c:697
break hash.c:688
break hash.c:717
break hash.c:708
break hash.c:732
break hash.c:774
break hash.c:776
break hash.c:779
break hash.c:781
break hash.c:783
break hash.c:790
break hash.c:820
break hash.c:822
break hash.c:826
break hash.c:829
break hash.c:880
break hash.c:882
break hash.c:885
break hash.c:957
break hash.c:959
break hash.c:962
break hash.c:998
break hash.c:1000
break hash.c:1004
break hash.c:1007
break hash.c:1035
break hash.c:1097
break hash.c:1101
break hash.c:1105
break hash.c:1111
break hash.c:1119
break hash.c:1123
break list.c:81
break list.c:83
break list.c:102
break list.c:122
break list.c:141
break list.c:144
break list.c:166
break list.c:169
break list.c:191
break list.c:200
break list.c:234
break list.c:255
break list.c:277
break list.c:282
break list.c:309
break list.c:314
break list.c:335
break list.c:357
break list.c:361
break list.c:382
break list.c:386
break list.c:407
break list.c:426
break list.c:448
break list.c:464
break list.c:480
break list.c:499
break list.c:546
break list.c:551
break list.c:578
break list.c:582
break list.c:606
break list.c:623
break list.c:647
break list.c:649
break list.c:658
break list.c:679
break list.c:700
break list.c:736
break list.c:744
break list.c:746
break list.c:766
break parser.c:132
break parser.c:134
break parser.c:141
break parser.c:174
break parser.c:190
break parser.c:153
break parser.c:158
break parser.c:161
break parser.c:180
break parser.c:207
break parser.c:191
break parser.c:199
break parser.c:205
break parser.c:226
break parser.c:211
break parser.c:217
break parser.c:223
break parser.c:235
break parser.c:245
break parser.c:251
break parser.c:343
break parser.c:360
break parser.c:380
break parser.c:567
break parser.c:576
break parser.c:1152
break parser.c:1166
break parser.c:1190
break parser.c:1193
break parser.c:1211
break parser.c:1222
break parser.c:1215
break parser.c:1252
break parser.c:1257
break parser.c:1268
break parser.c:1280
break parser.c:1313
break parser.c:1253
break parser.c:1259
break parser.c:1292
break parser.c:1283
break parser.c:1287
break parser.c:1297
break parser.c:1301
break parser.c:1356
break parser.c:1362
break parser.c:1358
break parser.c:1385
break parser.c:1401
break parser.c:1406
break parser.c:1476
break parser.c:1478
break parser.c:1497
break parser.c:1505
break parser.c:1508
break parser.c:1510
break parser.c:1516
break parser.c:1522
break parser.c:1524
break parser.c:1526
break parser.c:1528
break parser.c:1531
break parser.c:1533
break parser.c:1539
break parser.c:1545
break parser.c:1547
break parser.c:1549
break parser.c:1555
break parser.c:1561
break parser.c:1568
break parser.c:1570
break parser.c:1576
break parser.c:1586
break parser.c:1593
break parser.c:1501
break parser.c:1553
break parser.c:1574
break parser.c:1591
break parser.c:1599
break parser.c:1631
break parser.c:1643
break parser.c:1634
break parser.c:1636
break parser.c:1653
break parser.c:1648
break parser.c:1658
break parser.c:1683
break parser.c:1684
break parser.c:1688
break parser.c:1705
break parser.c:1715
break parser.c:1709
break parser.c:1712
break parser.c:1719
break parser.c:1723
break parser.c:1745
break parser.c:1747
break parser.c:1753
break parser.c:1778
break parser.c:1780
break parser.c:1803
break parser.c:1804
break parser.c:1817
break parser.c:1810
break parser.c:1843
break parser.c:1844
break parser.c:1875
break parser.c:1895
break parser.c:1882
break parser.c:1890
break parser.c:1898
break parser.c:1952
break parser.c:1954
break parser.c:1959
break parser.c:1985
break parser.c:1998
break parser.c:2004
break parser.c:2018
break parser.c:2125
break parser.c:2135
break parser.c:2191
break parser.c:2218
break parser.c:2242
break parser.c:2220
break parser.c:2227
break parser.c:2224
break parser.c:2228
break parser.c:2266
break parser.c:2292
break parser.c:2294
break parser.c:2302
break parser.c:2310
break parser.c:2339
break parser.c:2409
break parser.c:2367
break parser.c:2395
break parser.c:2413
break parser.c:2447
break parser.c:2450
break parser.c:2503
break parser.c:2507
break parser.c:2655
break parser.c:2659
break parser.c:2671
break parser.c:2677
break parser.c:2841
break parser.c:2873
break parser.c:2879
break parser.c:2886
break parser.c:2894
break parser.c:2895
break parser.c:2904
break parser.c:2905
break parser.c:2909
break parser.c:2888
break parser.c:2897
break parser.c:2898
break parser.c:2912
break parser.c:2910
break parser.c:2914
break parser.c:2955
break parser.c:2958
break parser.c:2976
break parser.c:3009
break parser.c:3016
break parser.c:3025
break parser.c:2984
break parser.c:2990
break parser.c:2996
break parser.c:3028
break parser.c:3037
break parser.c:3055
break parser.c:3088
break parser.c:3043
break parser.c:3063
break parser.c:3069
break parser.c:3075
break parser.c:3131
break parser.c:3136
break parser.c:3154
break parser.c:3162
break parser.c:3167
break parser.c:3189
break parser.c:3216
break parser.c:3219
break parser.c:3303
break parser.c:3308
break parser.c:3224
break parser.c:3266
break parser.c:3269
break parser.c:3277
break parser.c:3292
break parser.c:3295
break parser.c:3355
break parser.c:3365
break parser.c:3367
break parser.c:3401
break parser.c:3437
break parser.c:3475
break parser.c:3485
break parser.c:3487
break parser.c:3489
break parser.c:3497
break parser.c:3525
break parser.c:3533
break parser.c:3542
break parser.c:3578
break parser.c:3632
break parser.c:3666
break parser.c:3735
break parser.c:3737
break parser.c:3769
break parser.c:3776
break parser.c:3788
break parser.c:3825
break parser.c:3827
break parser.c:3880
break parser.c:3770
break parser.c:3914
break parser.c:3932
break parser.c:4099
break parser.c:4102
break parser.c:4106
break parser.c:4123
break parser.c:4129
break parser.c:3918
break parser.c:4108
break parser.c:4109
break parser.c:4178
break parser.c:4204
break parser.c:4216
break parser.c:4264
break parser.c:4207
break parser.c:4294
break parser.c:4305
break parser.c:4350
break parser.c:4297
break parser.c:4429
break parser.c:4624
break parser.c:4642
break parser.c:4579
break parser.c:4590
break parser.c:4616
break parser.c:4581
break parser.c:4596
break parser.c:4612
break parser.c:4597
break parser.c:4620
break parser.c:4629
break parser.c:4630
break parser.c:4680
break parser.c:4690
break parser.c:4682
break parser.c:4687
break parser.c:4692
break parser.c:4697
break parser.c:4700
break parser.c:4719
break parser.c:4704
break parser.c:4715
break parser.c:4716
break parser.c:4751
break parser.c:4762
break parser.c:4764
break parser.c:4773
break parser.c:4775
break parser.c:4784
break parser.c:4838
break parser.c:4755
break parser.c:4789
break parser.c:4792
break parser.c:4799
break parser.c:4820
break parser.c:4831
break parser.c:4805
break parser.c:4824
break parser.c:4841
break parser.c:4846
break parser.c:4889
break parser.c:5056
break parser.c:5079
break parser.c:5061
break parser.c:5066
break parser.c:5071
break parser.c:5169
break parser.c:5184
break parser.c:5185
break parser.c:5205
break parser.c:5210
break parser.c:5257
break parser.c:5266
break parser.c:5186
break parser.c:5270
break parser.c:5328
break parser.c:5332
break parser.c:5339
break parser.c:5343
break parser.c:5348
break parser.c:5360
break parser.c:5361
break parser.c:5410
break parser.c:5414
break parser.c:5419
break parser.c:5429
break parser.c:5434
break parser.c:5439
break parser.c:5448
break parser.c:5597
break parser.c:5600
break parser.c:5612
break parser.c:5421
break parser.c:5449
break parser.c:5451
break parser.c:5460
break parser.c:5463
break parser.c:5467
break parser.c:5476
break parser.c:5495
break parser.c:5505
break parser.c:5507
break parser.c:5509
break parser.c:5524
break parser.c:5527
break parser.c:5550
break parser.c:5554
break parser.c:5531
break parser.c:5540
break parser.c:5556
break parser.c:5575
break parser.c:5578
break parser.c:5580
break parser.c:5605
break parser.c:5618
break parser.c:5630
break parser.c:5626
break parser.c:5679
break parser.c:5683
break parser.c:5688
break parser.c:5698
break parser.c:5691
break parser.c:5728
break parser.c:5769
break parser.c:5798
break parser.c:5839
break parser.c:5864
break parser.c:5876
break parser.c:5866
break parser.c:5872
break parser.c:5928
break parser.c:5931
break parser.c:5934
break parser.c:5937
break parser.c:5940
break parser.c:5943
break parser.c:5946
break parser.c:5949
break parser.c:5973
break parser.c:5977
break parser.c:5982
break parser.c:6065
break parser.c:6066
break parser.c:6101
break parser.c:6105
break parser.c:6121
break parser.c:6162
break parser.c:6106
break parser.c:6113
break parser.c:6115
break parser.c:6123
break parser.c:6163
break parser.c:6171
break parser.c:6228
break parser.c:6237
break parser.c:6416
break parser.c:6421
break parser.c:6427
break parser.c:6245
break parser.c:6251
break parser.c:6256
break parser.c:6261
break parser.c:6264
break parser.c:6267
break parser.c:6436
break parser.c:6428
break parser.c:6457
break parser.c:6437
break parser.c:6458
break parser.c:6554
break parser.c:6561
break parser.c:6564
break parser.c:6596
break parser.c:6600
break parser.c:6606
break parser.c:6611
break parser.c:6615
break parser.c:6647
break parser.c:6621
break parser.c:6628
break parser.c:6634
break parser.c:6649
break parser.c:6653
break parser.c:6660
break parser.c:6675
break parser.c:6666
break parser.c:6860
break parser.c:6891
break parser.c:6861
break parser.c:6882
break parser.c:6915
break parser.c:6926
break parser.c:6935
break parser.c:6949
break parser.c:6956
break parser.c:6962
break parser.c:6938
break parser.c:6964
break parser.c:6995
break parser.c:7009
break parser.c:7019
break parser.c:7052
break parser.c:7011
break parser.c:7021
break parser.c:7078
break parser.c:7084
break parser.c:7130
break parser.c:7131
break parser.c:7136
break parser.c:7159
break parser.c:7287
break parser.c:7342
break parser.c:7351
break parser.c:7090
break parser.c:7092
break parser.c:7098
break parser.c:7139
break parser.c:7278
break parser.c:7171
break parser.c:7182
break parser.c:7205
break parser.c:7210
break parser.c:7216
break parser.c:7221
break parser.c:7188
break parser.c:7262
break parser.c:7222
break parser.c:7230
break parser.c:7269
break parser.c:7294
break parser.c:7328
break parser.c:7301
break parser.c:7306
break parser.c:7323
break parser.c:7311
break parser.c:7365
break parser.c:7371
break parser.c:7419
break parser.c:7379
break parser.c:7427
break parser.c:7527
break parser.c:7530
break parser.c:7534
break parser.c:7539
break parser.c:7548
break parser.c:7563
break parser.c:7574
break parser.c:7597
break parser.c:7569
break parser.c:7621
break parser.c:7598
break parser.c:7606
break parser.c:7631
break parser.c:7642
break parser.c:7645
break parser.c:7715
break parser.c:7719
break parser.c:7724
break parser.c:7730
break parser.c:7742
break parser.c:7760
break parser.c:7769
break parser.c:7795
break parser.c:7744
break parser.c:7765
break parser.c:7815
break parser.c:7796
break parser.c:7825
break parser.c:7836
break parser.c:7909
break parser.c:7913
break parser.c:7920
break parser.c:7938
break parser.c:7940
break parser.c:7949
break parser.c:7963
break parser.c:7978
break parser.c:7987
break parser.c:7990
break parser.c:8000
break parser.c:8005
break parser.c:8016
break parser.c:8018
break parser.c:8029
break parser.c:8024
break parser.c:8057
break parser.c:8071
break parser.c:8079
break parser.c:8090
break parser.c:8121
break parser.c:8123
break parser.c:8175
break parser.c:8178
break parser.c:8182
break parser.c:8189
break parser.c:8208
break parser.c:8213
break parser.c:8222
break parser.c:8244
break parser.c:8288
break parser.c:8301
break parser.c:8315
break parser.c:8322
break parser.c:8328
break parser.c:8348
break parser.c:8393
break parser.c:8384
break parser.c:8755
break parser.c:8756
break parser.c:8784
break parser.c:8796
break parser.c:8785
break parser.c:8787
break parser.c:8800
break parser.c:8821
break parser.c:8803
break parser.c:8808
break parser.c:8809
break parser.c:8828
break parser.c:8835
break parser.c:8880
break parser.c:8887
break parser.c:8962
break parser.c:8977
break parser.c:8980
break parser.c:9085
break parser.c:9095
break parser.c:9052
break parser.c:9058
break parser.c:9075
break parser.c:9081
break parser.c:9089
break parser.c:9098
break parser.c:9130
break parser.c:9139
break parser.c:9152
break parser.c:9181
break parser.c:9144
break parser.c:9156
break parser.c:9163
break parser.c:9167
break parser.c:9187
break parser.c:9199
break parser.c:9211
break parser.c:9189
break parser.c:9201
break parser.c:9203
break parser.c:9264
break parser.c:9286
break parser.c:9495
break parser.c:9519
break parser.c:9639
break parser.c:9650
break parser.c:9504
break parser.c:9523
break parser.c:9606
break parser.c:9608
break parser.c:9623
break parser.c:9624
break parser.c:9628
break parser.c:9665
break parser.c:9694
break parser.c:9709
break parser.c:9712
break parser.c:9723
break parser.c:9768
break parser.c:9775
break parser.c:9782
break parser.c:9790
break parser.c:9835
break parser.c:9846
break parser.c:9796
break parser.c:9821
break parser.c:9799
break parser.c:9807
break parser.c:9824
break parser.c:9954
break parser.c:9979
break parser.c:9983
break parser.c:9986
break parser.c:10015
break parser.c:10025
break parser.c:10047
break parser.c:10049
break parser.c:10070
break parser.c:10096
break parser.c:10072
break parser.c:10087
break parser.c:10115
break parser.c:10139
break parser.c:10145
break parser.c:10157
break parser.c:10186
break parser.c:10191
break parser.c:10198
break parser.c:10243
break parser.c:10246
break parser.c:10252
break parser.c:10259
break parser.c:10255
break parser.c:10262
break parser.c:10291
break parser.c:10294
break parser.c:10353
break parser.c:10356
break parser.c:10362
break parser.c:10387
break parser.c:10396
break parser.c:10371
break parser.c:10365
break parser.c:10374
break parser.c:10418
break parser.c:10405
break parser.c:10425
break parser.c:10433
break parser.c:10434
break parser.c:10485
break parser.c:10488
break parser.c:10494
break parser.c:10510
break parser.c:10496
break parser.c:10506
break parser.c:10499
break parser.c:10512
break parser.c:10522
break parser.c:10515
break parser.c:10558
break parser.c:10568
break parser.c:10599
break parser.c:10607
break parser.c:10618
break parser.c:10635
break parser.c:10571
break parser.c:10575
break parser.c:10580
break parser.c:10600
break parser.c:10619
break parser.c:10637
break parser.c:10694
break parser.c:10709
break parser.c:10712
break parser.c:10730
break parser.c:10741
break parser.c:10744
break parser.c:10764
break parser.c:10766
break parser.c:10781
break parser.c:10814
break parser.c:10843
break parser.c:10849
break parser.c:10858
break parser.c:10724
break parser.c:10750
break parser.c:10785
break parser.c:10800
break parser.c:10788
break parser.c:10828
break parser.c:10884
break parser.c:10902
break parser.c:10914
break parser.c:10922
break parser.c:10940
break parser.c:10952
break parser.c:10955
break parser.c:10967
break parser.c:10908
break parser.c:10928
break parser.c:10957
break parser.c:12541
break parser.c:12547
break parser.c:12552
break parser.c:12556
break parser.c:12575
break parser.c:12603
break parser.c:12606
break parser.c:12613
break parser.c:12617
break parser.c:12639
break parser.c:12623
break parser.c:12963
break parser.c:12969
break parser.c:13008
break parser.c:13025
break parser.c:13033
break parser.c:13038
break parser.c:13050
break parser.c:13061
break parser.c:13074
break parser.c:13088
break parser.c:13102
break parser.c:13140
break parser.c:13145
break parser.c:13149
break parser.c:13183
break parser.c:13195
break parser.c:13041
break parser.c:13045
break parser.c:13080
break parser.c:13093
break parser.c:13108
break parser.c:13142
break parser.c:13155
break parser.c:13308
break parser.c:13348
break parser.c:13366
break parser.c:13384
break parser.c:13395
break parser.c:13400
break parser.c:13404
break parser.c:13413
break parser.c:13436
break parser.c:13460
break parser.c:13350
break parser.c:13370
break parser.c:13397
break parser.c:13557
break parser.c:13564
break parser.c:13587
break parser.c:13593
break parser.c:13622
break parser.c:13637
break parser.c:13642
break parser.c:13647
break parser.c:13665
break parser.c:13680
break parser.c:13572
break parser.c:13639
break parser.c:13953
break parser.c:13957
break parser.c:13973
break parser.c:13975
break parser.c:13988
break parser.c:14049
break parser.c:14059
break parser.c:14065
break parser.c:14335
break parser.c:14337
break parser.c:14341
break parser.c:14346
break parser.c:14352
break parser.c:14536
break parser.c:14668
break parser.c:14682
break parser.c:14731
break parser.c:14797
break parser.c:14809
break parser.c:14866
break parser.c:14870
break parser.c:14903
break parser.c:14910
break parser.c:14913
break parser.c:14920
break parser.c:14927
break parser.c:14942
break parser.c:14955
break parser.c:14969
break parser.c:14963
break parser.c:14991
break parser.c:14993
break parser.c:14998
break parser.c:15004
break parser.c:15010
break parser.c:15015
break parser.c:15022
break parser.c:15028
break parser.c:15035
break parser.c:15045
break parser.c:15049
break parser.c:15065
break parser.c:15072
break parser.c:15077
break parser.c:15081
break parser.c:15085
break parser.c:15089
break parser.c:15093
break parser.c:15097
break parser.c:15103
break parser.c:15107
break parser.c:15111
break parser.c:15154
break parser.c:15165
break parser.c:15174
break parser.c:15169
break parser.c:15197
break parser.c:15202
break parser.c:15224
break parser.c:15248
break parser.c:15273
break parser.c:15278
break parser.c:15282
break parser.c:15287
break parser.c:15317
break parser.c:15323
break parser.c:15329
break parser.c:15334
break parser.c:15362
break parser.c:15364
break parser.c:15371
break parser.c:15396
break parser.c:15398
break parser.c:15405
break parser.c:15433
break parser.c:15435
break parser.c:15442
break parser.c:15447
break parser.c:15478
break parser.c:15480
break parser.c:15488
break parser.c:15492
break parser.c:15524
break parser.c:15526
break parser.c:15534
break parser.c:15540
break parserInternals.c:66
break parserInternals.c:74
break parserInternals.c:99
break parserInternals.c:102
break parserInternals.c:132
break parserInternals.c:141
break parserInternals.c:888
break parserInternals.c:959
break parserInternals.c:991
break parserInternals.c:1019
break parserInternals.c:1021
break parserInternals.c:1023
break parserInternals.c:1026
break parserInternals.c:1063
break parserInternals.c:1031
break parserInternals.c:1071
break parserInternals.c:1077
break parserInternals.c:1087
break parserInternals.c:1105
break parserInternals.c:1120
break parserInternals.c:1174
break parserInternals.c:1193
break parserInternals.c:1219
break parserInternals.c:1255
break parserInternals.c:1259
break parserInternals.c:1266
break parserInternals.c:1286
break parserInternals.c:1294
break parserInternals.c:1323
break parserInternals.c:1349
break parserInternals.c:1358
break parserInternals.c:1388
break parserInternals.c:1390
break parserInternals.c:1402
break parserInternals.c:1409
break parserInternals.c:1448
break parserInternals.c:1457
break parserInternals.c:1465
break parserInternals.c:1475
break parserInternals.c:1480
break parserInternals.c:1505
break parserInternals.c:1509
break parserInternals.c:1523
break parserInternals.c:1527
break parserInternals.c:1544
break parserInternals.c:1548
break parserInternals.c:1574
break parserInternals.c:1579
break parserInternals.c:1584
break parserInternals.c:1593
break parserInternals.c:1602
break parserInternals.c:1633
break parserInternals.c:1665
break parserInternals.c:1675
break parserInternals.c:1720
break parserInternals.c:1725
break parserInternals.c:1748
break parserInternals.c:1769
break parserInternals.c:1773
break parserInternals.c:1790
break parserInternals.c:1807
break parserInternals.c:1832
break parserInternals.c:1850
break parserInternals.c:1841
break parserInternals.c:1843
break parserInternals.c:1870
break parserInternals.c:1876
break parserInternals.c:1884
break parserInternals.c:1910
break parserInternals.c:1901
break rngparser.c:176
break rngparser.c:180
break rngparser.c:189
break rngparser.c:216
break rngparser.c:254
break rngparser.c:255
break rngparser.c:259
break rngparser.c:269
break rngparser.c:273
break rngparser.c:263
break rngparser.c:280
break rngparser.c:298
break rngparser.c:283
break rngparser.c:285
break rngparser.c:290
break rngparser.c:301
break rngparser.c:304
break rngparser.c:320
break rngparser.c:332
break rngparser.c:337
break rngparser.c:339
break rngparser.c:351
break rngparser.c:383
break rngparser.c:387
break rngparser.c:405
break rngparser.c:461
break rngparser.c:486
break rngparser.c:497
break rngparser.c:507
break rngparser.c:490
break rngparser.c:508
break rngparser.c:536
break rngparser.c:544
break rngparser.c:550
break rngparser.c:613
break rngparser.c:618
break rngparser.c:674
break rngparser.c:678
break rngparser.c:703
break rngparser.c:724
break rngparser.c:704
break rngparser.c:713
break rngparser.c:708
break rngparser.c:716
break rngparser.c:739
break rngparser.c:727
break rngparser.c:728
break rngparser.c:741
break rngparser.c:743
break rngparser.c:808
break rngparser.c:815
break rngparser.c:838
break rngparser.c:862
break rngparser.c:850
break rngparser.c:839
break rngparser.c:843
break rngparser.c:855
break rngparser.c:853
break rngparser.c:864
break rngparser.c:873
break rngparser.c:867
break rngparser.c:877
break rngparser.c:886
break rngparser.c:911
break rngparser.c:913
break rngparser.c:968
break rngparser.c:914
break rngparser.c:921
break rngparser.c:917
break rngparser.c:928
break rngparser.c:924
break rngparser.c:933
break rngparser.c:931
break rngparser.c:938
break rngparser.c:936
break rngparser.c:942
break rngparser.c:941
break rngparser.c:946
break rngparser.c:945
break rngparser.c:950
break rngparser.c:949
break rngparser.c:955
break rngparser.c:953
break rngparser.c:960
break rngparser.c:958
break rngparser.c:963
break rngparser.c:973
break rngparser.c:970
break rngparser.c:975
break rngparser.c:977
break rngparser.c:982
break rngparser.c:1009
break rngparser.c:1026
break rngparser.c:1010
break rngparser.c:1020
break rngparser.c:1013
break rngparser.c:1012
break rngparser.c:1016
break rngparser.c:1015
break rngparser.c:1018
break rngparser.c:1072
break rngparser.c:1097
break rngparser.c:1099
break rngparser.c:1137
break rngparser.c:1100
break rngparser.c:1130
break rngparser.c:1104
break rngparser.c:1111
break rngparser.c:1113
break rngparser.c:1117
break rngparser.c:1132
break rngparser.c:1143
break rngparser.c:1160
break rngparser.c:1145
break rngparser.c:1149
break rngparser.c:1192
break rngparser.c:1213
break rngparser.c:1214
break rngparser.c:1220
break rngparser.c:1230
break rngparser.c:1237
break rngparser.c:1264
break rngparser.c:1276
break rngparser.c:1266
break rngparser.c:1267
break rngparser.c:1298
break rngparser.c:1299
break rngparser.c:1329
break rngparser.c:1302
break rngparser.c:1309
break rngparser.c:1315
break rngparser.c:1324
break rngparser.c:1318
break rngparser.c:1350
break rngparser.c:1333
break rngparser.c:1339
break rngparser.c:1342
break rngparser.c:1354
break rngparser.c:1361
break rngparser.c:1367
break rngparser.c:1395
break rngparser.c:1396
break rngparser.c:1440
break rngparser.c:1441
break rngparser.c:1442
break rngparser.c:1449
break rngparser.c:1452
break SAX2.c:2863
break SAX2.c:2864
break SAX2.c:2918
break testapi.c:58
break testapi.c:68
break testapi.c:79
break testapi.c:104
break testapi.c:107
break testapi.c:109
break testapi.c:147
break testapi.c:163
break testapi.c:148
break testapi.c:150
break testapi.c:240
break testapi.c:241
break testapi.c:251
break testapi.c:252
break testapi.c:253
break testapi.c:254
break testapi.c:292
break testapi.c:293
break testapi.c:304
break testapi.c:305
break testapi.c:306
break testapi.c:360
break testapi.c:370
break testapi.c:371
break testapi.c:372
break testapi.c:390
break testapi.c:422
break testapi.c:423
break testapi.c:424
break testapi.c:425
break testapi.c:426
break testapi.c:427
break testapi.c:428
break testapi.c:446
break testapi.c:447
break testapi.c:448
break testapi.c:449
break testapi.c:450
break testapi.c:458
break testapi.c:459
break testapi.c:512
break testapi.c:513
break testapi.c:527
break testapi.c:532
break testapi.c:548
break testapi.c:550
break testapi.c:564
break testapi.c:565
break testapi.c:577
break testapi.c:616
break testapi.c:621
break testapi.c:628
break testapi.c:632
break testapi.c:639
break testapi.c:643
break testapi.c:746
break testapi.c:799
break testapi.c:805
break testapi.c:811
break testapi.c:817
break testapi.c:822
break testapi.c:2785
break testapi.c:2820
break testapi.c:3675
break testapi.c:3695
break testapi.c:3738
break testapi.c:3800
break testapi.c:3845
break testapi.c:3855
break testapi.c:3892
break testapi.c:3902
break testapi.c:3941
break testapi.c:3988
break testapi.c:4024
break testapi.c:4110
break testapi.c:4171
break testapi.c:4226
break testapi.c:4264
break testapi.c:4301
break testapi.c:4335
break testapi.c:4372
break testapi.c:4406
break testapi.c:4438
break testapi.c:4470
break testapi.c:4502
break testapi.c:4535
break testapi.c:4545
break testapi.c:4588
break testapi.c:4667
break testapi.c:4705
break testapi.c:4750
break testapi.c:4796
break testapi.c:4835
break testapi.c:4879
break testapi.c:4922
break testapi.c:4954
break testapi.c:5072
break testapi.c:5138
break testapi.c:5219
break testapi.c:5238
break testapi.c:5276
break testapi.c:5508
break testapi.c:5514
break testapi.c:6496
break testapi.c:6528
break testapi.c:6560
break testapi.c:6594
break testapi.c:6626
break testapi.c:6658
break testapi.c:6690
break testapi.c:6722
break testapi.c:6754
break testapi.c:6786
break testapi.c:6818
break testapi.c:6835
break testapi.c:6846
break testapi.c:8023
break testapi.c:8051
break testapi.c:8067
break testapi.c:8092
break testapi.c:8122
break testapi.c:8156
break testapi.c:8167
break testapi.c:8215
break testapi.c:8226
break testapi.c:8267
break testapi.c:8311
break testapi.c:8348
break testapi.c:8390
break testapi.c:8417
break testapi.c:8432
break testapi.c:8446
break testapi.c:8541
break testapi.c:8612
break testapi.c:8654
break testapi.c:8700
break testapi.c:8746
break testapi.c:8790
break testapi.c:8820
break testapi.c:8857
break testapi.c:8911
break testapi.c:8943
break testapi.c:9000
break testapi.c:9034
break testapi.c:9051
break testapi.c:9072
break testapi.c:9120
break testapi.c:9187
break testapi.c:9340
break testapi.c:9383
break testapi.c:9422
break testapi.c:9461
break testapi.c:9500
break testapi.c:9534
break testapi.c:9591
break testapi.c:9618
break testapi.c:9633
break testapi.c:9666
break testapi.c:9717
break testapi.c:9775
break testapi.c:9848
break testapi.c:9887
break testapi.c:9931
break testapi.c:9982
break testapi.c:10030
break testapi.c:10086
break testapi.c:10156
break testapi.c:10210
break testapi.c:10261
break testapi.c:10319
break testapi.c:10399
break testapi.c:10446
break testapi.c:10504
break testapi.c:10569
break testapi.c:10596
break testapi.c:10622
break testapi.c:10649
break testapi.c:10686
break testapi.c:10718
break testapi.c:10759
break testapi.c:10813
break testapi.c:10870
break testapi.c:10907
break testapi.c:10939
break testapi.c:10969
break testapi.c:11006
break testapi.c:11045
break testapi.c:11084
break testapi.c:11123
break testapi.c:11162
break testapi.c:11194
break testapi.c:11231
break testapi.c:11280
break testapi.c:11314
break testapi.c:11344
break testapi.c:11371
break testapi.c:11398
break testapi.c:11889
break testapi.c:11905
break testapi.c:11928
break testapi.c:11958
break testapi.c:11988
break testapi.c:12020
break testapi.c:12137
break testapi.c:12192
break testapi.c:12244
break testapi.c:12258
break testapi.c:12298
break testapi.c:12340
break testapi.c:12353
break testapi.c:12398
break testapi.c:12442
break testapi.c:12512
break testapi.c:12537
break testapi.c:12567
break testapi.c:12599
break testapi.c:12631
break testapi.c:12673
break testapi.c:12720
break testapi.c:12751
break testapi.c:13018
break testapi.c:13131
break testapi.c:13136
break testapi.c:13200
break testapi.c:13205
break testapi.c:13371
break testapi.c:13464
break testapi.c:13511
break testapi.c:13554
break testapi.c:13597
break testapi.c:13636
break testapi.c:13670
break testapi.c:13717
break testapi.c:13765
break testapi.c:13811
break testapi.c:13824
break testapi.c:14569
break testapi.c:14586
break testapi.c:14648
break testapi.c:14737
break testapi.c:14774
break testapi.c:14808
break testapi.c:14845
break testapi.c:14879
break testapi.c:14916
break testapi.c:14950
break testapi.c:14992
break testapi.c:15033
break testapi.c:15077
break testapi.c:15113
break testapi.c:15143
break testapi.c:15153
break testapi.c:15192
break testapi.c:15231
break testapi.c:15268
break testapi.c:15302
break testapi.c:15339
break testapi.c:15378
break testapi.c:15412
break testapi.c:15449
break testapi.c:15481
break testapi.c:15511
break testapi.c:15543
break testapi.c:15580
break testapi.c:15634
break testapi.c:15680
break testapi.c:15741
break testapi.c:15801
break testapi.c:15816
break testapi.c:15865
break testapi.c:15909
break testapi.c:15950
break testapi.c:15969
break testapi.c:16005
break testapi.c:16436
break testapi.c:16450
break testapi.c:17157
break testapi.c:17179
break testapi.c:17187
break testapi.c:17189
break testapi.c:17305
break testapi.c:17314
break testapi.c:17337
break testapi.c:17343
break testapi.c:17377
break testapi.c:17383
break testapi.c:17417
break testapi.c:17423
break testapi.c:17499
break testapi.c:17505
break testapi.c:17598
break testapi.c:17634
break testapi.c:17675
break testapi.c:17741
break testapi.c:17752
break testapi.c:17790
break testapi.c:17801
break testapi.c:17842
break testapi.c:17881
break testapi.c:17919
break testapi.c:17946
break testapi.c:17996
break testapi.c:18026
break testapi.c:18063
break testapi.c:18097
break testapi.c:18134
break testapi.c:18167
break testapi.c:18172
break testapi.c:18211
break testapi.c:18248
break testapi.c:18285
break testapi.c:18322
break testapi.c:18362
break testapi.c:18378
break testapi.c:18526
break testapi.c:18559
break testapi.c:18596
break testapi.c:18630
break testapi.c:18667
break testapi.c:18706
break testapi.c:18755
break testapi.c:18813
break testapi.c:18823
break testapi.c:18900
break testapi.c:18966
break testapi.c:19017
break testapi.c:19065
break testapi.c:19106
break testapi.c:19441
break testapi.c:19590
break testapi.c:19615
break testapi.c:19645
break testapi.c:19677
break testapi.c:19709
break testapi.c:19741
break testapi.c:19778
break testapi.c:19866
break testapi.c:19907
break testapi.c:19951
break testapi.c:19992
break testapi.c:20026
break testapi.c:20063
break testapi.c:20133
break testapi.c:20144
break testapi.c:20185
break testapi.c:20276
break testapi.c:20308
break testapi.c:20345
break testapi.c:20428
break testapi.c:20481
break testapi.c:20529
break testapi.c:20575
break testapi.c:20673
break testapi.c:20709
break testapi.c:20720
break testapi.c:20771
break testapi.c:20814
break testapi.c:20853
break testapi.c:20898
break testapi.c:20949
break testapi.c:21002
break testapi.c:21045
break testapi.c:21134
break testapi.c:21168
break testapi.c:21255
break testapi.c:21265
break testapi.c:21336
break testapi.c:21371
break testapi.c:21381
break testapi.c:21422
break testapi.c:21590
break testapi.c:21624
break testapi.c:21656
break testapi.c:21688
break testapi.c:21720
break testapi.c:21810
break testapi.c:21888
break testapi.c:22166
break testapi.c:22553
break testapi.c:22599
break testapi.c:22633
break testapi.c:22663
break testapi.c:22698
break testapi.c:22735
break testapi.c:22877
break testapi.c:22916
break testapi.c:22955
break testapi.c:22991
break testapi.c:23002
break testapi.c:23040
break testapi.c:23051
break testapi.c:23087
break testapi.c:23095
break testapi.c:23375
break testapi.c:23526
break testapi.c:23554
break testapi.c:23593
break testapi.c:23627
break testapi.c:23669
break testapi.c:23730
break testapi.c:23764
break testapi.c:23799
break testapi.c:23833
break testapi.c:23865
break testapi.c:23902
break testapi.c:23931
break testapi.c:23947
break testapi.c:24010
break testapi.c:24078
break testapi.c:24163
break testapi.c:24197
break testapi.c:24537
break testapi.c:24578
break testapi.c:24637
break testapi.c:24685
break testapi.c:24726
break testapi.c:24780
break testapi.c:24821
break testapi.c:24865
break testapi.c:24912
break testapi.c:24953
break testapi.c:25002
break testapi.c:25041
break testapi.c:25088
break testapi.c:26404
break testapi.c:26467
break testapi.c:26820
break testapi.c:26831
break testapi.c:26888
break testapi.c:26920
break testapi.c:26957
break testapi.c:26984
break testapi.c:27039
break testapi.c:27071
break testapi.c:27103
break testapi.c:27145
break testapi.c:27491
break testapi.c:27527
break testapi.c:27918
break testapi.c:27926
break testapi.c:27965
break testapi.c:28004
break testapi.c:28040
break testapi.c:28051
break testapi.c:28089
break testapi.c:28100
break testapi.c:28141
break testapi.c:28177
break testapi.c:28188
break testapi.c:28229
break testapi.c:28258
break testapi.c:28308
break testapi.c:28373
break testapi.c:28419
break testapi.c:28714
break testapi.c:28734
break testapi.c:28759
break testapi.c:28800
break testapi.c:28842
break testapi.c:28892
break testapi.c:28922
break testapi.c:28982
break testapi.c:29034
break testapi.c:29051
break testapi.c:29158
break testapi.c:29163
break testapi.c:32148
break testapi.c:32228
break testapi.c:33063
break testapi.c:33091
break testapi.c:33306
break testapi.c:33317
break testapi.c:34102
break testapi.c:34128
break testapi.c:35352
break testapi.c:35386
break testapi.c:35409
break testapi.c:35439
break testapi.c:35449
break testapi.c:35483
break testapi.c:35520
break testapi.c:35559
break testapi.c:35613
break testapi.c:35664
break testapi.c:35703
break testapi.c:35742
break testapi.c:35781
break testapi.c:35815
break testapi.c:35847
break testapi.c:35881
break testapi.c:35892
break testapi.c:35930
break testapi.c:35941
break testapi.c:35979
break testapi.c:35990
break testapi.c:36024
break testapi.c:36034
break testapi.c:36073
break testapi.c:36109
break testapi.c:36112
break testapi.c:36123
break testapi.c:36164
break testapi.c:36198
break testapi.c:36230
break testapi.c:36267
break testapi.c:36299
break testapi.c:36309
break testapi.c:36348
break testapi.c:36380
break testapi.c:36390
break testapi.c:36426
break testapi.c:36429
break testapi.c:36440
break testapi.c:36461
break testapi.c:36491
break testapi.c:42157
break testapi.c:42325
break testapi.c:44945
break testapi.c:45025
break testapi.c:46243
break testapi.c:46280
break testapi.c:50446
break testapi.c:50561
break testapi.c:51094
break testapi.c:51110
break testapi.c:51116
break testapi.c:51117
break testapi.c:51118
break testapi.c:51119
break testapi.c:51120
break testapi.c:51121
break testapi.c:51122
break testapi.c:51123
break testapi.c:51124
break testapi.c:51125
break testapi.c:51126
break testapi.c:51127
break testapi.c:51128
break testapi.c:51129
break testapi.c:51130
break testapi.c:51131
break testapi.c:51132
break testapi.c:51133
break testapi.c:51134
break testapi.c:51135
break testapi.c:51136
break testapi.c:51137
break testapi.c:51138
break testapi.c:51139
break testapi.c:51140
break testapi.c:51141
break testapi.c:51142
break testapi.c:51143
break testapi.c:51144
break testapi.c:51145
break testapi.c:51146
break testapi.c:51147
break testapi.c:51148
break testapi.c:51149
break testapi.c:51150
break testapi.c:51151
break testapi.c:51152
break testapi.c:51153
break testchar.c:18
break testchar.c:39
break testchar.c:48
break testchar.c:40
break testchar.c:55
break testchar.c:49
break testchar.c:63
break testchar.c:57
break testchar.c:90
break testchar.c:103
break testchar.c:91
break testchar.c:116
break testchar.c:104
break testchar.c:129
break testchar.c:117
break testchar.c:141
break testchar.c:130
break testchar.c:172
break testchar.c:276
break testchar.c:283
break testchar.c:278
break testchar.c:288
break testchar.c:284
break testchar.c:312
break testchar.c:325
break testchar.c:313
break testchar.c:338
break testchar.c:326
break testchar.c:351
break testchar.c:339
break testchar.c:363
break testchar.c:352
break testchar.c:372
break testchar.c:407
break testchar.c:419
break testchar.c:408
break testchar.c:433
break testchar.c:420
break testchar.c:445
break testchar.c:434
break testchar.c:458
break testchar.c:447
break testchar.c:468
break testchar.c:508
break testchar.c:520
break testchar.c:509
break testchar.c:535
break testchar.c:522
break testchar.c:547
break testchar.c:536
break testchar.c:561
break testchar.c:550
break testchar.c:571
break testchar.c:606
break testchar.c:612
break testchar.c:618
break testdict.c:45
break testdict.c:52
break testdict.c:56
break testdict.c:63
break testdict.c:71
break testdict.c:76
break testdict.c:84
break testdict.c:91
break testdict.c:95
break testdict.c:102
break testdict.c:110
break testdict.c:115
break testdict.c:158
break testdict.c:172
break testdict.c:182
break testdict.c:192
break testdict.c:205
break testdict.c:208
break testdict.c:220
break testdict.c:226
break testdict.c:238
break testdict.c:250
break testdict.c:262
break testdict.c:280
break testdict.c:297
break testdict.c:321
break testdict.c:333
break testdict.c:343
break testdict.c:353
break testdict.c:366
break testdict.c:369
break testdict.c:381
break testdict.c:393
break testdict.c:411
break testdict.c:435
break testlimits.c:55
break testlimits.c:105
break testlimits.c:121
break testlimits.c:126
break testlimits.c:148
break testlimits.c:183
break testlimits.c:186
break testlimits.c:199
break testlimits.c:187
break testlimits.c:211
break testlimits.c:200
break testlimits.c:212
break testlimits.c:215
break testlimits.c:220
break testlimits.c:268
break testlimits.c:284
break testlimits.c:287
break testlimits.c:306
break testlimits.c:324
break testlimits.c:327
break testlimits.c:333
break testlimits.c:345
break testlimits.c:334
break testlimits.c:357
break testlimits.c:346
break testlimits.c:358
break testlimits.c:361
break testlimits.c:1270
break testlimits.c:1279
break testlimits.c:1283
break testlimits.c:1284
break testlimits.c:1292
break testlimits.c:1442
break testlimits.c:1479
break testlimits.c:1482
break testlimits.c:1484
break testlimits.c:1485
break testlimits.c:1503
break testlimits.c:1507
break testlimits.c:1539
break testlimits.c:1580
break testlimits.c:1588
break testlimits.c:1590
break testlimits.c:1585
break testlimits.c:1591
break testlimits.c:1619
break testlimits.c:1625
break testlimits.c:1612
break testlimits.c:1614
break testlimits.c:1616
break testOOM.c:72
break testOOM.c:74
break testOOM.c:76
break testOOM.c:103
break testOOM.c:105
break testOOM.c:124
break testOOM.c:142
break testOOM.c:165
break testOOM.c:179
break testOOM.c:166
break testOOM.c:169
break testOOM.c:172
break testOOM.c:185
break testOOM.c:200
break testOOM.c:187
break testOOM.c:198
break testOOM.c:202
break testOOM.c:221
break testOOM.c:224
break testOOM.c:237
break testOOM.c:246
break testOOM.c:252
break testOOM.c:258
break testOOM.c:270
break testOOM.c:273
break testOOM.c:281
break testOOM.c:289
break testOOM.c:259
break testOOM.c:283
break testOOM.c:297
break testOOM.c:310
break testOOM.c:335
break testOOM.c:324
break testOOM.c:326
break testOOM.c:328
break testOOM.c:331
break testOOM.c:338
break testOOM.c:343
break testOOM.c:352
break testOOMlib.c:87
break testOOMlib.c:90
break testOOMlib.c:122
break testOOMlib.c:128
break testOOMlib.c:135
break testOOMlib.c:146
break testOOMlib.c:152
break testOOMlib.c:162
break testOOMlib.c:172
break testOOMlib.c:186
break testOOMlib.c:192
break testOOMlib.c:211
break testOOMlib.c:246
break testOOMlib.c:252
break testOOMlib.c:256
break testOOMlib.c:260
break testrecurse.c:186
break testrecurse.c:202
break testrecurse.c:219
break testrecurse.c:238
break testrecurse.c:241
break testrecurse.c:242
break testrecurse.c:250
break testrecurse.c:255
break testrecurse.c:295
break testrecurse.c:821
break testrecurse.c:822
break testrecurse.c:828
break testrecurse.c:830
break testrecurse.c:840
break testrecurse.c:850
break testrecurse.c:879
break testrecurse.c:881
break testrecurse.c:833
break testrecurse.c:843
break testrecurse.c:852
break testrecurse.c:862
break testrecurse.c:868
break testrecurse.c:869
break testrecurse.c:890
break testrecurse.c:912
break testrecurse.c:914
break testrecurse.c:915
break testrecurse.c:947
break testrecurse.c:952
break testrecurse.c:934
break testrecurse.c:936
break threads.c:172
break threads.c:199
break threads.c:222
break threads.c:250
break threads.c:280
break threads.c:283
break threads.c:311
break threads.c:314
break threads.c:335
break threads.c:338
break threads.c:342
break threads.c:343
break threads.c:379
break threads.c:382
break threads.c:387
break threads.c:419
break threads.c:492
break threads.c:645
break threads.c:650
break threads.c:653
break threads.c:756
break threads.c:782
break threads.c:784
break threads.c:851
break threads.c:852
break threads.c:906
break tree.c:225
break tree.c:231
break tree.c:233
break tree.c:269
break tree.c:271
break tree.c:275
break tree.c:281
break tree.c:291
break tree.c:295
break tree.c:300
break tree.c:302
break tree.c:328
break tree.c:329
break tree.c:332
break tree.c:342
break tree.c:734
break tree.c:737
break tree.c:755
break tree.c:771
break tree.c:739
break tree.c:772
break tree.c:777
break tree.c:805
break tree.c:825
break tree.c:846
break tree.c:877
break tree.c:891
break tree.c:925
break tree.c:951
break tree.c:965
break tree.c:972
break tree.c:980
break tree.c:990
break tree.c:1002
break tree.c:974
break tree.c:982
break tree.c:992
break tree.c:1006
break tree.c:1010
break tree.c:1023
break tree.c:1104
break tree.c:1112
break tree.c:1169
break tree.c:1177
break tree.c:1210
break tree.c:1239
break tree.c:1244
break tree.c:1281
break tree.c:1286
break tree.c:1458
break tree.c:1466
break tree.c:1462
break tree.c:1476
break tree.c:1468
break tree.c:1471
break tree.c:1504
break tree.c:1507
break tree.c:1657
break tree.c:1664
break tree.c:1666
break tree.c:1672
break tree.c:1703
break tree.c:1705
break tree.c:1864
break tree.c:1876
break tree.c:1888
break tree.c:1894
break tree.c:1902
break tree.c:1919
break tree.c:1920
break tree.c:1981
break tree.c:2006
break tree.c:2035
break tree.c:2047
break tree.c:2059
break tree.c:2088
break tree.c:2105
break tree.c:2113
break tree.c:2133
break tree.c:2140
break tree.c:2148
break tree.c:2185
break tree.c:2197
break tree.c:2208
break tree.c:2247
break tree.c:2259
break tree.c:2289
break tree.c:2301
break tree.c:2343
break tree.c:2345
break tree.c:2376
break tree.c:2378
break tree.c:2465
break tree.c:2473
break tree.c:2576
break tree.c:2583
break tree.c:2591
break tree.c:2620
break tree.c:2627
break tree.c:2635
break tree.c:2647
break tree.c:2696
break tree.c:2704
break tree.c:2747
break tree.c:2755
break tree.c:2781
break tree.c:2789
break tree.c:2817
break tree.c:2819
break tree.c:2840
break tree.c:2842
break tree.c:2846
break tree.c:2877
break tree.c:2883
break tree.c:2905
break tree.c:3012
break tree.c:3023
break tree.c:3028
break tree.c:3039
break tree.c:3062
break tree.c:3069
break tree.c:3077
break tree.c:3087
break tree.c:3108
break tree.c:3104
break tree.c:3088
break tree.c:3093
break tree.c:3218
break tree.c:3226
break tree.c:3234
break tree.c:3246
break tree.c:3257
break tree.c:3266
break tree.c:3262
break tree.c:3294
break tree.c:3302
break tree.c:3310
break tree.c:3322
break tree.c:3356
break tree.c:3328
break tree.c:3335
break tree.c:3380
break tree.c:3388
break tree.c:3396
break tree.c:3407
break tree.c:3429
break tree.c:3441
break tree.c:3448
break tree.c:3408
break tree.c:3415
break tree.c:3449
break tree.c:3451
break tree.c:3468
break tree.c:3459
break tree.c:3480
break tree.c:3502
break tree.c:3722
break tree.c:3723
break tree.c:3740
break tree.c:3779
break tree.c:3743
break tree.c:3753
break tree.c:3782
break tree.c:3802
break tree.c:3805
break tree.c:3809
break tree.c:3813
break tree.c:3823
break tree.c:3836
break tree.c:3875
break tree.c:3882
break tree.c:3884
break tree.c:3894
break tree.c:3916
break tree.c:3887
break tree.c:3897
break tree.c:3898
break tree.c:3906
break tree.c:3919
break tree.c:4025
break tree.c:4073
break tree.c:4074
break tree.c:4086
break tree.c:4089
break tree.c:4135
break tree.c:4151
break tree.c:4093
break tree.c:4100
break tree.c:4108
break tree.c:4120
break tree.c:4154
break tree.c:4158
break tree.c:4195
break tree.c:4237
break tree.c:4273
break tree.c:4282
break tree.c:4294
break tree.c:4304
break tree.c:4329
break tree.c:4335
break tree.c:4364
break tree.c:4284
break tree.c:4286
break tree.c:4288
break tree.c:4339
break tree.c:4346
break tree.c:4377
break tree.c:4365
break tree.c:4709
break tree.c:4712
break tree.c:4714
break tree.c:4718
break tree.c:5022
break tree.c:5133
break tree.c:5211
break tree.c:5376
break tree.c:5378
break tree.c:5381
break tree.c:5433
break tree.c:5462
break tree.c:5466
break tree.c:5487
break tree.c:5625
break tree.c:5729
break tree.c:5874
break tree.c:5881
break tree.c:5948
break tree.c:5955
break tree.c:6060
break tree.c:6067
break tree.c:6103
break tree.c:6104
break tree.c:6106
break tree.c:6125
break tree.c:6113
break tree.c:6127
break tree.c:6211
break tree.c:6233
break tree.c:6235
break tree.c:6239
break tree.c:6258
break tree.c:6246
break tree.c:6260
break tree.c:6324
break tree.c:6331
break tree.c:6578
break tree.c:6581
break tree.c:6583
break tree.c:6699
break tree.c:6701
break tree.c:6724
break tree.c:6706
break tree.c:6707
break tree.c:6747
break tree.c:6759
break tree.c:6766
break tree.c:6768
break tree.c:6824
break tree.c:6849
break tree.c:6874
break tree.c:7030
break tree.c:7032
break tree.c:7048
break tree.c:7050
break tree.c:7053
break tree.c:7076
break tree.c:7078
break tree.c:7089
break tree.c:7097
break tree.c:7119
break tree.c:7127
break tree.c:7148
break tree.c:7151
break tree.c:7158
break tree.c:7160
break tree.c:7186
break tree.c:7188
break tree.c:7215
break tree.c:7217
break tree.c:7221
break tree.c:7242
break tree.c:7249
break tree.c:7267
break tree.c:7275
break tree.c:7278
break tree.c:7293
break tree.c:7294
break tree.c:7296
break tree.c:7298
break tree.c:7321
break tree.c:7322
break tree.c:7323
break tree.c:7326
break tree.c:7339
break tree.c:7341
break tree.c:7369
break tree.c:7371
break tree.c:7372
break tree.c:7374
break tree.c:7377
break tree.c:7384
break tree.c:7388
break tree.c:7396
break tree.c:7418
break tree.c:7425
break tree.c:7432
break tree.c:7450
break tree.c:7468
break tree.c:7490
break tree.c:7493
break tree.c:7496
break tree.c:7499
break tree.c:7544
break tree.c:7547
break tree.c:7555
break tree.c:7563
break tree.c:7580
break tree.c:7565
break tree.c:7574
break tree.c:7607
break tree.c:7610
break tree.c:7611
break tree.c:7618
break tree.c:7623
break tree.c:7624
break tree.c:7626
break tree.c:7630
break tree.c:7658
break tree.c:7660
break tree.c:7661
break tree.c:7668
break tree.c:7675
break tree.c:7680
break tree.c:7682
break tree.c:7697
break tree.c:7685
break tree.c:7698
break tree.c:7723
break tree.c:7725
break tree.c:7726
break tree.c:7755
break tree.c:7757
break tree.c:7771
break tree.c:7773
break tree.c:7790
break tree.c:7792
break tree.c:7793
break tree.c:7794
break tree.c:7839
break tree.c:7853
break tree.c:7880
break tree.c:7881
break tree.c:7938
break tree.c:7971
break tree.c:7973
break tree.c:7977
break tree.c:7990
break tree.c:8009
break tree.c:7982
break tree.c:8002
break tree.c:8015
break tree.c:8022
break tree.c:8057
break tree.c:8060
break tree.c:8062
break tree.c:8077
break tree.c:8097
break tree.c:8114
break tree.c:8137
break tree.c:8172
break tree.c:8174
break tree.c:8260
break tree.c:8268
break tree.c:8262
break tree.c:8272
break tree.c:8308
break tree.c:8312
break tree.c:8441
break tree.c:8443
break tree.c:8447
break tree.c:8449
break tree.c:8543
break tree.c:8548
break tree.c:8549
break tree.c:8551
break tree.c:8613
break tree.c:8623
break tree.c:8626
break tree.c:8635
break tree.c:8637
break tree.c:8648
break tree.c:8650
break tree.c:8631
break tree.c:8692
break tree.c:8700
break tree.c:8713
break tree.c:8748
break tree.c:8705
break tree.c:8720
break tree.c:8755
break tree.c:8760
break tree.c:8771
break tree.c:8774
break tree.c:8791
break tree.c:8779
break tree.c:8839
break tree.c:9057
break tree.c:9051
break tree.c:9106
break tree.c:9123
break tree.c:9131
break tree.c:9405
break tree.c:9406
break tree.c:9410
break tree.c:9411
break tree.c:9481
break tree.c:9486
break tree.c:9491
break tree.c:9500
break tree.c:9513
break tree.c:9941
break tree.c:9942
break tree.c:9946
break tree.c:9947
break tree.c:9990
break tree.c:9994
break tree.c:10031
break tree.c:10034
break tree.c:9997
break tree.c:10001
break tree.c:10020
break tree.c:10003
break tree.c:10012
break tree.c:10015
break tree.c:10120
break tree.c:10127
break tree.c:10136
break tree.c:10159
break tree.c:10162
break tree.c:10173
break trio.c:885
break trio.c:887
break trio.c:903
break trio.c:911
break trio.c:891
break trio.c:934
break trio.c:952
break trio.c:939
break trio.c:942
break trio.c:972
break trio.c:976
break trio.c:985
break trio.c:981
break trio.c:1013
break trio.c:1041
break trio.c:1054
break trio.c:1047
break trio.c:1050
break trio.c:1075
break trio.c:1134
break trio.c:1141
break trio.c:1237
break trio.c:1248
break trio.c:1250
break trio.c:1260
break trio.c:1265
break trio.c:1271
break trio.c:1616
break trio.c:1624
break trio.c:1632
break trio.c:1640
break trio.c:1875
break trio.c:1905
break trio.c:1488
break trio.c:1498
break trio.c:1508
break trio.c:1526
break trio.c:1530
break trio.c:1588
break trio.c:1595
break trio.c:1304
break trio.c:1353
break trio.c:1309
break trio.c:1314
break trio.c:1324
break trio.c:1342
break trio.c:1327
break trio.c:1337
break trio.c:1339
break trio.c:1359
break trio.c:1368
break trio.c:1386
break trio.c:1371
break trio.c:1381
break trio.c:1383
break trio.c:1394
break trio.c:1412
break trio.c:1417
break trio.c:1435
break trio.c:1420
break trio.c:1430
break trio.c:1432
break trio.c:1447
break trio.c:1463
break trio.c:1465
break trio.c:1472
break trio.c:1474
break trio.c:1490
break trio.c:1500
break trio.c:1510
break trio.c:1523
break trio.c:1536
break trio.c:1542
break trio.c:1548
break trio.c:1659
break trio.c:1661
break trio.c:1672
break trio.c:1674
break trio.c:1680
break trio.c:1684
break trio.c:1686
break trio.c:1688
break trio.c:1693
break trio.c:1697
break trio.c:1699
break trio.c:1779
break trio.c:1781
break trio.c:1860
break trio.c:1821
break trio.c:1847
break trio.c:1823
break trio.c:1840
break trio.c:1835
break trio.c:1852
break trio.c:1879
break trio.c:1881
break trio.c:1886
break trio.c:1888
break trio.c:1890
break trio.c:1914
break trio.c:1929
break trio.c:1916
break trio.c:1986
break trio.c:1988
break trio.c:1993
break trio.c:1996
break trio.c:2007
break trio.c:2046
break trio.c:2010
break trio.c:2030
break trio.c:2032
break trio.c:2035
break trio.c:2053
break trio.c:2060
break trio.c:2066
break trio.c:2070
break trio.c:2076
break trio.c:2080
break trio.c:2082
break trio.c:2096
break trio.c:2107
break trio.c:2109
break trio.c:2115
break trio.c:2127
break trio.c:2133
break trio.c:2138
break trio.c:2206
break trio.c:2215
break trio.c:2227
break trio.c:2261
break trio.c:2268
break trio.c:2282
break trio.c:2284
break trio.c:2302
break trio.c:2310
break trio.c:2318
break trio.c:2343
break trio.c:2354
break trio.c:2364
break trio.c:2223
break trio.c:2229
break trio.c:2241
break trio.c:2244
break trio.c:2252
break trio.c:2271
break trio.c:2293
break trio.c:2312
break trio.c:2314
break trio.c:2328
break trio.c:2345
break trio.c:2384
break trio.c:2386
break trio.c:2411
break trio.c:2448
break trio.c:2460
break trio.c:2467
break trio.c:2470
break trio.c:2483
break trio.c:2488
break trio.c:2702
break trio.c:2726
break trio.c:2733
break trio.c:2736
break trio.c:2749
break trio.c:2752
break trio.c:2755
break trio.c:2781
break trio.c:2824
break trio.c:2851
break trio.c:2886
break trio.c:2904
break trio.c:2906
break trio.c:2909
break trio.c:2913
break trio.c:2989
break trio.c:3035
break trio.c:3045
break trio.c:3067
break trio.c:2675
break trio.c:2709
break trio.c:2738
break trio.c:2757
break trio.c:2760
break trio.c:2766
break trio.c:2775
break trio.c:2785
break trio.c:2789
break trio.c:2798
break trio.c:2826
break trio.c:2832
break trio.c:2853
break trio.c:2916
break trio.c:2922
break trio.c:2927
break trio.c:2918
break trio.c:2920
break trio.c:2938
break trio.c:2945
break trio.c:2951
break trio.c:2947
break trio.c:2949
break trio.c:2963
break trio.c:2974
break trio.c:2991
break trio.c:3006
break trio.c:3018
break trio.c:3054
break trio.c:3057
break trio.c:3110
break trio.c:3128
break trio.c:3118
break trio.c:3130
break trio.c:3145
break trio.c:3162
break trio.c:3186
break trio.c:3149
break trio.c:3165
break trio.c:3169
break trio.c:3197
break trio.c:3218
break trio.c:3223
break trio.c:3280
break trio.c:3327
break trio.c:3195
break trio.c:3288
break trio.c:3293
break trio.c:3298
break trio.c:3302
break trio.c:3306
break trio.c:3310
break trio.c:3354
break trio.c:3366
break trio.c:3357
break trio.c:3407
break trio.c:3411
break trio.c:3445
break trio.c:3452
break trio.c:3456
break trio.c:3479
break trio.c:3506
break trio.c:3532
break trio.c:3535
break trio.c:3541
break trio.c:3587
break trio.c:3608
break trio.c:4012
break trio.c:4042
break trio.c:4071
break trio.c:4148
break trio.c:4175
break trio.c:4202
break trio.c:4212
break trio.c:4237
break trio.c:4245
break trio.c:4293
break trio.c:4296
break trio.c:4323
break trio.c:4299
break trio.c:4313
break trio.c:4318
break trio.c:4301
break trio.c:4305
break trio.c:4325
break trio.c:4328
break trio.c:4343
break trio.c:4331
break trio.c:4365
break trio.c:4368
break trio.c:4370
break trio.c:4373
break trio.c:4378
break trio.c:4495
break trio.c:4520
break trio.c:4545
break trio.c:4570
break trio.c:4595
break trio.c:4620
break trio.c:4645
break trio.c:4670
break trio.c:4695
break trio.c:4720
break trio.c:4745
break trio.c:4770
break trio.c:4796
break trio.c:4822
break trio.c:4848
break trio.c:4996
break trio.c:5047
break trio.c:5053
break trio.c:5077
break trio.c:5106
break trio.c:5164
break trio.c:5194
break trio.c:5204
break trio.c:5213
break trio.c:5242
break trio.c:5249
break trio.c:5251
break trio.c:5280
break trio.c:5274
break trio.c:5277
break trio.c:5291
break trio.c:5312
break trio.c:5299
break trio.c:5302
break trio.c:5321
break trio.c:5329
break trio.c:5325
break trio.c:5337
break trio.c:5333
break trio.c:5345
break trio.c:5341
break trio.c:5353
break trio.c:5349
break trio.c:5361
break trio.c:5357
break trio.c:5369
break trio.c:5365
break trio.c:5377
break trio.c:5373
break trio.c:5385
break trio.c:5381
break trio.c:5393
break trio.c:5389
break trio.c:5401
break trio.c:5397
break trio.c:5405
break trio.c:5457
break trio.c:5471
break trio.c:5487
break trio.c:5556
break trio.c:5559
break trio.c:5474
break trio.c:5478
break trio.c:5495
break trio.c:5498
break trio.c:5500
break trio.c:5505
break trio.c:5523
break trio.c:5530
break trio.c:5527
break trio.c:5540
break trio.c:5535
break trio.c:5588
break trio.c:5624
break trio.c:5601
break trio.c:5608
break trio.c:5604
break trio.c:5612
break trio.c:5660
break trio.c:5657
break trio.c:5803
break trio.c:5798
break trio.c:5832
break trio.c:5843
break trio.c:5953
break trio.c:5982
break trio.c:5987
break trio.c:5870
break trio.c:5897
break trio.c:5915
break trio.c:5856
break trio.c:5873
break trio.c:5875
break trio.c:5886
break trio.c:5900
break trio.c:5930
break trio.c:5935
break trio.c:5945
break trio.c:5940
break trio.c:5964
break trio.c:5969
break trio.c:6013
break trio.c:6027
break trio.c:6023
break trio.c:6034
break trio.c:6036
break trio.c:6079
break trio.c:6098
break trio.c:6103
break trio.c:6082
break trio.c:6087
break trio.c:6105
break trio.c:6125
break trio.c:6132
break trio.c:6108
break trio.c:6209
break trio.c:6273
break trio.c:6335
break trio.c:6346
break trio.c:6144
break trio.c:6147
break trio.c:6154
break trio.c:6160
break trio.c:6165
break trio.c:6170
break trio.c:6174
break trio.c:6176
break trio.c:6178
break trio.c:6201
break trio.c:6217
break trio.c:6227
break trio.c:6231
break trio.c:6255
break trio.c:6258
break trio.c:6266
break trio.c:6276
break trio.c:6279
break trio.c:6284
break trio.c:6289
break trio.c:6293
break trio.c:6297
break trio.c:6301
break trio.c:6327
break trio.c:6340
break trio.c:6362
break trio.c:6367
break trio.c:6407
break trio.c:6414
break trio.c:6418
break trio.c:6443
break trio.c:6455
break trio.c:6480
break trio.c:6489
break trio.c:6495
break trio.c:6521
break trio.c:6531
break trio.c:6553
break trio.c:6564
break trionan.c:263
break trionan.c:306
break trionan.c:328
break triostr.c:149
break triostr.c:228
break triostr.c:335
break triostr.c:381
break triostr.c:408
break triostr.c:447
break triostr.c:476
break triostr.c:531
break triostr.c:744
break triostr.c:748
break triostr.c:760
break triostr.c:797
break triostr.c:801
break triostr.c:813
break triostr.c:905
break triostr.c:909
break triostr.c:985
break triostr.c:1075
break triostr.c:1082
break triostr.c:1085
break triostr.c:997
break triostr.c:1008
break triostr.c:1011
break triostr.c:1032
break triostr.c:1043
break triostr.c:1053
break triostr.c:1063
break triostr.c:1077
break triostr.c:1277
break triostr.c:1308
break triostr.c:1355
break triostr.c:1357
break triostr.c:1386
break triostr.c:1419
break triostr.c:1421
break triostr.c:1425
break triostr.c:1427
break triostr.c:1435
break triostr.c:1547
break triostr.c:1575
break triostr.c:1598
break triostr.c:1600
break triostr.c:1704
break triostr.c:1707
break triostr.c:1735
break triostr.c:1738
break triostr.c:1964
break uri.c:212
break uri.c:216
break uri.c:221
break uri.c:249
break uri.c:258
break uri.c:286
break uri.c:294
break uri.c:331
break uri.c:335
break uri.c:338
break uri.c:373
break uri.c:374
break uri.c:405
break uri.c:407
break uri.c:409
break uri.c:411
break uri.c:413
break uri.c:416
break uri.c:449
break uri.c:461
break uri.c:453
break uri.c:462
break uri.c:464
break uri.c:467
break uri.c:469
break uri.c:471
break uri.c:473
break uri.c:475
break uri.c:487
break uri.c:491
break uri.c:526
break uri.c:531
break uri.c:532
break uri.c:535
break uri.c:563
break uri.c:564
break uri.c:599
break uri.c:597
break uri.c:601
break uri.c:634
break uri.c:638
break uri.c:645
break uri.c:642
break uri.c:647
break uri.c:681
break uri.c:687
break uri.c:685
break uri.c:689
break uri.c:723
break uri.c:729
break uri.c:727
break uri.c:731
break uri.c:767
break uri.c:777
break uri.c:770
break uri.c:774
break uri.c:780
break uri.c:779
break uri.c:782
break uri.c:785
break uri.c:814
break uri.c:834
break uri.c:839
break uri.c:844
break uri.c:820
break uri.c:817
break uri.c:819
break uri.c:823
break uri.c:822
break uri.c:825
break uri.c:828
break uri.c:837
break uri.c:842
break uri.c:869
break uri.c:870
break uri.c:875
break uri.c:876
break uri.c:881
break uri.c:886
break uri.c:879
break uri.c:884
break uri.c:909
break uri.c:918
break uri.c:921
break uri.c:944
break uri.c:947
break uri.c:949
break uri.c:990
break uri.c:993
break uri.c:994
break uri.c:998
break uri.c:1024
break uri.c:1043
break uri.c:1049
break uri.c:1073
break uri.c:1078
break uri.c:1084
break uri.c:1101
break uri.c:1294
break uri.c:1319
break uri.c:1094
break uri.c:1087
break uri.c:1089
break uri.c:1096
break uri.c:1104
break uri.c:1109
break uri.c:1106
break uri.c:1120
break uri.c:1211
break uri.c:1252
break uri.c:1176
break uri.c:1121
break uri.c:1128
break uri.c:1157
break uri.c:1123
break uri.c:1150
break uri.c:1131
break uri.c:1136
break uri.c:1133
break uri.c:1152
break uri.c:1167
break uri.c:1160
break uri.c:1162
break uri.c:1168
break uri.c:1170
break uri.c:1204
break uri.c:1177
break uri.c:1179
break uri.c:1186
break uri.c:1191
break uri.c:1188
break uri.c:1205
break uri.c:1207
break uri.c:1217
break uri.c:1223
break uri.c:1225
break uri.c:1233
break uri.c:1238
break uri.c:1235
break uri.c:1268
break uri.c:1253
break uri.c:1255
break uri.c:1261
break uri.c:1263
break uri.c:1269
break uri.c:1271
break uri.c:1277
break uri.c:1282
break uri.c:1279
break uri.c:1295
break uri.c:1297
break uri.c:1303
break uri.c:1308
break uri.c:1305
break uri.c:1321
break uri.c:1344
break uri.c:1358
break uri.c:1388
break uri.c:1423
break uri.c:1432
break uri.c:1480
break uri.c:1580
break uri.c:1446
break uri.c:1458
break uri.c:1463
break uri.c:1516
break uri.c:1523
break uri.c:1538
break uri.c:1553
break uri.c:1586
break uri.c:1598
break uri.c:1624
break uri.c:1626
break uri.c:1627
break uri.c:1629
break uri.c:1631
break uri.c:1640
break uri.c:1643
break uri.c:1650
break uri.c:1645
break uri.c:1647
break uri.c:1652
break uri.c:1654
break uri.c:1685
break uri.c:1690
break uri.c:1694
break uri.c:1758
break uri.c:1762
break uri.c:1774
break uri.c:1785
break uri.c:1793
break uri.c:1802
break uri.c:1811
break uri.c:1820
break uri.c:1828
break uri.c:1836
break uri.c:1849
break uri.c:1856
break uri.c:1768
break uri.c:1840
break uri.c:1907
break uri.c:1919
break uri.c:1921
break uri.c:1928
break uri.c:1936
break uri.c:1941
break uri.c:1966
break uri.c:1968
break uri.c:2002
break uri.c:2023
break uri.c:2036
break uri.c:2050
break uri.c:2070
break uri.c:2083
break uri.c:2103
break uri.c:1910
break uri.c:1912
break uri.c:1932
break uri.c:1945
break uri.c:1972
break uri.c:1974
break uri.c:2024
break uri.c:2038
break uri.c:2185
break uri.c:2192
break uri.c:2195
break uri.c:2205
break uri.c:2210
break uri.c:2212
break uri.c:2223
break uri.c:2230
break uri.c:2234
break uri.c:2238
break uri.c:2301
break uri.c:2314
break uri.c:2330
break uri.c:2197
break uri.c:2214
break uri.c:2266
break uri.c:2293
break uri.c:2277
break uri.c:2331
break uri.c:2394
break uri.c:2414
break uri.c:2421
break uri.c:2433
break uri.c:2444
break uri.c:2438
break uri.c:2448
break uri.c:2527
break uri.c:2530
break uri.c:2535
break valid.c:61
break valid.c:66
break valid.c:2933
break valid.c:2950
break valid.c:2968
break valid.c:3009
break valid.c:3012
break valid.c:3015
break valid.c:3023
break valid.c:3026
break valid.c:3033
break valid.c:3042
break valid.c:3061
break valid.c:3076
break valid.c:3062
break valid.c:3068
break valid.c:3084
break valid.c:3123
break valid.c:3125
break valid.c:3130
break valid.c:3127
break valid.c:3132
break valid.c:3138
break valid.c:3144
break valid.c:3170
break valid.c:3171
break valid.c:3174
break valid.c:3178
break valid.c:3182
break valid.c:3225
break valid.c:3229
break valid.c:3234
break valid.c:3262
break valid.c:3263
break valid.c:3292
break valid.c:3293
break valid.c:3320
break valid.c:3299
break valid.c:3305
break valid.c:3309
break valid.c:3322
break valid.c:3359
break valid.c:3360
break valid.c:3384
break valid.c:3385
break valid.c:3388
break valid.c:3393
break valid.c:3420
break valid.c:3421
break valid.c:3441
break valid.c:3442
break valid.c:3497
break valid.c:3502
break xmlIO.c:242
break xmlIO.c:401
break xmlIO.c:243
break xmlIO.c:435
break xmlIO.c:438
break xmlIO.c:439
break xmlIO.c:488
break xmlIO.c:513
break xmlIO.c:516
break xmlIO.c:695
break xmlIO.c:711
break xmlIO.c:715
break xmlIO.c:751
break xmlIO.c:790
break xmlIO.c:821
break xmlIO.c:824
break xmlIO.c:829
break xmlIO.c:852
break xmlIO.c:861
break xmlIO.c:835
break xmlIO.c:841
break xmlIO.c:880
break xmlIO.c:882
break xmlIO.c:955
break xmlIO.c:958
break xmlIO.c:1001
break xmlIO.c:1004
break xmlIO.c:1010
break xmlIO.c:1013
break xmlIO.c:1006
break xmlIO.c:1028
break xmlIO.c:1031
break xmlIO.c:2198
break xmlIO.c:2244
break xmlIO.c:2345
break xmlIO.c:2351
break xmlIO.c:2482
break xmlIO.c:2484
break xmlIO.c:2488
break xmlIO.c:2491
break xmlIO.c:2494
break xmlIO.c:2551
break xmlIO.c:2554
break xmlIO.c:2560
break xmlIO.c:2571
break xmlIO.c:2579
break xmlIO.c:2562
break xmlIO.c:2565
break xmlIO.c:2631
break xmlIO.c:2803
break xmlIO.c:2806
break xmlIO.c:2809
break xmlIO.c:2919
break xmlIO.c:2922
break xmlIO.c:2947
break xmlIO.c:2948
break xmlIO.c:2951
break xmlIO.c:2956
break xmlIO.c:2983
break xmlIO.c:2984
break xmlIO.c:2987
break xmlIO.c:2993
break xmlIO.c:3055
break xmlIO.c:3058
break xmlIO.c:3111
break xmlIO.c:3159
break xmlIO.c:3160
break xmlIO.c:3161
break xmlIO.c:3167
break xmlIO.c:3171
break xmlIO.c:3179
break xmlIO.c:3188
break xmlIO.c:3233
break xmlIO.c:3234
break xmlIO.c:3237
break xmlIO.c:3243
break xmlIO.c:3253
break xmlIO.c:3262
break xmlIO.c:3269
break xmlIO.c:3277
break xmlIO.c:3283
break xmlIO.c:3287
break xmlIO.c:3295
break xmlIO.c:3327
break xmlIO.c:3328
break xmlIO.c:3330
break xmlIO.c:3755
break xmlIO.c:3758
break xmlIO.c:3773
break xmlIO.c:3770
break xmlIO.c:3774
break xmlIO.c:3778
break xmlIO.c:3873
break xmlIO.c:3876
break xmlIO.c:3882
break xmlIO.c:3993
break xmlIO.c:4008
break xmlIO.c:4009
break xmlIO.c:4060
break xmlIO.c:4065
break xmlIO.c:4107
break xmlIO.c:4108
break xmllint.c:215
break xmllint.c:250
break xmllint.c:258
break xmllint.c:265
break xmllint.c:310
break xmllint.c:252
break xmllint.c:267
break xmllint.c:272
break xmllint.c:288
break xmllint.c:290
break xmllint.c:295
break xmllint.c:343
break xmllint.c:344
break xmllint.c:358
break xmllint.c:359
break xmllint.c:373
break xmllint.c:374
break xmllint.c:497
break xmllint.c:517
break xmllint.c:518
break xmllint.c:541
break xmllint.c:852
break xmllint.c:870
break xmllint.c:888
break xmllint.c:905
break xmllint.c:908
break xmllint.c:912
break xmllint.c:929
break xmllint.c:932
break xmllint.c:936
break xmllint.c:960
break xmllint.c:966
break xmllint.c:970
break xmllint.c:990
break xmllint.c:1009
break xmllint.c:1040
break xmllint.c:1060
break xmllint.c:1085
break xmllint.c:1105
break xmllint.c:1135
break xmllint.c:1154
break xmllint.c:1169
break xmllint.c:1184
break xmllint.c:1202
break xmllint.c:1205
break xmllint.c:1226
break xmllint.c:1247
break xmllint.c:1267
break xmllint.c:1289
break xmllint.c:1311
break xmllint.c:1333
break xmllint.c:1350
break xmllint.c:1485
break xmllint.c:1488
break xmllint.c:1492
break xmllint.c:1498
break xmllint.c:1508
break xmllint.c:1535
break xmllint.c:1538
break xmllint.c:1542
break xmllint.c:1596
break xmllint.c:1610
break xmllint.c:1652
break xmllint.c:1661
break xmllint.c:1670
break xmllint.c:1678
break xmllint.c:2139
break xmllint.c:2374
break xmllint.c:2379
break xmllint.c:2386
break xmllint.c:2916
break xmllint.c:2920
break xmllint.c:2270
break xmllint.c:2287
break xmllint.c:2271
break xmllint.c:2277
break xmllint.c:2310
break xmllint.c:2290
break xmllint.c:2292
break xmllint.c:2314
break xmllint.c:2316
break xmllint.c:2319
break xmllint.c:2358
break xmllint.c:2390
break xmllint.c:2934
break xmllint.c:2935
break xmllint.c:2936
break xmllint.c:2937
break xmllint.c:2938
break xmllint.c:2939
break xmllint.c:2940
break xmllint.c:2941
break xmllint.c:2942
break xmllint.c:2943
break xmllint.c:2944
break xmllint.c:2945
break xmllint.c:2946
break xmllint.c:2947
break xmllint.c:2948
break xmllint.c:2949
break xmllint.c:2950
break xmllint.c:2951
break xmllint.c:2952
break xmllint.c:2953
break xmllint.c:2954
break xmllint.c:2955
break xmllint.c:2956
break xmllint.c:2957
break xmllint.c:2958
break xmllint.c:2959
break xmllint.c:2960
break xmllint.c:2961
break xmllint.c:2962
break xmllint.c:2963
break xmllint.c:2964
break xmllint.c:2965
break xmllint.c:2966
break xmllint.c:3093
break xmllint.c:3116
break xmllint.c:3134
break xmllint.c:3515
break xmllint.c:3528
break xmllint.c:3532
break xmllint.c:3773
break xmllint.c:3776
break xmllint.c:3123
break xmllint.c:3126
break xmllint.c:3129
break xmllint.c:3654
break xmllint.c:3681
break xmllint.c:3686
break xmllint.c:3691
break xmllint.c:3696
break xmllint.c:3701
break xmllint.c:3720
break xmllint.c:3723
break xmllint.c:3658
break xmllint.c:3724
break xmllint.c:3766
break xmllint.c:3733
break xmllint.c:3754
break xmllint.c:3760
break xmlmemory.c:150
break xmlmemory.c:158
break xmlmemory.c:167
break xmlmemory.c:182
break xmlmemory.c:193
break xmlmemory.c:197
break xmlmemory.c:226
break xmlmemory.c:234
break xmlmemory.c:243
break xmlmemory.c:258
break xmlmemory.c:269
break xmlmemory.c:273
break xmlmemory.c:320
break xmlmemory.c:323
break xmlmemory.c:328
break xmlmemory.c:329
break xmlmemory.c:345
break xmlmemory.c:353
break xmlmemory.c:358
break xmlmemory.c:374
break xmlmemory.c:422
break xmlmemory.c:425
break xmlmemory.c:431
break xmlmemory.c:442
break xmlmemory.c:446
break xmlmemory.c:496
break xmlmemory.c:499
break xmlmemory.c:507
break xmlmemory.c:519
break xmlmemory.c:527
break xmlmemory.c:533
break xmlmemory.c:677
break xmlmemory.c:680
break xmlmemory.c:726
break xmlmemory.c:682
break xmlmemory.c:751
break xmlmemory.c:802
break xmlmemory.c:753
break xmlmemory.c:871
break xmlmemory.c:957
break xmlmemory.c:962
break xmlmemory.c:966
break xmlmemory.c:994
break xmlmemory.c:1028
break xmlmemory.c:1030
break xmlmemory.c:1032
break xmlmemory.c:1034
break xmlmemory.c:1095
break xmlmemory.c:1097
break xmlmemory.c:1099
break xmlmemory.c:1101
break xmlmemory.c:1103
break xmlsave.c:56
break xmlsave.c:58
break xmlsave.c:63
break xmlsave.c:59
break xmlsave.c:60
break xmlsave.c:61
break xmlsave.c:64
break xmlsave.c:65
break xmlsave.c:66
break xmlstring.c:45
break xmlstring.c:47
break xmlstring.c:70
break xmlstring.c:90
break xmlstring.c:92
break xmlstring.c:117
break xmlstring.c:134
break xmlstring.c:135
break xmlstring.c:136
break xmlstring.c:161
break xmlstring.c:162
break xmlstring.c:163
break xmlstring.c:188
break xmlstring.c:189
break xmlstring.c:194
break xmlstring.c:214
break xmlstring.c:215
break xmlstring.c:216
break xmlstring.c:217
break xmlstring.c:278
break xmlstring.c:279
break xmlstring.c:280
break xmlstring.c:303
break xmlstring.c:304
break xmlstring.c:305
break xmlstring.c:306
break xmlstring.c:326
break xmlstring.c:348
break xmlstring.c:349
break xmlstring.c:376
break xmlstring.c:377
break xmlstring.c:404
break xmlstring.c:405
break xmlstring.c:406
break xmlstring.c:412
break xmlstring.c:409
break xmlstring.c:452
break xmlstring.c:458
break xmlstring.c:461
break xmlstring.c:487
break xmlstring.c:498
break xmlstring.c:501
break xmlstring.c:489
break xpath.c:163
break xpath.c:166
break xpath.c:288
break xpath.c:346
break xpath.c:364
break xpath.c:383
break xpath.c:407
break xpath.c:409
break xpath.c:414
break xpath.c:289
break xpath.c:325
break xpath.c:333
break xpath.c:290
break xpath.c:310
break xpath.c:354
break xpath.c:356
break xpath.c:362
break xpath.c:422
break xpath.c:424
break timsort.h:568
r
while(1)
	c
end
