buf.c:126
buf.c:137
buf.c:158
buf.c:161
buf.c:171
buf.c:173
buf.c:199
buf.c:201
buf.c:203
buf.c:205
buf.c:233
buf.c:237
buf.c:261
buf.c:283
buf.c:290
buf.c:293
buf.c:307
buf.c:323
buf.c:331
buf.c:334
buf.c:349
buf.c:350
buf.c:353
buf.c:355
buf.c:382
buf.c:384
buf.c:385
buf.c:388
buf.c:401
buf.c:403
buf.c:434
buf.c:437
buf.c:440
buf.c:443
buf.c:450
buf.c:462
buf.c:454
buf.c:466
buf.c:474
buf.c:499
buf.c:500
buf.c:503
buf.c:520
buf.c:527
buf.c:535
buf.c:553
buf.c:571
buf.c:591
buf.c:594
buf.c:599
buf.c:618
buf.c:637
buf.c:658
buf.c:676
buf.c:699
buf.c:703
buf.c:704
buf.c:715
buf.c:759
buf.c:708
buf.c:762
buf.c:770
buf.c:778
buf.c:795
buf.c:780
buf.c:789
buf.c:823
buf.c:827
buf.c:828
buf.c:835
buf.c:840
buf.c:841
buf.c:843
buf.c:844
buf.c:847
buf.c:856
buf.c:851
buf.c:881
buf.c:884
buf.c:885
buf.c:919
buf.c:922
buf.c:924
buf.c:925
buf.c:976
buf.c:980
buf.c:1012
buf.c:1015
buf.c:1024
buf.c:1033
buf.c:1067
buf.c:1072
buf.c:1091
buf.c:1112
buf.c:1120
buf.c:1142
buf.c:1144
chvalid.c:173
chvalid.c:174
chvalid.c:175
chvalid.c:182
chvalid.c:185
chvalid.c:193
chvalid.c:201
chvalid.c:204
dict.c:174
dict.c:177
dict.c:198
dict.c:225
dict.c:264
dict.c:255
dict.c:257
dict.c:265
dict.c:269
dict.c:271
dict.c:274
dict.c:332
dict.c:323
dict.c:325
dict.c:333
dict.c:337
dict.c:339
dict.c:342
dict.c:385
dict.c:456
dict.c:459
dict.c:501
dict.c:506
dict.c:539
dict.c:508
dict.c:512
dict.c:580
dict.c:589
dict.c:581
dict.c:598
dict.c:627
dict.c:648
dict.c:652
dict.c:649
dict.c:680
dict.c:682
dict.c:684
dict.c:693
dict.c:695
dict.c:699
dict.c:713
dict.c:716
dict.c:722
dict.c:730
dict.c:759
dict.c:764
dict.c:809
dict.c:812
dict.c:819
dict.c:826
dict.c:830
dict.c:813
dict.c:874
dict.c:877
dict.c:883
dict.c:892
dict.c:921
dict.c:966
dict.c:968
dict.c:982
dict.c:987
dict.c:910
dict.c:898
dict.c:925
dict.c:934
dict.c:952
dict.c:940
dict.c:972
dict.c:989
dict.c:1013
dict.c:1016
dict.c:1020
dict.c:1029
dict.c:1058
dict.c:1047
dict.c:1035
dict.c:1062
dict.c:1071
dict.c:1089
dict.c:1077
dict.c:1123
dict.c:1137
dict.c:1152
dict.c:1182
dict.c:1184
dict.c:1197
dict.c:1156
dict.c:1165
dict.c:1188
dict.c:1224
dict.c:1228
dict.c:1248
dict.c:1269
dict.c:1290
dict_o.c:174
dict_o.c:177
dict_o.c:198
dict_o.c:225
dict_o.c:264
dict_o.c:255
dict_o.c:257
dict_o.c:265
dict_o.c:269
dict_o.c:271
dict_o.c:274
dict_o.c:332
dict_o.c:323
dict_o.c:325
dict_o.c:333
dict_o.c:337
dict_o.c:339
dict_o.c:342
dict_o.c:385
dict_o.c:456
dict_o.c:459
dict_o.c:501
dict_o.c:506
dict_o.c:539
dict_o.c:508
dict_o.c:512
dict_o.c:580
dict_o.c:589
dict_o.c:581
dict_o.c:598
dict_o.c:627
dict_o.c:648
dict_o.c:652
dict_o.c:649
dict_o.c:680
dict_o.c:682
dict_o.c:684
dict_o.c:693
dict_o.c:695
dict_o.c:699
dict_o.c:713
dict_o.c:716
dict_o.c:722
dict_o.c:730
dict_o.c:759
dict_o.c:764
dict_o.c:809
dict_o.c:812
dict_o.c:819
dict_o.c:826
dict_o.c:830
dict_o.c:813
dict_o.c:874
dict_o.c:877
dict_o.c:882
dict_o.c:891
dict_o.c:920
dict_o.c:965
dict_o.c:967
dict_o.c:981
dict_o.c:986
dict_o.c:909
dict_o.c:897
dict_o.c:924
dict_o.c:933
dict_o.c:951
dict_o.c:939
dict_o.c:971
dict_o.c:988
dict_o.c:1012
dict_o.c:1015
dict_o.c:1019
dict_o.c:1028
dict_o.c:1057
dict_o.c:1046
dict_o.c:1034
dict_o.c:1061
dict_o.c:1070
dict_o.c:1088
dict_o.c:1076
dict_o.c:1122
dict_o.c:1136
dict_o.c:1151
dict_o.c:1181
dict_o.c:1183
dict_o.c:1196
dict_o.c:1155
dict_o.c:1164
dict_o.c:1187
dict_o.c:1223
dict_o.c:1227
dict_o.c:1247
dict_o.c:1268
dict_o.c:1289
encoding.c:1351
encoding.c:1357
encoding.c:1368
encoding.c:1378
encoding.c:1364
encoding.c:1424
encoding.c:1429
encoding.c:1436
encoding.c:1430
encoding.c:1486
encoding.c:1490
encoding.c:1510
encoding.c:1511
encoding.c:1517
encoding.c:1527
encoding.c:1528
encoding.c:1547
encoding.c:1693
encoding.c:1702
encoding.c:1714
encoding.c:1804
encoding.c:1710
encoding.c:1716
encoding.c:1807
encoding.c:1984
encoding.c:1986
encoding.c:2033
encoding.c:2035
encoding.c:2080
encoding.c:2081
encoding.c:2082
encoding.c:2095
encoding.c:2102
encoding.c:2112
encoding.c:2140
encoding.c:2141
encoding.c:2096
encoding.c:2099
encoding.c:2191
encoding.c:2198
encoding.c:2209
encoding.c:2216
encoding.c:2220
encoding.c:2229
encoding.c:2270
encoding.c:2271
encoding.c:2210
encoding.c:2213
encoding.c:2298
encoding.c:2305
encoding.c:2307
encoding.c:2310
encoding.c:2312
encoding.c:2318
encoding.c:2327
encoding.c:2368
encoding.c:2315
encoding.c:2394
encoding.c:2396
encoding.c:2398
encoding.c:2402
encoding.c:2405
encoding.c:2414
encoding.c:2454
encoding.c:2658
encoding.c:2659
encoding.c:2665
encoding.c:2671
encoding.c:2689
encoding.c:2691
encoding.c:2701
encoding.c:2702
encoding.c:2744
encoding.c:2769
encoding.c:2810
encoding.c:2811
encoding.c:2812
encoding.c:2854
encoding.c:2814
encoding.c:2891
encoding.c:2893
encoding.c:2894
encoding.c:2902
encoding.c:2924
encoding.c:2914
encoding.c:2915
globals.c:464
globals.c:539
globals.c:642
globals.c:752
globals.c:778
globals.c:815
globals.c:850
globals.c:859
globals.c:868
globals.c:885
globals.c:902
globals.c:919
globals.c:936
globals.c:953
globals.c:970
globals.c:987
globals.c:996
globals.c:1013
globals.c:1030
hash.c:89
hash.c:96
hash.c:102
hash.c:129
hash.c:135
hash.c:141
hash.c:147
hash.c:153
hash.c:159
hash.c:179
hash.c:183
hash.c:188
hash.c:214
hash.c:240
hash.c:242
hash.c:244
hash.c:249
hash.c:253
hash.c:267
hash.c:286
hash.c:329
hash.c:331
hash.c:538
hash.c:544
hash.c:566
hash.c:598
hash.c:606
hash.c:620
hash.c:545
hash.c:550
hash.c:555
hash.c:547
hash.c:552
hash.c:557
hash.c:569
hash.c:578
hash.c:572
hash.c:591
hash.c:585
hash.c:602
hash.c:654
hash.c:660
hash.c:682
hash.c:728
hash.c:736
hash.c:751
hash.c:661
hash.c:666
hash.c:671
hash.c:663
hash.c:668
hash.c:673
hash.c:685
hash.c:697
hash.c:688
hash.c:717
hash.c:708
hash.c:732
hash.c:774
hash.c:776
hash.c:779
hash.c:781
hash.c:783
hash.c:790
hash.c:820
hash.c:822
hash.c:826
hash.c:829
hash.c:880
hash.c:882
hash.c:885
hash.c:957
hash.c:959
hash.c:962
hash.c:998
hash.c:1000
hash.c:1004
hash.c:1007
hash.c:1035
hash.c:1097
hash.c:1101
hash.c:1105
hash.c:1111
hash.c:1119
hash.c:1123
list.c:81
list.c:83
list.c:102
list.c:122
list.c:141
list.c:144
list.c:166
list.c:169
list.c:191
list.c:200
list.c:234
list.c:255
list.c:277
list.c:282
list.c:309
list.c:314
list.c:335
list.c:357
list.c:361
list.c:382
list.c:386
list.c:407
list.c:426
list.c:448
list.c:464
list.c:480
list.c:499
list.c:546
list.c:551
list.c:578
list.c:582
list.c:606
list.c:623
list.c:647
list.c:649
list.c:658
list.c:679
list.c:700
list.c:736
list.c:744
list.c:746
list.c:766
parser.c:132
parser.c:134
parser.c:141
parser.c:174
parser.c:190
parser.c:153
parser.c:158
parser.c:161
parser.c:180
parser.c:207
parser.c:191
parser.c:199
parser.c:205
parser.c:226
parser.c:211
parser.c:217
parser.c:223
parser.c:235
parser.c:245
parser.c:251
parser.c:343
parser.c:360
parser.c:380
parser.c:567
parser.c:576
parser.c:1152
parser.c:1166
parser.c:1190
parser.c:1193
parser.c:1211
parser.c:1222
parser.c:1215
parser.c:1252
parser.c:1257
parser.c:1268
parser.c:1280
parser.c:1313
parser.c:1253
parser.c:1259
parser.c:1292
parser.c:1283
parser.c:1287
parser.c:1297
parser.c:1301
parser.c:1356
parser.c:1362
parser.c:1358
parser.c:1385
parser.c:1401
parser.c:1406
parser.c:1476
parser.c:1478
parser.c:1497
parser.c:1505
parser.c:1508
parser.c:1510
parser.c:1516
parser.c:1522
parser.c:1524
parser.c:1526
parser.c:1528
parser.c:1531
parser.c:1533
parser.c:1539
parser.c:1545
parser.c:1547
parser.c:1549
parser.c:1555
parser.c:1561
parser.c:1568
parser.c:1570
parser.c:1576
parser.c:1586
parser.c:1593
parser.c:1501
parser.c:1553
parser.c:1574
parser.c:1591
parser.c:1599
parser.c:1631
parser.c:1643
parser.c:1634
parser.c:1636
parser.c:1653
parser.c:1648
parser.c:1658
parser.c:1683
parser.c:1684
parser.c:1688
parser.c:1705
parser.c:1715
parser.c:1709
parser.c:1712
parser.c:1719
parser.c:1723
parser.c:1745
parser.c:1747
parser.c:1753
parser.c:1778
parser.c:1780
parser.c:1803
parser.c:1804
parser.c:1817
parser.c:1810
parser.c:1843
parser.c:1844
parser.c:1875
parser.c:1895
parser.c:1882
parser.c:1890
parser.c:1898
parser.c:1952
parser.c:1954
parser.c:1959
parser.c:1985
parser.c:1998
parser.c:2004
parser.c:2018
parser.c:2125
parser.c:2135
parser.c:2191
parser.c:2218
parser.c:2242
parser.c:2220
parser.c:2227
parser.c:2224
parser.c:2228
parser.c:2266
parser.c:2292
parser.c:2294
parser.c:2302
parser.c:2310
parser.c:2339
parser.c:2409
parser.c:2372
    } else if  ((RAW == '&') && (NXT(1) == '#')) {
parser.c:2367
parser.c:2395
parser.c:2413
parser.c:2447
parser.c:2450
parser.c:2503
parser.c:2473
    } else if  ((cur == '&') && (ptr[1] == '#')){
parser.c:2507
parser.c:2655
parser.c:2659
parser.c:2671
parser.c:2677
parser.c:2841
parser.c:2873
parser.c:2879
parser.c:2886
parser.c:2894
parser.c:2895
parser.c:2904
parser.c:2905
parser.c:2909
parser.c:2888
parser.c:2897
parser.c:2898
parser.c:2912
parser.c:2910
parser.c:2914
parser.c:2955
parser.c:2958
parser.c:2976
parser.c:3009
parser.c:3016
parser.c:3025
parser.c:2984
parser.c:2990
parser.c:2996
parser.c:3028
parser.c:3037
parser.c:3055
parser.c:3088
parser.c:3043
parser.c:3063
parser.c:3069
parser.c:3075
parser.c:3131
parser.c:3136
parser.c:3154
parser.c:3162
parser.c:3167
parser.c:3189
parser.c:3216
parser.c:3219
parser.c:3303
parser.c:3308
parser.c:3224
parser.c:3243
        NEXTL(l);
parser.c:3266
parser.c:3269
parser.c:3273
            NEXTL(l);
parser.c:3277
parser.c:3283
        NEXTL(l);
parser.c:3292
parser.c:3295
parser.c:3299
            NEXTL(l);
parser.c:3355
parser.c:3365
parser.c:3367
parser.c:3401
parser.c:3437
parser.c:3475
parser.c:3485
parser.c:3487
parser.c:3489
parser.c:3497
parser.c:3525
parser.c:3533
parser.c:3542
parser.c:3578
parser.c:3632
parser.c:3666
parser.c:3735
parser.c:3737
parser.c:3769
parser.c:3776
parser.c:3788
parser.c:3825
parser.c:3827
parser.c:3880
parser.c:3770
parser.c:3914
parser.c:3932
parser.c:4099
parser.c:4102
parser.c:4106
parser.c:4123
parser.c:4129
parser.c:3918
parser.c:4108
parser.c:4109
parser.c:4178
parser.c:4204
parser.c:4216
parser.c:4264
parser.c:4207
parser.c:4294
parser.c:4305
parser.c:4350
parser.c:4297
parser.c:4429
parser.c:4624
parser.c:4642
parser.c:4579
parser.c:4590
parser.c:4616
parser.c:4581
parser.c:4588
        NEXTL(l);
parser.c:4596
parser.c:4612
parser.c:4597
parser.c:4620
parser.c:4629
parser.c:4630
parser.c:4647
        NEXTL(l);
parser.c:4680
parser.c:4690
parser.c:4682
parser.c:4687
parser.c:4692
parser.c:4697
parser.c:4700
parser.c:4719
parser.c:4704
parser.c:4715
parser.c:4716
parser.c:4751
parser.c:4762
parser.c:4764
parser.c:4773
parser.c:4775
parser.c:4784
parser.c:4838
parser.c:4755
parser.c:4771
    NEXTL(ql);
parser.c:4782
    NEXTL(rl);
parser.c:4789
parser.c:4792
parser.c:4799
parser.c:4820
parser.c:4831
parser.c:4805
parser.c:4824
parser.c:4829
        NEXTL(l);
parser.c:4841
parser.c:4846
parser.c:4889
parser.c:5056
parser.c:5079
parser.c:5061
parser.c:5066
parser.c:5071
parser.c:5169
parser.c:5184
parser.c:5185
parser.c:5205
parser.c:5210
parser.c:5257
parser.c:5266
parser.c:5186
parser.c:5270
parser.c:5328
parser.c:5332
parser.c:5339
parser.c:5343
parser.c:5348
parser.c:5360
parser.c:5361
parser.c:5410
parser.c:5414
parser.c:5419
parser.c:5429
parser.c:5434
parser.c:5439
parser.c:5448
parser.c:5597
parser.c:5600
parser.c:5612
parser.c:5421
parser.c:5449
parser.c:5451
parser.c:5460
parser.c:5463
parser.c:5467
parser.c:5476
parser.c:5495
parser.c:5505
parser.c:5507
parser.c:5509
parser.c:5524
parser.c:5527
parser.c:5550
parser.c:5554
parser.c:5531
parser.c:5540
parser.c:5556
parser.c:5575
parser.c:5578
parser.c:5580
parser.c:5605
parser.c:5618
parser.c:5630
parser.c:5626
parser.c:5679
parser.c:5683
parser.c:5688
parser.c:5698
parser.c:5691
parser.c:5728
parser.c:5769
parser.c:5798
parser.c:5839
parser.c:5864
parser.c:5876
parser.c:5866
parser.c:5872
parser.c:5928
parser.c:5931
parser.c:5934
parser.c:5937
parser.c:5940
parser.c:5943
parser.c:5946
parser.c:5949
parser.c:5973
parser.c:5977
parser.c:5982
parser.c:6065
parser.c:6066
parser.c:6101
parser.c:6105
parser.c:6121
parser.c:6162
parser.c:6106
parser.c:6113
parser.c:6115
parser.c:6123
parser.c:6163
parser.c:6171
parser.c:6228
parser.c:6237
parser.c:6416
parser.c:6421
parser.c:6427
parser.c:6245
parser.c:6251
parser.c:6256
parser.c:6261
parser.c:6264
parser.c:6267
parser.c:6436
parser.c:6428
parser.c:6457
parser.c:6437
parser.c:6458
parser.c:6554
parser.c:6561
parser.c:6564
parser.c:6596
parser.c:6600
parser.c:6606
parser.c:6611
parser.c:6615
parser.c:6647
parser.c:6621
parser.c:6628
parser.c:6634
parser.c:6649
parser.c:6653
parser.c:6660
parser.c:6675
parser.c:6666
parser.c:6860
parser.c:6891
parser.c:6861
parser.c:6882
parser.c:6915
parser.c:6926
parser.c:6935
parser.c:6949
parser.c:6956
parser.c:6962
parser.c:6938
parser.c:6964
parser.c:6995
parser.c:7009
parser.c:7019
parser.c:7052
parser.c:7011
parser.c:7021
parser.c:7078
parser.c:7084
parser.c:7130
parser.c:7131
parser.c:7136
parser.c:7159
parser.c:7287
parser.c:7342
parser.c:7351
parser.c:7090
parser.c:7092
parser.c:7098
parser.c:7139
parser.c:7278
parser.c:7171
parser.c:7182
parser.c:7205
parser.c:7210
parser.c:7216
parser.c:7221
parser.c:7188
parser.c:7262
parser.c:7222
parser.c:7230
parser.c:7269
parser.c:7294
parser.c:7328
parser.c:7301
parser.c:7306
parser.c:7323
parser.c:7311
parser.c:7365
parser.c:7371
parser.c:7419
parser.c:7379
parser.c:7427
parser.c:7527
parser.c:7530
parser.c:7534
parser.c:7539
parser.c:7548
parser.c:7563
parser.c:7574
parser.c:7597
parser.c:7569
parser.c:7621
parser.c:7598
parser.c:7606
parser.c:7631
parser.c:7642
parser.c:7645
parser.c:7715
parser.c:7719
parser.c:7724
parser.c:7730
parser.c:7742
parser.c:7760
parser.c:7769
parser.c:7795
parser.c:7744
parser.c:7765
parser.c:7815
parser.c:7796
parser.c:7825
parser.c:7836
parser.c:7909
parser.c:7913
parser.c:7920
parser.c:7938
parser.c:7940
parser.c:7949
parser.c:7963
parser.c:7978
parser.c:7987
parser.c:7990
parser.c:8000
parser.c:8005
parser.c:8016
parser.c:8018
parser.c:8029
parser.c:8024
parser.c:8057
parser.c:8071
parser.c:8079
parser.c:8090
parser.c:8121
parser.c:8123
parser.c:8175
parser.c:8178
parser.c:8182
parser.c:8189
parser.c:8208
parser.c:8213
parser.c:8222
parser.c:8244
parser.c:8288
parser.c:8301
parser.c:8315
parser.c:8322
parser.c:8328
parser.c:8348
parser.c:8393
parser.c:8384
parser.c:8755
parser.c:8756
parser.c:8784
parser.c:8796
parser.c:8785
parser.c:8787
parser.c:8800
parser.c:8821
parser.c:8803
parser.c:8808
parser.c:8809
parser.c:8828
parser.c:8835
parser.c:8880
parser.c:8887
parser.c:8962
parser.c:8977
parser.c:8980
parser.c:9085
parser.c:9095
parser.c:8978
        GROW_PARSE_ATT_VALUE_INTERNAL(ctxt, in, start, end)
parser.c:8978
        GROW_PARSE_ATT_VALUE_INTERNAL(ctxt, in, start, end)
parser.c:9052
parser.c:9058
parser.c:9075
parser.c:9081
parser.c:9089
parser.c:9098
parser.c:9130
parser.c:9139
parser.c:9152
parser.c:9181
parser.c:9144
parser.c:9156
parser.c:9163
parser.c:9167
parser.c:9187
parser.c:9199
parser.c:9211
parser.c:9189
parser.c:9201
parser.c:9203
parser.c:9264
parser.c:9286
parser.c:9495
parser.c:9519
parser.c:9639
parser.c:9650
parser.c:9504
parser.c:9523
parser.c:9606
parser.c:9608
parser.c:9623
parser.c:9624
parser.c:9628
parser.c:9665
parser.c:9694
parser.c:9709
parser.c:9712
parser.c:9723
parser.c:9768
parser.c:9775
parser.c:9782
parser.c:9790
parser.c:9835
parser.c:9846
parser.c:9780
    NEXTL(rl);
parser.c:9787
    NEXTL(sl);
parser.c:9796
parser.c:9821
parser.c:9799
parser.c:9807
parser.c:9824
parser.c:9830
        NEXTL(l);
parser.c:9841
    NEXTL(l);
parser.c:9954
parser.c:9979
parser.c:9983
parser.c:9986
parser.c:10015
parser.c:10025
parser.c:10047
parser.c:10049
parser.c:10070
parser.c:10096
parser.c:10072
parser.c:10087
parser.c:10115
parser.c:10139
parser.c:10145
parser.c:10157
parser.c:10186
parser.c:10191
parser.c:10198
parser.c:10243
parser.c:10246
parser.c:10252
parser.c:10259
parser.c:10255
parser.c:10262
parser.c:10291
parser.c:10294
parser.c:10353
parser.c:10356
parser.c:10362
parser.c:10387
parser.c:10396
parser.c:10371
parser.c:10365
parser.c:10374
parser.c:10418
parser.c:10405
parser.c:10425
parser.c:10433
parser.c:10434
parser.c:10485
parser.c:10488
parser.c:10494
parser.c:10510
parser.c:10496
parser.c:10506
parser.c:10499
parser.c:10512
parser.c:10522
parser.c:10515
parser.c:10558
parser.c:10568
parser.c:10599
parser.c:10607
parser.c:10618
parser.c:10635
parser.c:10571
parser.c:10575
parser.c:10580
parser.c:10600
parser.c:10619
parser.c:10637
parser.c:10694
parser.c:10709
parser.c:10712
parser.c:10730
parser.c:10741
parser.c:10744
parser.c:10764
parser.c:10766
parser.c:10781
parser.c:10814
parser.c:10843
parser.c:10849
parser.c:10858
parser.c:10724
parser.c:10750
parser.c:10785
parser.c:10800
parser.c:10788
parser.c:10828
parser.c:10884
parser.c:10902
parser.c:10914
parser.c:10922
parser.c:10940
parser.c:10952
parser.c:10955
parser.c:10967
parser.c:10908
parser.c:10928
parser.c:10957
parser.c:12541
parser.c:12547
parser.c:12552
parser.c:12556
parser.c:12575
parser.c:12603
parser.c:12606
parser.c:12613
parser.c:12617
parser.c:12639
parser.c:12623
parser.c:12963
parser.c:12969
parser.c:13008
parser.c:13025
parser.c:13033
parser.c:13038
parser.c:13050
parser.c:13061
parser.c:13074
parser.c:13088
parser.c:13102
parser.c:13140
parser.c:13145
parser.c:13149
parser.c:13183
parser.c:13195
parser.c:13041
parser.c:13045
parser.c:13080
parser.c:13093
parser.c:13108
parser.c:13142
parser.c:13155
parser.c:13308
parser.c:13348
parser.c:13366
parser.c:13384
parser.c:13395
parser.c:13400
parser.c:13404
parser.c:13413
parser.c:13436
parser.c:13460
parser.c:13350
parser.c:13370
parser.c:13397
parser.c:13557
parser.c:13564
parser.c:13587
parser.c:13593
parser.c:13622
parser.c:13637
parser.c:13642
parser.c:13647
parser.c:13665
parser.c:13680
parser.c:13572
parser.c:13639
parser.c:13953
parser.c:13957
parser.c:13973
parser.c:13975
parser.c:13988
parser.c:14049
parser.c:14059
parser.c:14065
parser.c:14335
parser.c:14337
parser.c:14341
parser.c:14346
parser.c:14352
parser.c:14536
parser.c:14668
parser.c:14682
parser.c:14731
parser.c:14797
parser.c:14809
parser.c:14866
parser.c:14870
parser.c:14903
parser.c:14910
parser.c:14913
parser.c:14920
parser.c:14927
parser.c:14942
parser.c:14955
parser.c:14969
parser.c:14963
parser.c:14991
parser.c:14993
parser.c:14998
parser.c:15004
parser.c:15010
parser.c:15015
parser.c:15022
parser.c:15028
parser.c:15035
parser.c:15045
parser.c:15049
parser.c:15065
parser.c:15072
parser.c:15077
parser.c:15081
parser.c:15085
parser.c:15089
parser.c:15093
parser.c:15097
parser.c:15103
parser.c:15107
parser.c:15111
parser.c:15154
parser.c:15165
parser.c:15174
parser.c:15169
parser.c:15197
parser.c:15202
parser.c:15224
parser.c:15248
parser.c:15273
parser.c:15278
parser.c:15282
parser.c:15287
parser.c:15317
parser.c:15323
parser.c:15329
parser.c:15334
parser.c:15362
parser.c:15364
parser.c:15371
parser.c:15396
parser.c:15398
parser.c:15405
parser.c:15433
parser.c:15435
parser.c:15442
parser.c:15447
parser.c:15478
parser.c:15480
parser.c:15488
parser.c:15492
parser.c:15524
parser.c:15526
parser.c:15534
parser.c:15540
parserInternals.c:66
parserInternals.c:74
parserInternals.c:99
parserInternals.c:102
parserInternals.c:132
parserInternals.c:141
parserInternals.c:888
parserInternals.c:959
parserInternals.c:991
parserInternals.c:1019
parserInternals.c:1021
parserInternals.c:1023
parserInternals.c:1026
parserInternals.c:1063
parserInternals.c:1031
parserInternals.c:1071
parserInternals.c:1077
parserInternals.c:1087
parserInternals.c:1105
parserInternals.c:1120
parserInternals.c:1174
parserInternals.c:1193
parserInternals.c:1219
parserInternals.c:1255
parserInternals.c:1259
parserInternals.c:1266
parserInternals.c:1286
parserInternals.c:1294
parserInternals.c:1323
parserInternals.c:1349
parserInternals.c:1358
parserInternals.c:1388
parserInternals.c:1390
parserInternals.c:1402
parserInternals.c:1409
parserInternals.c:1448
parserInternals.c:1457
parserInternals.c:1465
parserInternals.c:1475
parserInternals.c:1480
parserInternals.c:1505
parserInternals.c:1509
parserInternals.c:1523
parserInternals.c:1527
parserInternals.c:1544
parserInternals.c:1548
parserInternals.c:1574
parserInternals.c:1579
parserInternals.c:1584
parserInternals.c:1593
parserInternals.c:1602
parserInternals.c:1633
parserInternals.c:1665
parserInternals.c:1675
parserInternals.c:1720
parserInternals.c:1725
parserInternals.c:1748
parserInternals.c:1769
parserInternals.c:1773
parserInternals.c:1790
parserInternals.c:1807
parserInternals.c:1832
parserInternals.c:1850
parserInternals.c:1841
parserInternals.c:1843
parserInternals.c:1870
parserInternals.c:1876
parserInternals.c:1884
parserInternals.c:1910
parserInternals.c:1901
rngparser.c:176
rngparser.c:180
rngparser.c:189
rngparser.c:216
rngparser.c:254
rngparser.c:255
rngparser.c:259
rngparser.c:269
rngparser.c:273
rngparser.c:263
rngparser.c:280
rngparser.c:298
rngparser.c:283
rngparser.c:285
rngparser.c:290
rngparser.c:301
rngparser.c:304
rngparser.c:320
rngparser.c:332
rngparser.c:337
rngparser.c:339
rngparser.c:351
rngparser.c:383
rngparser.c:387
rngparser.c:405
rngparser.c:461
rngparser.c:486
rngparser.c:497
rngparser.c:507
rngparser.c:490
rngparser.c:508
rngparser.c:536
rngparser.c:544
rngparser.c:550
rngparser.c:613
rngparser.c:618
rngparser.c:674
rngparser.c:678
rngparser.c:703
rngparser.c:724
rngparser.c:704
rngparser.c:713
rngparser.c:708
rngparser.c:716
rngparser.c:739
rngparser.c:727
rngparser.c:728
rngparser.c:741
rngparser.c:743
rngparser.c:808
rngparser.c:815
rngparser.c:838
rngparser.c:862
rngparser.c:850
rngparser.c:839
rngparser.c:843
rngparser.c:855
rngparser.c:853
rngparser.c:864
rngparser.c:873
rngparser.c:867
rngparser.c:877
rngparser.c:886
rngparser.c:911
rngparser.c:913
rngparser.c:968
rngparser.c:914
rngparser.c:921
rngparser.c:917
rngparser.c:928
rngparser.c:924
rngparser.c:933
rngparser.c:931
rngparser.c:938
rngparser.c:936
rngparser.c:942
rngparser.c:941
rngparser.c:946
rngparser.c:945
rngparser.c:950
rngparser.c:949
rngparser.c:955
rngparser.c:953
rngparser.c:960
rngparser.c:958
rngparser.c:963
rngparser.c:973
rngparser.c:970
rngparser.c:975
rngparser.c:977
rngparser.c:982
rngparser.c:1009
rngparser.c:1026
rngparser.c:1010
rngparser.c:1020
rngparser.c:1013
rngparser.c:1012
rngparser.c:1016
rngparser.c:1015
rngparser.c:1018
rngparser.c:1072
rngparser.c:1097
rngparser.c:1099
rngparser.c:1137
rngparser.c:1100
rngparser.c:1130
rngparser.c:1104
rngparser.c:1111
rngparser.c:1113
rngparser.c:1117
rngparser.c:1132
rngparser.c:1143
rngparser.c:1160
rngparser.c:1145
rngparser.c:1149
rngparser.c:1192
rngparser.c:1213
rngparser.c:1214
rngparser.c:1220
rngparser.c:1230
rngparser.c:1237
rngparser.c:1264
rngparser.c:1276
rngparser.c:1266
rngparser.c:1267
rngparser.c:1298
rngparser.c:1299
rngparser.c:1329
rngparser.c:1302
rngparser.c:1309
rngparser.c:1315
rngparser.c:1324
rngparser.c:1318
rngparser.c:1350
rngparser.c:1333
rngparser.c:1339
rngparser.c:1342
rngparser.c:1354
rngparser.c:1361
rngparser.c:1367
rngparser.c:1395
rngparser.c:1396
rngparser.c:1440
rngparser.c:1441
rngparser.c:1442
rngparser.c:1449
rngparser.c:1452
SAX2.c:2863
SAX2.c:2864
SAX2.c:2918
testapi.c:58
testapi.c:68
testapi.c:79
testapi.c:104
testapi.c:107
testapi.c:109
testapi.c:147
testapi.c:163
testapi.c:148
testapi.c:150
testapi.c:240
testapi.c:241
testapi.c:251
testapi.c:252
testapi.c:253
testapi.c:254
testapi.c:292
testapi.c:293
testapi.c:304
testapi.c:305
testapi.c:306
testapi.c:360
testapi.c:370
testapi.c:371
testapi.c:372
testapi.c:390
testapi.c:422
testapi.c:423
testapi.c:424
testapi.c:425
testapi.c:426
testapi.c:427
testapi.c:428
testapi.c:446
testapi.c:447
testapi.c:448
testapi.c:449
testapi.c:450
testapi.c:458
testapi.c:459
testapi.c:512
testapi.c:513
testapi.c:527
testapi.c:532
testapi.c:548
testapi.c:550
testapi.c:564
testapi.c:565
testapi.c:577
testapi.c:616
testapi.c:621
testapi.c:628
testapi.c:632
testapi.c:639
testapi.c:643
testapi.c:746
testapi.c:799
testapi.c:805
testapi.c:811
testapi.c:817
testapi.c:822
testapi.c:2785
testapi.c:2820
testapi.c:3675
testapi.c:3695
testapi.c:3738
testapi.c:3800
testapi.c:3845
testapi.c:3855
testapi.c:3892
testapi.c:3902
testapi.c:3941
testapi.c:3988
testapi.c:4024
testapi.c:4110
testapi.c:4171
testapi.c:4226
testapi.c:4264
testapi.c:4301
testapi.c:4335
testapi.c:4372
testapi.c:4406
testapi.c:4438
testapi.c:4470
testapi.c:4502
testapi.c:4535
testapi.c:4545
testapi.c:4588
testapi.c:4667
testapi.c:4705
testapi.c:4750
testapi.c:4796
testapi.c:4835
testapi.c:4879
testapi.c:4922
testapi.c:4954
testapi.c:5072
testapi.c:5138
testapi.c:5219
testapi.c:5238
testapi.c:5276
testapi.c:5508
testapi.c:5514
testapi.c:6496
testapi.c:6528
testapi.c:6560
testapi.c:6594
testapi.c:6626
testapi.c:6658
testapi.c:6690
testapi.c:6722
testapi.c:6754
testapi.c:6786
testapi.c:6818
testapi.c:6835
testapi.c:6846
testapi.c:8023
testapi.c:8051
testapi.c:8067
testapi.c:8092
testapi.c:8122
testapi.c:8156
testapi.c:8167
testapi.c:8215
testapi.c:8226
testapi.c:8267
testapi.c:8311
testapi.c:8348
testapi.c:8390
testapi.c:8417
testapi.c:8432
testapi.c:8446
testapi.c:8541
testapi.c:8612
testapi.c:8654
testapi.c:8700
testapi.c:8746
testapi.c:8790
testapi.c:8820
testapi.c:8857
testapi.c:8911
testapi.c:8943
testapi.c:9000
testapi.c:9034
testapi.c:9051
testapi.c:9072
testapi.c:9120
testapi.c:9187
testapi.c:9340
testapi.c:9383
testapi.c:9422
testapi.c:9461
testapi.c:9500
testapi.c:9534
testapi.c:9591
testapi.c:9618
testapi.c:9633
testapi.c:9666
testapi.c:9717
testapi.c:9775
testapi.c:9848
testapi.c:9887
testapi.c:9931
testapi.c:9982
testapi.c:10030
testapi.c:10086
testapi.c:10156
testapi.c:10210
testapi.c:10261
testapi.c:10319
testapi.c:10399
testapi.c:10446
testapi.c:10504
testapi.c:10569
testapi.c:10596
testapi.c:10622
testapi.c:10649
testapi.c:10686
testapi.c:10718
testapi.c:10759
testapi.c:10813
testapi.c:10870
testapi.c:10907
testapi.c:10939
testapi.c:10969
testapi.c:11006
testapi.c:11045
testapi.c:11084
testapi.c:11123
testapi.c:11162
testapi.c:11194
testapi.c:11231
testapi.c:11280
testapi.c:11314
testapi.c:11344
testapi.c:11371
testapi.c:11398
testapi.c:11889
testapi.c:11905
testapi.c:11928
testapi.c:11958
testapi.c:11988
testapi.c:12020
testapi.c:12137
testapi.c:12192
testapi.c:12244
testapi.c:12258
testapi.c:12298
testapi.c:12340
testapi.c:12353
testapi.c:12398
testapi.c:12442
testapi.c:12512
testapi.c:12537
testapi.c:12567
testapi.c:12599
testapi.c:12631
testapi.c:12673
testapi.c:12720
testapi.c:12751
testapi.c:13018
testapi.c:13131
testapi.c:13136
testapi.c:13200
testapi.c:13205
testapi.c:13371
testapi.c:13464
testapi.c:13511
testapi.c:13554
testapi.c:13597
testapi.c:13636
testapi.c:13670
testapi.c:13717
testapi.c:13765
testapi.c:13811
testapi.c:13824
testapi.c:14569
testapi.c:14586
testapi.c:14648
testapi.c:14737
testapi.c:14774
testapi.c:14808
testapi.c:14845
testapi.c:14879
testapi.c:14916
testapi.c:14950
testapi.c:14992
testapi.c:15033
testapi.c:15077
testapi.c:15113
testapi.c:15143
testapi.c:15153
testapi.c:15192
testapi.c:15231
testapi.c:15268
testapi.c:15302
testapi.c:15339
testapi.c:15378
testapi.c:15412
testapi.c:15449
testapi.c:15481
testapi.c:15511
testapi.c:15543
testapi.c:15580
testapi.c:15634
testapi.c:15680
testapi.c:15741
testapi.c:15801
testapi.c:15816
testapi.c:15865
testapi.c:15909
testapi.c:15950
testapi.c:15969
testapi.c:16005
testapi.c:16436
testapi.c:16450
testapi.c:17157
testapi.c:17179
testapi.c:17187
testapi.c:17189
testapi.c:17305
testapi.c:17314
testapi.c:17337
testapi.c:17343
testapi.c:17377
testapi.c:17383
testapi.c:17417
testapi.c:17423
testapi.c:17499
testapi.c:17505
testapi.c:17598
testapi.c:17634
testapi.c:17675
testapi.c:17741
testapi.c:17752
testapi.c:17790
testapi.c:17801
testapi.c:17842
testapi.c:17881
testapi.c:17919
testapi.c:17946
testapi.c:17996
testapi.c:18026
testapi.c:18063
testapi.c:18097
testapi.c:18134
testapi.c:18167
testapi.c:18172
testapi.c:18211
testapi.c:18248
testapi.c:18285
testapi.c:18322
testapi.c:18362
testapi.c:18378
testapi.c:18526
testapi.c:18559
testapi.c:18596
testapi.c:18630
testapi.c:18667
testapi.c:18706
testapi.c:18755
testapi.c:18813
testapi.c:18823
testapi.c:18900
testapi.c:18966
testapi.c:19017
testapi.c:19065
testapi.c:19106
testapi.c:19441
testapi.c:19590
testapi.c:19615
testapi.c:19645
testapi.c:19677
testapi.c:19709
testapi.c:19741
testapi.c:19778
testapi.c:19866
testapi.c:19907
testapi.c:19951
testapi.c:19992
testapi.c:20026
testapi.c:20063
testapi.c:20133
testapi.c:20144
testapi.c:20185
testapi.c:20276
testapi.c:20308
testapi.c:20345
testapi.c:20428
testapi.c:20481
testapi.c:20529
testapi.c:20575
testapi.c:20673
testapi.c:20709
testapi.c:20720
testapi.c:20771
testapi.c:20814
testapi.c:20853
testapi.c:20898
testapi.c:20949
testapi.c:21002
testapi.c:21045
testapi.c:21134
testapi.c:21168
testapi.c:21255
testapi.c:21265
testapi.c:21336
testapi.c:21371
testapi.c:21381
testapi.c:21422
testapi.c:21590
testapi.c:21624
testapi.c:21656
testapi.c:21688
testapi.c:21720
testapi.c:21810
testapi.c:21888
testapi.c:22166
testapi.c:22553
testapi.c:22599
testapi.c:22633
testapi.c:22663
testapi.c:22698
testapi.c:22735
testapi.c:22877
testapi.c:22916
testapi.c:22955
testapi.c:22991
testapi.c:23002
testapi.c:23040
testapi.c:23051
testapi.c:23087
testapi.c:23095
testapi.c:23375
testapi.c:23526
testapi.c:23554
testapi.c:23593
testapi.c:23627
testapi.c:23669
testapi.c:23730
testapi.c:23764
testapi.c:23799
testapi.c:23833
testapi.c:23865
testapi.c:23902
testapi.c:23931
testapi.c:23947
testapi.c:24010
testapi.c:24078
testapi.c:24163
testapi.c:24197
testapi.c:24537
testapi.c:24578
testapi.c:24637
testapi.c:24685
testapi.c:24726
testapi.c:24780
testapi.c:24821
testapi.c:24865
testapi.c:24912
testapi.c:24953
testapi.c:25002
testapi.c:25041
testapi.c:25088
testapi.c:26404
testapi.c:26467
testapi.c:26820
testapi.c:26831
testapi.c:26888
testapi.c:26920
testapi.c:26957
testapi.c:26984
testapi.c:27039
testapi.c:27071
testapi.c:27103
testapi.c:27145
testapi.c:27491
testapi.c:27527
testapi.c:27918
testapi.c:27926
testapi.c:27965
testapi.c:28004
testapi.c:28040
testapi.c:28051
testapi.c:28089
testapi.c:28100
testapi.c:28141
testapi.c:28177
testapi.c:28188
testapi.c:28229
testapi.c:28258
testapi.c:28308
testapi.c:28373
testapi.c:28419
testapi.c:28714
testapi.c:28734
testapi.c:28759
testapi.c:28800
testapi.c:28842
testapi.c:28892
testapi.c:28922
testapi.c:28982
testapi.c:29034
testapi.c:29051
testapi.c:29158
testapi.c:29163
testapi.c:32148
testapi.c:32228
testapi.c:33063
testapi.c:33091
testapi.c:33306
testapi.c:33317
testapi.c:34102
testapi.c:34128
testapi.c:35352
testapi.c:35386
testapi.c:35409
testapi.c:35439
testapi.c:35449
testapi.c:35483
testapi.c:35520
testapi.c:35559
testapi.c:35613
testapi.c:35664
testapi.c:35703
testapi.c:35742
testapi.c:35781
testapi.c:35815
testapi.c:35847
testapi.c:35881
testapi.c:35892
testapi.c:35930
testapi.c:35941
testapi.c:35979
testapi.c:35990
testapi.c:36024
testapi.c:36034
testapi.c:36073
testapi.c:36109
testapi.c:36112
testapi.c:36123
testapi.c:36164
testapi.c:36198
testapi.c:36230
testapi.c:36267
testapi.c:36299
testapi.c:36309
testapi.c:36348
testapi.c:36380
testapi.c:36390
testapi.c:36426
testapi.c:36429
testapi.c:36440
testapi.c:36461
testapi.c:36491
testapi.c:42157
testapi.c:42325
testapi.c:44945
testapi.c:45025
testapi.c:46243
testapi.c:46280
testapi.c:50446
testapi.c:50561
testapi.c:51094
testapi.c:51110
testapi.c:51116
testapi.c:51117
testapi.c:51118
testapi.c:51119
testapi.c:51120
testapi.c:51121
testapi.c:51122
testapi.c:51123
testapi.c:51124
testapi.c:51125
testapi.c:51126
testapi.c:51127
testapi.c:51128
testapi.c:51129
testapi.c:51130
testapi.c:51131
testapi.c:51132
testapi.c:51133
testapi.c:51134
testapi.c:51135
testapi.c:51136
testapi.c:51137
testapi.c:51138
testapi.c:51139
testapi.c:51140
testapi.c:51141
testapi.c:51142
testapi.c:51143
testapi.c:51144
testapi.c:51145
testapi.c:51146
testapi.c:51147
testapi.c:51148
testapi.c:51149
testapi.c:51150
testapi.c:51151
testapi.c:51152
testapi.c:51153
testchar.c:18
testchar.c:39
testchar.c:48
testchar.c:40
testchar.c:55
testchar.c:49
testchar.c:63
testchar.c:57
testchar.c:90
testchar.c:103
testchar.c:91
testchar.c:116
testchar.c:104
testchar.c:129
testchar.c:117
testchar.c:141
testchar.c:130
testchar.c:172
testchar.c:276
testchar.c:283
testchar.c:278
testchar.c:288
testchar.c:284
testchar.c:312
testchar.c:325
testchar.c:313
testchar.c:338
testchar.c:326
testchar.c:351
testchar.c:339
testchar.c:363
testchar.c:352
testchar.c:372
testchar.c:407
testchar.c:419
testchar.c:408
testchar.c:433
testchar.c:420
testchar.c:445
testchar.c:434
testchar.c:458
testchar.c:447
testchar.c:468
testchar.c:508
testchar.c:520
testchar.c:509
testchar.c:535
testchar.c:522
testchar.c:547
testchar.c:536
testchar.c:561
testchar.c:550
testchar.c:571
testchar.c:606
testchar.c:612
testchar.c:618
testdict.c:45
testdict.c:52
testdict.c:56
testdict.c:63
testdict.c:71
testdict.c:76
testdict.c:84
testdict.c:91
testdict.c:95
testdict.c:102
testdict.c:110
testdict.c:115
testdict.c:158
testdict.c:172
testdict.c:182
testdict.c:192
testdict.c:205
testdict.c:208
testdict.c:220
testdict.c:226
testdict.c:238
testdict.c:250
testdict.c:262
testdict.c:280
testdict.c:297
testdict.c:321
testdict.c:333
testdict.c:343
testdict.c:353
testdict.c:366
testdict.c:369
testdict.c:381
testdict.c:393
testdict.c:411
testdict.c:435
testlimits.c:55
testlimits.c:105
testlimits.c:121
testlimits.c:126
testlimits.c:148
testlimits.c:183
testlimits.c:186
testlimits.c:199
testlimits.c:187
testlimits.c:211
testlimits.c:200
testlimits.c:212
testlimits.c:215
testlimits.c:220
testlimits.c:268
testlimits.c:284
testlimits.c:287
testlimits.c:306
testlimits.c:324
testlimits.c:327
testlimits.c:333
testlimits.c:345
testlimits.c:334
testlimits.c:357
testlimits.c:346
testlimits.c:358
testlimits.c:361
testlimits.c:1270
testlimits.c:1279
testlimits.c:1283
testlimits.c:1284
testlimits.c:1292
testlimits.c:1442
testlimits.c:1479
testlimits.c:1482
testlimits.c:1484
testlimits.c:1485
testlimits.c:1503
testlimits.c:1507
testlimits.c:1539
testlimits.c:1580
testlimits.c:1588
testlimits.c:1590
testlimits.c:1585
testlimits.c:1591
testlimits.c:1619
testlimits.c:1625
testlimits.c:1612
testlimits.c:1614
testlimits.c:1616
testOOM.c:72
testOOM.c:74
testOOM.c:76
testOOM.c:103
testOOM.c:105
testOOM.c:124
testOOM.c:142
testOOM.c:165
testOOM.c:179
testOOM.c:166
testOOM.c:169
testOOM.c:172
testOOM.c:185
testOOM.c:200
testOOM.c:187
testOOM.c:198
testOOM.c:202
testOOM.c:221
testOOM.c:224
testOOM.c:237
testOOM.c:246
testOOM.c:252
testOOM.c:258
testOOM.c:270
testOOM.c:273
testOOM.c:281
testOOM.c:289
testOOM.c:259
testOOM.c:283
testOOM.c:297
testOOM.c:310
testOOM.c:335
testOOM.c:324
testOOM.c:326
testOOM.c:328
testOOM.c:331
testOOM.c:338
testOOM.c:343
testOOM.c:352
testOOMlib.c:87
testOOMlib.c:90
testOOMlib.c:122
testOOMlib.c:128
testOOMlib.c:135
testOOMlib.c:146
testOOMlib.c:152
testOOMlib.c:162
testOOMlib.c:172
testOOMlib.c:186
testOOMlib.c:192
testOOMlib.c:211
testOOMlib.c:246
testOOMlib.c:252
testOOMlib.c:256
testOOMlib.c:260
testrecurse.c:186
testrecurse.c:202
testrecurse.c:219
testrecurse.c:238
testrecurse.c:241
testrecurse.c:242
testrecurse.c:250
testrecurse.c:255
testrecurse.c:295
testrecurse.c:821
testrecurse.c:822
testrecurse.c:828
testrecurse.c:830
testrecurse.c:840
testrecurse.c:850
testrecurse.c:879
testrecurse.c:881
testrecurse.c:833
testrecurse.c:843
testrecurse.c:852
testrecurse.c:862
testrecurse.c:868
testrecurse.c:869
testrecurse.c:890
testrecurse.c:912
testrecurse.c:914
testrecurse.c:915
testrecurse.c:947
testrecurse.c:952
testrecurse.c:934
testrecurse.c:936
threads.c:172
threads.c:199
threads.c:222
threads.c:250
threads.c:280
threads.c:283
threads.c:311
threads.c:314
threads.c:335
threads.c:338
threads.c:342
threads.c:343
threads.c:379
threads.c:382
threads.c:387
threads.c:419
threads.c:492
threads.c:645
threads.c:650
threads.c:653
threads.c:756
threads.c:782
threads.c:784
threads.c:851
threads.c:852
threads.c:906
tree.c:225
tree.c:231
tree.c:233
tree.c:269
tree.c:271
tree.c:275
tree.c:281
tree.c:291
tree.c:295
tree.c:300
tree.c:302
tree.c:328
tree.c:329
tree.c:332
tree.c:342
tree.c:734
tree.c:737
tree.c:755
tree.c:771
tree.c:739
tree.c:772
tree.c:777
tree.c:805
tree.c:825
tree.c:846
tree.c:877
tree.c:891
tree.c:925
tree.c:951
tree.c:965
tree.c:972
tree.c:980
tree.c:990
tree.c:1002
tree.c:974
tree.c:982
tree.c:992
tree.c:1006
tree.c:1010
tree.c:1023
tree.c:1104
tree.c:1112
tree.c:1169
tree.c:1177
tree.c:1210
tree.c:1239
tree.c:1244
tree.c:1281
tree.c:1286
tree.c:1458
tree.c:1466
tree.c:1462
tree.c:1476
tree.c:1468
tree.c:1471
tree.c:1504
tree.c:1507
tree.c:1657
tree.c:1664
tree.c:1666
tree.c:1672
tree.c:1703
tree.c:1705
tree.c:1864
tree.c:1876
tree.c:1888
tree.c:1894
tree.c:1902
tree.c:1919
tree.c:1920
tree.c:1981
tree.c:2006
tree.c:2035
tree.c:2047
tree.c:2059
tree.c:2088
tree.c:2105
tree.c:2113
tree.c:2133
tree.c:2140
tree.c:2148
tree.c:2185
tree.c:2197
tree.c:2208
tree.c:2247
tree.c:2259
tree.c:2289
tree.c:2301
tree.c:2343
tree.c:2345
tree.c:2347
            UPDATE_LAST_CHILD_AND_PARENT(cur)
tree.c:2347
            UPDATE_LAST_CHILD_AND_PARENT(cur)
tree.c:2376
tree.c:2378
tree.c:2380
            UPDATE_LAST_CHILD_AND_PARENT(cur)
tree.c:2380
            UPDATE_LAST_CHILD_AND_PARENT(cur)
tree.c:2465
tree.c:2473
tree.c:2576
tree.c:2583
tree.c:2591
tree.c:2620
tree.c:2627
tree.c:2635
tree.c:2647
tree.c:2696
tree.c:2704
tree.c:2747
tree.c:2755
tree.c:2781
tree.c:2789
tree.c:2817
tree.c:2819
tree.c:2840
tree.c:2842
tree.c:2846
tree.c:2877
tree.c:2883
tree.c:2905
tree.c:3012
tree.c:3023
tree.c:3028
tree.c:3039
tree.c:3062
tree.c:3069
tree.c:3077
tree.c:3087
tree.c:3108
tree.c:3104
tree.c:3088
tree.c:3093
tree.c:3218
tree.c:3226
tree.c:3234
tree.c:3246
tree.c:3257
tree.c:3266
tree.c:3262
tree.c:3294
tree.c:3302
tree.c:3310
tree.c:3322
tree.c:3356
tree.c:3328
tree.c:3335
tree.c:3380
tree.c:3388
tree.c:3396
tree.c:3407
tree.c:3429
tree.c:3441
tree.c:3448
tree.c:3408
tree.c:3415
tree.c:3449
tree.c:3451
tree.c:3468
tree.c:3459
tree.c:3480
tree.c:3502
tree.c:3722
tree.c:3723
tree.c:3740
tree.c:3779
tree.c:3743
tree.c:3753
tree.c:3782
tree.c:3802
tree.c:3805
tree.c:3809
tree.c:3813
tree.c:3823
tree.c:3836
tree.c:3875
tree.c:3882
tree.c:3884
tree.c:3894
tree.c:3916
tree.c:3887
tree.c:3897
tree.c:3898
tree.c:3906
tree.c:3919
tree.c:4025
tree.c:4073
tree.c:4074
tree.c:4086
tree.c:4089
tree.c:4135
tree.c:4151
tree.c:4093
tree.c:4100
tree.c:4108
tree.c:4120
tree.c:4154
tree.c:4158
tree.c:4195
tree.c:4237
tree.c:4273
tree.c:4282
tree.c:4294
tree.c:4304
tree.c:4329
tree.c:4335
tree.c:4364
tree.c:4284
tree.c:4286
tree.c:4288
tree.c:4339
tree.c:4346
tree.c:4377
tree.c:4365
tree.c:4709
tree.c:4712
tree.c:4714
tree.c:4718
tree.c:5022
tree.c:5133
tree.c:5211
tree.c:5376
tree.c:5378
tree.c:5381
tree.c:5433
tree.c:5462
tree.c:5466
tree.c:5487
tree.c:5625
tree.c:5729
tree.c:5874
tree.c:5881
tree.c:5948
tree.c:5955
tree.c:6060
tree.c:6067
tree.c:6103
tree.c:6104
tree.c:6106
tree.c:6125
tree.c:6113
tree.c:6127
tree.c:6211
tree.c:6233
tree.c:6235
tree.c:6239
tree.c:6258
tree.c:6246
tree.c:6260
tree.c:6324
tree.c:6331
tree.c:6578
tree.c:6581
tree.c:6583
tree.c:6699
tree.c:6701
tree.c:6724
tree.c:6706
tree.c:6707
tree.c:6747
tree.c:6759
tree.c:6766
tree.c:6768
tree.c:6824
tree.c:6849
tree.c:6874
tree.c:7030
tree.c:7032
tree.c:7048
tree.c:7050
tree.c:7053
tree.c:7076
tree.c:7078
tree.c:7089
tree.c:7097
tree.c:7119
tree.c:7127
tree.c:7148
tree.c:7151
tree.c:7158
tree.c:7160
tree.c:7186
tree.c:7188
tree.c:7215
tree.c:7217
tree.c:7221
tree.c:7242
tree.c:7249
tree.c:7267
tree.c:7275
tree.c:7278
tree.c:7293
tree.c:7294
tree.c:7296
tree.c:7298
tree.c:7321
tree.c:7322
tree.c:7323
tree.c:7326
tree.c:7339
tree.c:7341
tree.c:7369
tree.c:7371
tree.c:7372
tree.c:7374
tree.c:7377
tree.c:7384
tree.c:7388
tree.c:7396
tree.c:7418
tree.c:7425
tree.c:7432
tree.c:7450
tree.c:7468
tree.c:7490
tree.c:7493
tree.c:7496
tree.c:7499
tree.c:7544
tree.c:7547
tree.c:7555
tree.c:7563
tree.c:7580
tree.c:7565
tree.c:7574
tree.c:7607
tree.c:7610
tree.c:7611
tree.c:7618
tree.c:7623
tree.c:7624
tree.c:7626
tree.c:7630
tree.c:7658
tree.c:7660
tree.c:7661
tree.c:7668
tree.c:7675
tree.c:7680
tree.c:7682
tree.c:7697
tree.c:7685
tree.c:7698
tree.c:7723
tree.c:7725
tree.c:7726
tree.c:7755
tree.c:7757
tree.c:7771
tree.c:7773
tree.c:7790
tree.c:7792
tree.c:7793
tree.c:7794
tree.c:7839
tree.c:7853
tree.c:7880
tree.c:7881
tree.c:7938
tree.c:7971
tree.c:7973
tree.c:7977
tree.c:7990
tree.c:8009
tree.c:7982
tree.c:8002
tree.c:8015
tree.c:8022
tree.c:8057
tree.c:8060
tree.c:8062
tree.c:8077
tree.c:8097
tree.c:8114
tree.c:8137
tree.c:8172
tree.c:8174
tree.c:8260
tree.c:8268
tree.c:8262
tree.c:8272
tree.c:8308
tree.c:8312
tree.c:8441
tree.c:8443
tree.c:8447
tree.c:8449
tree.c:8543
tree.c:8548
tree.c:8549
tree.c:8551
tree.c:8613
tree.c:8623
tree.c:8626
tree.c:8635
tree.c:8637
tree.c:8648
tree.c:8650
tree.c:8631
tree.c:8692
tree.c:8700
tree.c:8713
tree.c:8748
tree.c:8705
tree.c:8720
tree.c:8755
tree.c:8760
tree.c:8771
tree.c:8774
tree.c:8791
tree.c:8779
tree.c:8839
tree.c:9057
tree.c:9051
tree.c:9106
tree.c:9123
tree.c:9131
tree.c:9405
tree.c:9406
tree.c:9410
tree.c:9411
tree.c:9481
tree.c:9486
tree.c:9491
tree.c:9500
tree.c:9513
tree.c:9941
tree.c:9942
tree.c:9946
tree.c:9947
tree.c:9990
tree.c:9994
tree.c:10025
    XML_TREE_ADOPT_STR(attr->name);
tree.c:10031
tree.c:10034
tree.c:9997
tree.c:10001
tree.c:10020
tree.c:10003
tree.c:10012
tree.c:10015
tree.c:10025
    XML_TREE_ADOPT_STR(attr->name);
tree.c:10025
    XML_TREE_ADOPT_STR(attr->name);
tree.c:10120
tree.c:10127
tree.c:10136
tree.c:10159
tree.c:10162
tree.c:10173
trio.c:885
trio.c:887
trio.c:903
trio.c:911
trio.c:891
trio.c:934
trio.c:952
trio.c:939
trio.c:942
trio.c:972
trio.c:976
trio.c:985
trio.c:981
trio.c:1013
trio.c:1041
trio.c:1054
trio.c:1047
trio.c:1050
trio.c:1075
trio.c:1134
trio.c:1141
trio.c:1237
trio.c:1248
trio.c:1250
trio.c:1260
trio.c:1265
trio.c:1271
trio.c:1616
trio.c:1624
trio.c:1632
trio.c:1640
trio.c:1875
trio.c:1905
trio.c:1488
trio.c:1498
trio.c:1508
trio.c:1526
trio.c:1530
trio.c:1588
trio.c:1595
trio.c:1304
trio.c:1353
trio.c:1309
trio.c:1314
trio.c:1324
trio.c:1342
trio.c:1327
trio.c:1337
trio.c:1339
trio.c:1359
trio.c:1368
trio.c:1386
trio.c:1371
trio.c:1381
trio.c:1383
trio.c:1394
trio.c:1412
trio.c:1417
trio.c:1435
trio.c:1420
trio.c:1430
trio.c:1432
trio.c:1447
trio.c:1463
trio.c:1465
trio.c:1472
trio.c:1474
trio.c:1490
trio.c:1500
trio.c:1510
trio.c:1523
trio.c:1536
trio.c:1542
trio.c:1548
trio.c:1659
trio.c:1661
trio.c:1672
trio.c:1674
trio.c:1680
trio.c:1684
trio.c:1686
trio.c:1688
trio.c:1693
trio.c:1697
trio.c:1699
trio.c:1779
trio.c:1781
trio.c:1860
trio.c:1821
trio.c:1847
trio.c:1823
trio.c:1840
trio.c:1835
trio.c:1852
trio.c:1879
trio.c:1881
trio.c:1886
trio.c:1888
trio.c:1890
trio.c:1914
trio.c:1929
trio.c:1916
trio.c:1986
trio.c:1988
trio.c:1993
trio.c:1996
trio.c:2007
trio.c:2046
trio.c:2010
trio.c:2030
trio.c:2032
trio.c:2035
trio.c:2053
trio.c:2060
trio.c:2066
trio.c:2070
trio.c:2076
trio.c:2080
trio.c:2082
trio.c:2096
trio.c:2107
trio.c:2109
trio.c:2115
trio.c:2127
trio.c:2133
trio.c:2138
trio.c:2206
trio.c:2215
trio.c:2227
trio.c:2261
trio.c:2268
trio.c:2282
trio.c:2284
trio.c:2302
trio.c:2310
trio.c:2318
trio.c:2343
trio.c:2354
trio.c:2364
trio.c:2223
trio.c:2229
trio.c:2241
trio.c:2244
trio.c:2252
trio.c:2271
trio.c:2293
trio.c:2312
trio.c:2314
trio.c:2328
trio.c:2345
trio.c:2384
trio.c:2386
trio.c:2411
trio.c:2448
trio.c:2460
trio.c:2467
trio.c:2470
trio.c:2483
trio.c:2488
trio.c:2702
trio.c:2726
trio.c:2733
trio.c:2736
trio.c:2749
trio.c:2752
trio.c:2755
trio.c:2781
trio.c:2824
trio.c:2851
trio.c:2886
trio.c:2904
trio.c:2906
trio.c:2909
trio.c:2913
trio.c:2989
trio.c:3035
trio.c:3045
trio.c:3067
trio.c:2675
trio.c:2709
trio.c:2738
trio.c:2757
trio.c:2760
trio.c:2766
trio.c:2775
trio.c:2785
trio.c:2789
trio.c:2798
trio.c:2826
trio.c:2832
trio.c:2853
trio.c:2916
trio.c:2922
trio.c:2927
trio.c:2918
trio.c:2920
trio.c:2938
trio.c:2945
trio.c:2951
trio.c:2947
trio.c:2949
trio.c:2963
trio.c:2974
trio.c:2991
trio.c:3006
trio.c:3018
trio.c:3054
trio.c:3057
trio.c:3110
trio.c:3128
trio.c:3118
trio.c:3130
trio.c:3145
trio.c:3162
trio.c:3186
trio.c:3149
trio.c:3165
trio.c:3169
trio.c:3197
trio.c:3218
trio.c:3223
trio.c:3280
trio.c:3327
trio.c:3195
trio.c:3288
trio.c:3293
trio.c:3298
trio.c:3302
trio.c:3306
trio.c:3310
trio.c:3354
trio.c:3366
trio.c:3357
trio.c:3407
trio.c:3411
trio.c:3445
trio.c:3452
trio.c:3456
trio.c:3479
trio.c:3506
trio.c:3532
trio.c:3535
trio.c:3541
trio.c:3587
trio.c:3608
trio.c:4012
trio.c:4042
trio.c:4071
trio.c:4148
trio.c:4175
trio.c:4202
trio.c:4212
trio.c:4237
trio.c:4245
trio.c:4293
trio.c:4296
trio.c:4323
trio.c:4299
trio.c:4313
trio.c:4318
trio.c:4301
trio.c:4305
trio.c:4325
trio.c:4328
trio.c:4343
trio.c:4331
trio.c:4365
trio.c:4368
trio.c:4370
trio.c:4373
trio.c:4378
trio.c:4495
trio.c:4520
trio.c:4545
trio.c:4570
trio.c:4595
trio.c:4620
trio.c:4645
trio.c:4670
trio.c:4695
trio.c:4720
trio.c:4745
trio.c:4770
trio.c:4796
trio.c:4822
trio.c:4848
trio.c:4996
trio.c:5047
trio.c:5053
trio.c:5077
trio.c:5106
trio.c:5164
trio.c:5194
trio.c:5204
trio.c:5213
trio.c:5242
trio.c:5249
trio.c:5251
trio.c:5280
trio.c:5274
trio.c:5277
trio.c:5291
trio.c:5312
trio.c:5299
trio.c:5302
trio.c:5321
trio.c:5329
trio.c:5325
trio.c:5337
trio.c:5333
trio.c:5345
trio.c:5341
trio.c:5353
trio.c:5349
trio.c:5361
trio.c:5357
trio.c:5369
trio.c:5365
trio.c:5377
trio.c:5373
trio.c:5385
trio.c:5381
trio.c:5393
trio.c:5389
trio.c:5401
trio.c:5397
trio.c:5405
trio.c:5457
trio.c:5471
trio.c:5487
trio.c:5556
trio.c:5559
trio.c:5474
trio.c:5478
trio.c:5495
trio.c:5498
trio.c:5500
trio.c:5505
trio.c:5523
trio.c:5530
trio.c:5527
trio.c:5540
trio.c:5535
trio.c:5588
trio.c:5624
trio.c:5601
trio.c:5608
trio.c:5604
trio.c:5612
trio.c:5660
trio.c:5657
trio.c:5803
trio.c:5798
trio.c:5832
trio.c:5843
trio.c:5953
trio.c:5982
trio.c:5987
trio.c:5870
trio.c:5897
trio.c:5915
trio.c:5856
trio.c:5873
trio.c:5875
trio.c:5886
trio.c:5900
trio.c:5930
trio.c:5935
trio.c:5945
trio.c:5940
trio.c:5964
trio.c:5969
trio.c:6013
trio.c:6027
trio.c:6023
trio.c:6034
trio.c:6036
trio.c:6079
trio.c:6098
trio.c:6103
trio.c:6082
trio.c:6087
trio.c:6105
trio.c:6125
trio.c:6132
trio.c:6108
trio.c:6209
trio.c:6273
trio.c:6335
trio.c:6346
trio.c:6144
trio.c:6147
trio.c:6154
trio.c:6160
trio.c:6165
trio.c:6170
trio.c:6174
trio.c:6176
trio.c:6178
trio.c:6201
trio.c:6217
trio.c:6227
trio.c:6231
trio.c:6255
trio.c:6258
trio.c:6266
trio.c:6276
trio.c:6279
trio.c:6284
trio.c:6289
trio.c:6293
trio.c:6297
trio.c:6301
trio.c:6327
trio.c:6340
trio.c:6362
trio.c:6367
trio.c:6407
trio.c:6414
trio.c:6418
trio.c:6443
trio.c:6455
trio.c:6480
trio.c:6489
trio.c:6495
trio.c:6521
trio.c:6531
trio.c:6553
trio.c:6564
trionan.c:263
trionan.c:306
trionan.c:328
triostr.c:149
triostr.c:191
  assert(target);
triostr.c:192
  assert(source);
triostr.c:228
triostr.c:223
  assert(target);
triostr.c:224
  assert(source);
triostr.c:251
  assert(string);
triostr.c:252
  assert(substring);
triostr.c:279
  assert(target);
triostr.c:280
  assert(source);
triostr.c:309
  assert(target);
triostr.c:310
  assert(source);
triostr.c:311
  assert(max > 0); 
triostr.c:335
triostr.c:330
  assert(source);
triostr.c:381
triostr.c:377
  assert(source);
triostr.c:378
  assert(max > 0);
triostr.c:408
triostr.c:405
  assert(first);
triostr.c:406
  assert(second);
triostr.c:447
triostr.c:444
  assert(first);
triostr.c:445
  assert(second);
triostr.c:476
triostr.c:473
  assert(first);
triostr.c:474
  assert(second);
triostr.c:500
  assert(first);
triostr.c:501
  assert(second);
triostr.c:531
triostr.c:528
  assert(first);
triostr.c:529
  assert(second);
triostr.c:608
  assert(target);
triostr.c:609
  assert(format);
triostr.c:610
  assert(datetime);
triostr.c:611
  assert(max > 0);
triostr.c:638
  assert(string);
triostr.c:650
      assert(FALSE);
triostr.c:672
  assert(string);
triostr.c:693
  assert(string);
triostr.c:712
  assert(target);
triostr.c:739
  assert(string);
triostr.c:740
  assert(pattern);
triostr.c:744
triostr.c:748
triostr.c:760
triostr.c:792
  assert(string);
triostr.c:793
  assert(pattern);
triostr.c:797
triostr.c:801
triostr.c:813
triostr.c:843
  assert(target);
triostr.c:844
  assert(source);
triostr.c:845
  assert(Function);
triostr.c:872
  assert(string);
triostr.c:873
  assert(substring);
triostr.c:905
triostr.c:901
  assert(string);
triostr.c:902
  assert(substring);
triostr.c:909
triostr.c:937
  assert(delimiters);
triostr.c:985
triostr.c:1075
triostr.c:1082
triostr.c:1085
triostr.c:997
triostr.c:1008
triostr.c:1011
triostr.c:1032
triostr.c:1043
triostr.c:1053
triostr.c:1063
triostr.c:1077
triostr.c:1153
  assert(string);
triostr.c:1154
  assert((base >= 2) && (base <= 36));
triostr.c:1202
  assert(string);
triostr.c:1203
  assert((base >= 2) && (base <= 36));
triostr.c:1247
  assert(target);
triostr.c:1277
triostr.c:1308
triostr.c:1355
triostr.c:1357
triostr.c:1386
triostr.c:1384
  assert(self);
triostr.c:1419
triostr.c:1417
  assert(self);
triostr.c:1421
triostr.c:1425
triostr.c:1427
triostr.c:1435
triostr.c:1463
  assert(self);
triostr.c:1493
  assert(self);
triostr.c:1509
  assert(self);
triostr.c:1547
triostr.c:1543
  assert(self);
triostr.c:1544
  assert(other);
triostr.c:1575
triostr.c:1571
  assert(self);
triostr.c:1572
  assert(other);
triostr.c:1598
triostr.c:1596
  assert(self);
triostr.c:1600
triostr.c:1626
  assert(self);
triostr.c:1627
  assert(other);
triostr.c:1644
  assert(self);
triostr.c:1645
  assert(other);
triostr.c:1662
  assert(self);
triostr.c:1663
  assert(other);
triostr.c:1681
  assert(self);
triostr.c:1682
  assert(other);
triostr.c:1704
triostr.c:1701
  assert(other);
triostr.c:1707
triostr.c:1735
triostr.c:1732
  assert(other);
triostr.c:1738
triostr.c:1762
  assert(self);
triostr.c:1763
  assert(other);
triostr.c:1780
  assert(self);
triostr.c:1781
  assert(other);
triostr.c:1799
  assert(self);
triostr.c:1800
  assert(other);
triostr.c:1818
  assert(self);
triostr.c:1819
  assert(other);
triostr.c:1836
  assert(self);
triostr.c:1837
  assert(other);
triostr.c:1854
  assert(self);
triostr.c:1855
  assert(other);
triostr.c:1873
  assert(self);
triostr.c:1874
  assert(other);
triostr.c:1892
  assert(self);
triostr.c:1893
  assert(other);
triostr.c:1912
  assert(self);
triostr.c:1929
  assert(self);
triostr.c:1946
  assert(self);
triostr.c:1964
triostr.c:1962
  assert(self);
triostr.c:1982
  assert(self);
triostr.c:1999
  assert(self);
triostr.c:2000
  assert(other);
triostr.c:2017
  assert(self);
triostr.c:2018
  assert(other);
triostr.c:2035
  assert(self);
triostr.c:2036
  assert(other);
triostr.c:2053
  assert(self);
triostr.c:2054
  assert(other);
triostr.c:2071
  assert(self);
triostr.c:2072
  assert(other);
triostr.c:2089
  assert(self);
triostr.c:2090
  assert(other);
triostr.c:2106
  assert(self);
uri.c:212
uri.c:216
uri.c:221
uri.c:249
uri.c:258
uri.c:286
uri.c:294
uri.c:331
uri.c:335
uri.c:338
uri.c:373
uri.c:374
uri.c:405
uri.c:407
uri.c:409
uri.c:411
uri.c:413
uri.c:416
uri.c:449
uri.c:461
uri.c:453
uri.c:462
uri.c:464
uri.c:467
uri.c:469
uri.c:471
uri.c:473
uri.c:475
uri.c:487
uri.c:491
uri.c:526
uri.c:531
uri.c:532
uri.c:535
uri.c:563
uri.c:564
uri.c:599
uri.c:597
uri.c:601
uri.c:634
uri.c:638
uri.c:645
uri.c:642
uri.c:647
uri.c:681
uri.c:687
uri.c:685
uri.c:689
uri.c:723
uri.c:729
uri.c:727
uri.c:731
uri.c:767
uri.c:777
uri.c:770
uri.c:774
uri.c:780
uri.c:779
uri.c:782
uri.c:785
uri.c:814
uri.c:834
uri.c:839
uri.c:844
uri.c:820
uri.c:817
uri.c:819
uri.c:823
uri.c:822
uri.c:825
uri.c:828
uri.c:837
uri.c:842
uri.c:869
uri.c:870
uri.c:875
uri.c:876
uri.c:881
uri.c:886
uri.c:879
uri.c:884
uri.c:909
uri.c:918
uri.c:921
uri.c:944
uri.c:947
uri.c:949
uri.c:990
uri.c:993
uri.c:994
uri.c:998
uri.c:1024
uri.c:1043
uri.c:1049
uri.c:1073
uri.c:1078
uri.c:1084
uri.c:1101
uri.c:1294
uri.c:1319
uri.c:1094
uri.c:1087
uri.c:1089
uri.c:1096
uri.c:1104
uri.c:1109
uri.c:1106
uri.c:1120
uri.c:1211
uri.c:1252
uri.c:1176
uri.c:1121
uri.c:1128
uri.c:1157
uri.c:1123
uri.c:1150
uri.c:1131
uri.c:1136
uri.c:1133
uri.c:1152
uri.c:1167
uri.c:1160
uri.c:1162
uri.c:1168
uri.c:1170
uri.c:1204
uri.c:1177
uri.c:1179
uri.c:1186
uri.c:1191
uri.c:1188
uri.c:1205
uri.c:1207
uri.c:1217
uri.c:1223
uri.c:1225
uri.c:1233
uri.c:1238
uri.c:1235
uri.c:1268
uri.c:1253
uri.c:1255
uri.c:1261
uri.c:1263
uri.c:1269
uri.c:1271
uri.c:1277
uri.c:1282
uri.c:1279
uri.c:1295
uri.c:1297
uri.c:1303
uri.c:1308
uri.c:1305
uri.c:1321
uri.c:1344
uri.c:1358
uri.c:1388
uri.c:1423
uri.c:1432
uri.c:1480
uri.c:1580
uri.c:1446
uri.c:1458
uri.c:1463
uri.c:1516
uri.c:1523
uri.c:1538
uri.c:1553
uri.c:1586
uri.c:1598
uri.c:1624
uri.c:1626
uri.c:1627
uri.c:1629
uri.c:1631
uri.c:1640
uri.c:1643
uri.c:1650
uri.c:1645
uri.c:1647
uri.c:1652
uri.c:1654
uri.c:1685
uri.c:1690
uri.c:1694
uri.c:1758
uri.c:1762
uri.c:1774
uri.c:1785
uri.c:1793
uri.c:1802
uri.c:1811
uri.c:1820
uri.c:1828
uri.c:1836
uri.c:1849
uri.c:1856
uri.c:1768
uri.c:1787
        NULLCHK(segment)
uri.c:1796
        NULLCHK(segment)
uri.c:1804
        NULLCHK(segment)
uri.c:1813
        NULLCHK(segment)
uri.c:1831
        NULLCHK(segment)
uri.c:1840
uri.c:1843
        NULLCHK(segment)
uri.c:1851
        NULLCHK(segment)
uri.c:1858
        NULLCHK(segment)
uri.c:1907
uri.c:1919
uri.c:1921
uri.c:1928
uri.c:1936
uri.c:1941
uri.c:1966
uri.c:1968
uri.c:2002
uri.c:2023
uri.c:2036
uri.c:2050
uri.c:2070
uri.c:2083
uri.c:2103
uri.c:1910
uri.c:1912
uri.c:1932
uri.c:1945
uri.c:1972
uri.c:1974
uri.c:2024
uri.c:2038
uri.c:2185
uri.c:2192
uri.c:2195
uri.c:2205
uri.c:2210
uri.c:2212
uri.c:2223
uri.c:2230
uri.c:2234
uri.c:2238
uri.c:2301
uri.c:2314
uri.c:2330
uri.c:2197
uri.c:2214
uri.c:2266
uri.c:2293
uri.c:2277
uri.c:2331
uri.c:2394
uri.c:2414
uri.c:2421
uri.c:2433
uri.c:2444
uri.c:2438
uri.c:2448
uri.c:2527
uri.c:2530
uri.c:2535
valid.c:61
valid.c:66
valid.c:2933
valid.c:2950
valid.c:2968
valid.c:3009
valid.c:3012
valid.c:3015
valid.c:3023
valid.c:3026
valid.c:3033
valid.c:3042
valid.c:3061
valid.c:3076
valid.c:3062
valid.c:3068
valid.c:3084
valid.c:3123
valid.c:3125
valid.c:3130
valid.c:3127
valid.c:3132
valid.c:3138
valid.c:3144
valid.c:3170
valid.c:3171
valid.c:3174
valid.c:3178
valid.c:3182
valid.c:3225
valid.c:3229
valid.c:3234
valid.c:3262
valid.c:3263
valid.c:3292
valid.c:3293
valid.c:3320
valid.c:3299
valid.c:3305
valid.c:3309
valid.c:3322
valid.c:3359
valid.c:3360
valid.c:3384
valid.c:3385
valid.c:3388
valid.c:3393
valid.c:3420
valid.c:3421
valid.c:3441
valid.c:3442
valid.c:3497
valid.c:3502
xmlIO.c:242
xmlIO.c:401
xmlIO.c:243
xmlIO.c:435
xmlIO.c:438
xmlIO.c:439
xmlIO.c:488
xmlIO.c:513
xmlIO.c:516
xmlIO.c:695
xmlIO.c:711
xmlIO.c:715
xmlIO.c:751
xmlIO.c:790
xmlIO.c:821
xmlIO.c:824
xmlIO.c:829
xmlIO.c:852
xmlIO.c:861
xmlIO.c:835
xmlIO.c:841
xmlIO.c:880
xmlIO.c:882
xmlIO.c:955
xmlIO.c:958
xmlIO.c:1001
xmlIO.c:1004
xmlIO.c:1010
xmlIO.c:1013
xmlIO.c:1006
xmlIO.c:1028
xmlIO.c:1031
xmlIO.c:2198
xmlIO.c:2244
xmlIO.c:2345
xmlIO.c:2351
xmlIO.c:2482
xmlIO.c:2484
xmlIO.c:2488
xmlIO.c:2491
xmlIO.c:2494
xmlIO.c:2551
xmlIO.c:2554
xmlIO.c:2560
xmlIO.c:2571
xmlIO.c:2579
xmlIO.c:2562
xmlIO.c:2565
xmlIO.c:2631
xmlIO.c:2803
xmlIO.c:2806
xmlIO.c:2809
xmlIO.c:2919
xmlIO.c:2922
xmlIO.c:2947
xmlIO.c:2948
xmlIO.c:2951
xmlIO.c:2956
xmlIO.c:2983
xmlIO.c:2984
xmlIO.c:2987
xmlIO.c:2993
xmlIO.c:3055
xmlIO.c:3058
xmlIO.c:3111
xmlIO.c:3159
xmlIO.c:3160
xmlIO.c:3161
xmlIO.c:3167
xmlIO.c:3171
xmlIO.c:3179
xmlIO.c:3188
xmlIO.c:3233
xmlIO.c:3234
xmlIO.c:3237
xmlIO.c:3243
xmlIO.c:3253
xmlIO.c:3262
xmlIO.c:3269
xmlIO.c:3277
xmlIO.c:3283
xmlIO.c:3287
xmlIO.c:3295
xmlIO.c:3327
xmlIO.c:3328
xmlIO.c:3330
xmlIO.c:3755
xmlIO.c:3758
xmlIO.c:3773
xmlIO.c:3770
xmlIO.c:3774
xmlIO.c:3778
xmlIO.c:3873
xmlIO.c:3876
xmlIO.c:3882
xmlIO.c:3993
xmlIO.c:4008
xmlIO.c:4009
xmlIO.c:4060
xmlIO.c:4065
xmlIO.c:4107
xmlIO.c:4108
xmllint.c:215
xmllint.c:250
xmllint.c:258
xmllint.c:265
xmllint.c:310
xmllint.c:252
xmllint.c:267
xmllint.c:272
xmllint.c:288
xmllint.c:290
xmllint.c:295
xmllint.c:343
xmllint.c:344
xmllint.c:358
xmllint.c:359
xmllint.c:373
xmllint.c:374
xmllint.c:497
xmllint.c:517
xmllint.c:518
xmllint.c:541
xmllint.c:852
xmllint.c:870
xmllint.c:888
xmllint.c:905
xmllint.c:908
xmllint.c:912
xmllint.c:929
xmllint.c:932
xmllint.c:936
xmllint.c:960
xmllint.c:966
xmllint.c:970
xmllint.c:990
xmllint.c:1009
xmllint.c:1040
xmllint.c:1060
xmllint.c:1085
xmllint.c:1105
xmllint.c:1135
xmllint.c:1154
xmllint.c:1169
xmllint.c:1184
xmllint.c:1202
xmllint.c:1205
xmllint.c:1226
xmllint.c:1247
xmllint.c:1267
xmllint.c:1289
xmllint.c:1311
xmllint.c:1333
xmllint.c:1350
xmllint.c:1485
xmllint.c:1488
xmllint.c:1492
xmllint.c:1498
xmllint.c:1508
xmllint.c:1535
xmllint.c:1538
xmllint.c:1542
xmllint.c:1596
xmllint.c:1610
xmllint.c:1652
xmllint.c:1661
xmllint.c:1670
xmllint.c:1678
xmllint.c:2139
xmllint.c:2374
xmllint.c:2379
xmllint.c:2386
xmllint.c:2916
xmllint.c:2920
xmllint.c:2270
xmllint.c:2287
xmllint.c:2271
xmllint.c:2277
xmllint.c:2310
xmllint.c:2290
xmllint.c:2292
xmllint.c:2314
xmllint.c:2316
xmllint.c:2319
xmllint.c:2358
xmllint.c:2390
xmllint.c:2934
xmllint.c:2935
xmllint.c:2936
xmllint.c:2937
xmllint.c:2938
xmllint.c:2939
xmllint.c:2940
xmllint.c:2941
xmllint.c:2942
xmllint.c:2943
xmllint.c:2944
xmllint.c:2945
xmllint.c:2946
xmllint.c:2947
xmllint.c:2948
xmllint.c:2949
xmllint.c:2950
xmllint.c:2951
xmllint.c:2952
xmllint.c:2953
xmllint.c:2954
xmllint.c:2955
xmllint.c:2956
xmllint.c:2957
xmllint.c:2958
xmllint.c:2959
xmllint.c:2960
xmllint.c:2961
xmllint.c:2962
xmllint.c:2963
xmllint.c:2964
xmllint.c:2965
xmllint.c:2966
xmllint.c:3093
xmllint.c:3116
xmllint.c:3134
xmllint.c:3515
xmllint.c:3528
xmllint.c:3532
xmllint.c:3773
xmllint.c:3776
xmllint.c:3123
xmllint.c:3126
xmllint.c:3129
xmllint.c:3654
xmllint.c:3681
xmllint.c:3686
xmllint.c:3691
xmllint.c:3696
xmllint.c:3701
xmllint.c:3720
xmllint.c:3723
xmllint.c:3658
xmllint.c:3724
xmllint.c:3766
xmllint.c:3733
xmllint.c:3754
xmllint.c:3760
xmlmemory.c:150
xmlmemory.c:158
xmlmemory.c:167
xmlmemory.c:182
xmlmemory.c:193
xmlmemory.c:197
xmlmemory.c:226
xmlmemory.c:234
xmlmemory.c:243
xmlmemory.c:258
xmlmemory.c:269
xmlmemory.c:273
xmlmemory.c:320
xmlmemory.c:323
xmlmemory.c:328
xmlmemory.c:329
xmlmemory.c:345
xmlmemory.c:353
xmlmemory.c:358
xmlmemory.c:374
xmlmemory.c:422
xmlmemory.c:425
xmlmemory.c:431
xmlmemory.c:442
xmlmemory.c:446
xmlmemory.c:496
xmlmemory.c:499
xmlmemory.c:507
xmlmemory.c:519
xmlmemory.c:527
xmlmemory.c:533
xmlmemory.c:677
xmlmemory.c:680
xmlmemory.c:726
xmlmemory.c:682
xmlmemory.c:751
xmlmemory.c:802
xmlmemory.c:753
xmlmemory.c:871
xmlmemory.c:957
xmlmemory.c:962
xmlmemory.c:966
xmlmemory.c:994
xmlmemory.c:1028
xmlmemory.c:1030
xmlmemory.c:1032
xmlmemory.c:1034
xmlmemory.c:1095
xmlmemory.c:1097
xmlmemory.c:1099
xmlmemory.c:1101
xmlmemory.c:1103
xmlsave.c:56
xmlsave.c:58
xmlsave.c:63
xmlsave.c:59
xmlsave.c:60
xmlsave.c:61
xmlsave.c:64
xmlsave.c:65
xmlsave.c:66
xmlstring.c:45
xmlstring.c:47
xmlstring.c:70
xmlstring.c:90
xmlstring.c:92
xmlstring.c:117
xmlstring.c:134
xmlstring.c:135
xmlstring.c:136
xmlstring.c:161
xmlstring.c:162
xmlstring.c:163
xmlstring.c:188
xmlstring.c:189
xmlstring.c:194
xmlstring.c:214
xmlstring.c:215
xmlstring.c:216
xmlstring.c:217
xmlstring.c:278
xmlstring.c:279
xmlstring.c:280
xmlstring.c:303
xmlstring.c:304
xmlstring.c:305
xmlstring.c:306
xmlstring.c:326
xmlstring.c:348
xmlstring.c:349
xmlstring.c:376
xmlstring.c:377
xmlstring.c:404
xmlstring.c:405
xmlstring.c:406
xmlstring.c:412
xmlstring.c:409
xmlstring.c:452
xmlstring.c:458
xmlstring.c:461
xmlstring.c:487
xmlstring.c:498
xmlstring.c:501
xmlstring.c:489
xpath.c:163
xpath.c:166
xpath.c:288
xpath.c:346
xpath.c:364
xpath.c:383
xpath.c:407
xpath.c:409
xpath.c:414
xpath.c:289
xpath.c:325
xpath.c:333
xpath.c:290
xpath.c:310
xpath.c:354
xpath.c:356
xpath.c:362
xpath.c:422
xpath.c:424
timsort.h:135
timsort.h:186
timsort.h:188
timsort.h:197
timsort.h:198
timsort.h:204
timsort.h:226
timsort.h:237
timsort.h:249
timsort.h:260
timsort.h:273
timsort.h:277
timsort.h:287
timsort.h:278
timsort.h:290
timsort.h:294
timsort.h:305
timsort.h:309
timsort.h:325
timsort.h:329
timsort.h:344
timsort.h:333
timsort.h:357
timsort.h:360
timsort.h:382
timsort.h:388
timsort.h:394
timsort.h:389
timsort.h:409
timsort.h:415
timsort.h:410
timsort.h:431
timsort.h:436
timsort.h:456
timsort.h:467
timsort.h:472
timsort.h:443
timsort.h:448
timsort.h:498
timsort.h:502
timsort.h:512
timsort.h:520
timsort.h:539
timsort.h:543
timsort.h:555
timsort.h:559
timsort.h:563
timsort.h:568
timsort.h:573
