=====================================================================
TIME: 2022-05-30.22:50:51
=====================================================================
FUZZER ARGS:
 mutationsPerRun : 7200
 externalCmd     : NULL
 fuzzStdin       : FALSE
 timeout         : 1 (sec)
 ignoreAddr      : (nil)
 ASLimit         : 0 (MiB)
 RSSLimit        : 0 (MiB)
 DATALimit       : 0 (MiB)
 wordlistFile    : NULL
 dynFileMethod   : 
 fuzzTarget      : ./shuf ___FILE___ --random-source ../../random.txt 
CRASH:
DESCRIPTION: 
ORIG_FNAME: 457bd20a5fe265a68cfd772517377319.00000020.honggfuzz.cov
FUZZ_FNAME: /home/asl/Desktop/git_pipe4/ast-project-silvanbi-julesb/libs/coreutils/shuf/50_1/honggfuzz/SIGFPE.PC.428bcd.STACK.1a8c3410a9.CODE.1.ADDR.428bcd.INSTR.idiv___%ecx.fuzz
PID: 828770
SIGNAL: SIGFPE (8)
PC: 0x428bcd
FAULT ADDRESS: 0x428bcd
INSTRUCTION: idiv___%ecx
STACK HASH: 0000001a8c3410a9
STACK:
 <0x0000000000427927> [func:main file:/home/asl/Desktop/git_coreutils/coreutils/src/shuf.c line:593 module:/home/asl/Desktop/git_pipe4/ast-project-silvanbi-julesb/libs/coreutils/shuf/50_1/honggfuzz/shuf]
 <0x00007ffff7c4b0b3> [func:UNKNOWN file: line:0 module:/usr/lib/x86_64-linux-gnu/libc-2.31.so]
 <0x0000000000405a5e> [func:_start file: line:0 module:/home/asl/Desktop/git_pipe4/ast-project-silvanbi-julesb/libs/coreutils/shuf/50_1/honggfuzz/shuf]
=====================================================================
