system.h:270
system.h:286
system.h:304
system.h:308
system.h:319
sum.c:42
sum.c:92
sum.c:76
sum.c:56
sum.c:59
sum.c:66
sum.c:61
sum.c:119
sum.c:164
sum.c:152
sum.c:136
sum.c:139
sum.c:146
sum.c:141
sum.c:194
sum.c:211
