Breakpoint 1 at 0x44c18a: file sqlite3.c, line 71708.
[Thread debugging using libthread_db enabled]
Using host libthread_db library "/lib/x86_64-linux-gnu/libthread_db.so.1".

Breakpoint 1, sqlite3BtreeTableMoveto (pCur=0x51a0e0, intKey=1, biasRight=1, pRes=0x7fffffffcf38) at sqlite3.c:71708
71708	  if( rc ){
#0  sqlite3BtreeTableMoveto (pCur=0x51a0e0, intKey=1, biasRight=1, pRes=0x7fffffffcf38) at sqlite3.c:71708
71708	  if( rc ){
pCur = 0x51a0e0
intKey = 1
biasRight = 1
pRes = 0x7fffffffcf38
rc = 16
71709	    if( rc==SQLITE_EMPTY ){
#0  sqlite3BtreeTableMoveto (pCur=0x51a0e0, intKey=1, biasRight=1, pRes=0x7fffffffcf38) at sqlite3.c:71709
71709	    if( rc==SQLITE_EMPTY ){
pCur = 0x51a0e0
intKey = 1
biasRight = 1
pRes = 0x7fffffffcf38
rc = 16
71711	      *pRes = -1;
#0  sqlite3BtreeTableMoveto (pCur=0x51a0e0, intKey=1, biasRight=1, pRes=0x7fffffffcf38) at sqlite3.c:71711
71711	      *pRes = -1;
pCur = 0x51a0e0
intKey = 1
biasRight = 1
pRes = 0x7fffffffcf38
rc = 16
71712	      return SQLITE_OK;
#0  sqlite3BtreeTableMoveto (pCur=0x51a0e0, intKey=1, biasRight=1, pRes=0x7fffffffcf38) at sqlite3.c:71712
71712	      return SQLITE_OK;
pCur = 0x51a0e0
intKey = 1
biasRight = 1
pRes = 0x7fffffffcf38
rc = 16
71798	}
#0  sqlite3BtreeTableMoveto (pCur=0x51a0e0, intKey=1, biasRight=1, pRes=0x7fffffffcf38) at sqlite3.c:71798
71798	}
pCur = 0x51a0e0
intKey = 1
biasRight = 1
pRes = 0x7fffffffcf38
rc = 16
sqlite3BtreeInsert (pCur=0x51a0e0, pX=0x7fffffffd690, flags=8, seekResult=0) at sqlite3.c:75093
75093	      if( rc ) return rc;
#0  sqlite3BtreeInsert (pCur=0x51a0e0, pX=0x7fffffffd690, flags=8, seekResult=0) at sqlite3.c:75093
75093	      if( rc ) return rc;
pCur = 0x51a0e0
pX = 0x7fffffffd690
flags = 8
seekResult = 0
rc = 0
loc = -1
szNew = 0
idx = 0
pPage = 0x6
p = 0x51fdc8
pBt = 0x51fe28
oldCell = 0x100051fdc8 <error: Cannot access memory at address 0x100051fdc8>
newCell = 0x0
75094	    }
#0  sqlite3BtreeInsert (pCur=0x51a0e0, pX=0x7fffffffd690, flags=8, seekResult=0) at sqlite3.c:75094
75094	    }
pCur = 0x51a0e0
pX = 0x7fffffffd690
flags = 8
seekResult = 0
rc = 0
loc = -1
szNew = 0
idx = 0
pPage = 0x6
p = 0x51fdc8
pBt = 0x51fe28
oldCell = 0x100051fdc8 <error: Cannot access memory at address 0x100051fdc8>
newCell = 0x0
75095	  }else{
#0  sqlite3BtreeInsert (pCur=0x51a0e0, pX=0x7fffffffd690, flags=8, seekResult=0) at sqlite3.c:75095
75095	  }else{
pCur = 0x51a0e0
pX = 0x7fffffffd690
flags = 8
seekResult = 0
rc = 0
loc = -1
szNew = 0
idx = 0
pPage = 0x6
p = 0x51fdc8
pBt = 0x51fe28
oldCell = 0x100051fdc8 <error: Cannot access memory at address 0x100051fdc8>
newCell = 0x0

Breakpoint 1, sqlite3BtreeTableMoveto (pCur=0x519c30, intKey=1, biasRight=0, pRes=0x7fffffffd75c) at sqlite3.c:71708
71708	  if( rc ){
#0  sqlite3BtreeTableMoveto (pCur=0x519c30, intKey=1, biasRight=0, pRes=0x7fffffffd75c) at sqlite3.c:71708
71708	  if( rc ){
pCur = 0x519c30
intKey = 1
biasRight = 0
pRes = 0x7fffffffd75c
rc = 0
71723	  for(;;){
#0  sqlite3BtreeTableMoveto (pCur=0x519c30, intKey=1, biasRight=0, pRes=0x7fffffffd75c) at sqlite3.c:71723
71723	  for(;;){
pCur = 0x519c30
intKey = 1
biasRight = 0
pRes = 0x7fffffffd75c
rc = 0
71726	    MemPage *pPage = pCur->pPage;
#0  sqlite3BtreeTableMoveto (pCur=0x519c30, intKey=1, biasRight=0, pRes=0x7fffffffd75c) at sqlite3.c:71726
71726	    MemPage *pPage = pCur->pPage;
pCur = 0x519c30
intKey = 1
biasRight = 0
pRes = 0x7fffffffd75c
lwr = 0
upr = 0
idx = 4504190
c = 32767
chldPg = 4294954848
pPage = 0x98
pCell = 0x51fdc8 "\330\362P"
rc = 0
71737	    lwr = 0;
#0  sqlite3BtreeTableMoveto (pCur=0x519c30, intKey=1, biasRight=0, pRes=0x7fffffffd75c) at sqlite3.c:71737
71737	    lwr = 0;
pCur = 0x519c30
intKey = 1
biasRight = 0
pRes = 0x7fffffffd75c
lwr = 0
upr = 0
idx = 4504190
c = 32767
chldPg = 4294954848
pPage = 0x523788
pCell = 0x51fdc8 "\330\362P"
rc = 0
71738	    upr = pPage->nCell-1;
#0  sqlite3BtreeTableMoveto (pCur=0x519c30, intKey=1, biasRight=0, pRes=0x7fffffffd75c) at sqlite3.c:71738
71738	    upr = pPage->nCell-1;
pCur = 0x519c30
intKey = 1
biasRight = 0
pRes = 0x7fffffffd75c
lwr = 0
upr = 0
idx = 4504190
c = 32767
chldPg = 4294954848
pPage = 0x523788
pCell = 0x51fdc8 "\330\362P"
rc = 0
71740	    idx = upr>>(1-biasRight); /* idx = biasRight ? upr : (lwr+upr)/2; */
#0  sqlite3BtreeTableMoveto (pCur=0x519c30, intKey=1, biasRight=0, pRes=0x7fffffffd75c) at sqlite3.c:71740
71740	    idx = upr>>(1-biasRight); /* idx = biasRight ? upr : (lwr+upr)/2; */
pCur = 0x519c30
intKey = 1
biasRight = 0
pRes = 0x7fffffffd75c
lwr = 0
upr = 0
idx = 4504190
c = 32767
chldPg = 4294954848
pPage = 0x523788
pCell = 0x51fdc8 "\330\362P"
rc = 0
71743	      pCell = findCellPastPtr(pPage, idx);
#0  sqlite3BtreeTableMoveto (pCur=0x519c30, intKey=1, biasRight=0, pRes=0x7fffffffd75c) at sqlite3.c:71743
71743	      pCell = findCellPastPtr(pPage, idx);
pCur = 0x519c30
intKey = 1
biasRight = 0
pRes = 0x7fffffffd75c
nCellKey = 4294967300
lwr = 0
upr = 0
idx = 0
c = 32767
chldPg = 4294954848
pPage = 0x523788
pCell = 0x51fdc8 "\330\362P"
rc = 0
71744	      if( pPage->intKeyLeaf ){
#0  sqlite3BtreeTableMoveto (pCur=0x519c30, intKey=1, biasRight=0, pRes=0x7fffffffd75c) at sqlite3.c:71744
71744	      if( pPage->intKeyLeaf ){
pCur = 0x519c30
intKey = 1
biasRight = 0
pRes = 0x7fffffffd75c
nCellKey = 4294967300
lwr = 0
upr = 0
idx = 0
c = 32767
chldPg = 4294954848
pPage = 0x523788
pCell = 0x523700 "\006\001\006"
rc = 0
[Inferior 1 (process 4179041) exited normally]
