0x4c7acf: file xmlstring.c, line 90.
[Thread debugging using libthread_db enabled]
Using host libthread_db library "/lib/x86_64-linux-gnu/libthread_db.so.1".
xmlstring.c:90
90	    if ((cur == NULL) || (len < 0)) return(NULL);
xmlstring.c:90
90	    if ((cur == NULL) || (len < 0)) return(NULL);
len = 5
i = 0
91	    ret = (xmlChar *) xmlMallocAtomic(((size_t) len + 1) * sizeof(xmlChar));
xmlstring.c:91
91	    ret = (xmlChar *) xmlMallocAtomic(((size_t) len + 1) * sizeof(xmlChar));
len = 5
i = 0
92	    if (ret == NULL) {
xmlstring.c:92
92	    if (ret == NULL) {
len = 5
i = 0
96	    for (i = 0;i < len;i++) {
xmlstring.c:96
96	    for (i = 0;i < len;i++) {
len = 5
i = 0
97	        ret[i] = (xmlChar) cur[i];
xmlstring.c:97
97	        ret[i] = (xmlChar) cur[i];
len = 5
i = 0
98	        if (ret[i] == 0) return(ret);
xmlstring.c:98
98	        if (ret[i] == 0) return(ret);
len = 5
i = 0
xmlstring.c:90
90	    if ((cur == NULL) || (len < 0)) return(NULL);
xmlstring.c:90
90	    if ((cur == NULL) || (len < 0)) return(NULL);
len = 8
i = 0
91	    ret = (xmlChar *) xmlMallocAtomic(((size_t) len + 1) * sizeof(xmlChar));
xmlstring.c:91
91	    ret = (xmlChar *) xmlMallocAtomic(((size_t) len + 1) * sizeof(xmlChar));
len = 8
i = 0
92	    if (ret == NULL) {
xmlstring.c:92
92	    if (ret == NULL) {
len = 8
i = 0
96	    for (i = 0;i < len;i++) {
xmlstring.c:96
96	    for (i = 0;i < len;i++) {
len = 8
i = 0
97	        ret[i] = (xmlChar) cur[i];
xmlstring.c:97
97	        ret[i] = (xmlChar) cur[i];
len = 8
i = 0
98	        if (ret[i] == 0) return(ret);
xmlstring.c:98
98	        if (ret[i] == 0) return(ret);
len = 8
i = 0
xmlstring.c:90
90	    if ((cur == NULL) || (len < 0)) return(NULL);
xmlstring.c:90
90	    if ((cur == NULL) || (len < 0)) return(NULL);
len = 8
i = 124
91	    ret = (xmlChar *) xmlMallocAtomic(((size_t) len + 1) * sizeof(xmlChar));
xmlstring.c:91
91	    ret = (xmlChar *) xmlMallocAtomic(((size_t) len + 1) * sizeof(xmlChar));
len = 8
i = 124
92	    if (ret == NULL) {
xmlstring.c:92
92	    if (ret == NULL) {
len = 8
i = 124
96	    for (i = 0;i < len;i++) {
xmlstring.c:96
96	    for (i = 0;i < len;i++) {
len = 8
i = 124
97	        ret[i] = (xmlChar) cur[i];
xmlstring.c:97
97	        ret[i] = (xmlChar) cur[i];
len = 8
i = 0
98	        if (ret[i] == 0) return(ret);
xmlstring.c:98
98	        if (ret[i] == 0) return(ret);
len = 8
i = 0
xmlstring.c:90
90	    if ((cur == NULL) || (len < 0)) return(NULL);
xmlstring.c:90
90	    if ((cur == NULL) || (len < 0)) return(NULL);
len = 6
i = 124
91	    ret = (xmlChar *) xmlMallocAtomic(((size_t) len + 1) * sizeof(xmlChar));
xmlstring.c:91
91	    ret = (xmlChar *) xmlMallocAtomic(((size_t) len + 1) * sizeof(xmlChar));
len = 6
i = 124
92	    if (ret == NULL) {
xmlstring.c:92
92	    if (ret == NULL) {
len = 6
i = 124
96	    for (i = 0;i < len;i++) {
xmlstring.c:96
96	    for (i = 0;i < len;i++) {
len = 6
i = 124
97	        ret[i] = (xmlChar) cur[i];
xmlstring.c:97
97	        ret[i] = (xmlChar) cur[i];
len = 6
i = 0
98	        if (ret[i] == 0) return(ret);
xmlstring.c:98
98	        if (ret[i] == 0) return(ret);
len = 6
i = 0
xmlstring.c:90
90	    if ((cur == NULL) || (len < 0)) return(NULL);
xmlstring.c:90
90	    if ((cur == NULL) || (len < 0)) return(NULL);
len = 10
i = 124
91	    ret = (xmlChar *) xmlMallocAtomic(((size_t) len + 1) * sizeof(xmlChar));
xmlstring.c:91
91	    ret = (xmlChar *) xmlMallocAtomic(((size_t) len + 1) * sizeof(xmlChar));
len = 10
i = 124
92	    if (ret == NULL) {
xmlstring.c:92
92	    if (ret == NULL) {
len = 10
i = 124
96	    for (i = 0;i < len;i++) {
xmlstring.c:96
96	    for (i = 0;i < len;i++) {
len = 10
i = 124
97	        ret[i] = (xmlChar) cur[i];
xmlstring.c:97
97	        ret[i] = (xmlChar) cur[i];
len = 10
i = 0
98	        if (ret[i] == 0) return(ret);
xmlstring.c:98
98	        if (ret[i] == 0) return(ret);
len = 10
i = 0
xmlstring.c:90
90	    if ((cur == NULL) || (len < 0)) return(NULL);
xmlstring.c:90
90	    if ((cur == NULL) || (len < 0)) return(NULL);
len = 5
i = 124
91	    ret = (xmlChar *) xmlMallocAtomic(((size_t) len + 1) * sizeof(xmlChar));
xmlstring.c:91
91	    ret = (xmlChar *) xmlMallocAtomic(((size_t) len + 1) * sizeof(xmlChar));
len = 5
i = 124
92	    if (ret == NULL) {
xmlstring.c:92
92	    if (ret == NULL) {
len = 5
i = 124
96	    for (i = 0;i < len;i++) {
xmlstring.c:96
96	    for (i = 0;i < len;i++) {
len = 5
i = 124
97	        ret[i] = (xmlChar) cur[i];
xmlstring.c:97
97	        ret[i] = (xmlChar) cur[i];
len = 5
i = 0
98	        if (ret[i] == 0) return(ret);
xmlstring.c:98
98	        if (ret[i] == 0) return(ret);
len = 5
i = 0
xmlstring.c:90
90	    if ((cur == NULL) || (len < 0)) return(NULL);
xmlstring.c:90
90	    if ((cur == NULL) || (len < 0)) return(NULL);
len = 8
i = 124
91	    ret = (xmlChar *) xmlMallocAtomic(((size_t) len + 1) * sizeof(xmlChar));
xmlstring.c:91
91	    ret = (xmlChar *) xmlMallocAtomic(((size_t) len + 1) * sizeof(xmlChar));
len = 8
i = 124
92	    if (ret == NULL) {
xmlstring.c:92
92	    if (ret == NULL) {
len = 8
i = 124
96	    for (i = 0;i < len;i++) {
xmlstring.c:96
96	    for (i = 0;i < len;i++) {
len = 8
i = 124
97	        ret[i] = (xmlChar) cur[i];
xmlstring.c:97
97	        ret[i] = (xmlChar) cur[i];
len = 8
i = 0
98	        if (ret[i] == 0) return(ret);
xmlstring.c:98
98	        if (ret[i] == 0) return(ret);
len = 8
i = 0
xmlstring.c:90
90	    if ((cur == NULL) || (len < 0)) return(NULL);
xmlstring.c:90
90	    if ((cur == NULL) || (len < 0)) return(NULL);
len = 4
i = 124
91	    ret = (xmlChar *) xmlMallocAtomic(((size_t) len + 1) * sizeof(xmlChar));
xmlstring.c:91
91	    ret = (xmlChar *) xmlMallocAtomic(((size_t) len + 1) * sizeof(xmlChar));
len = 4
i = 124
92	    if (ret == NULL) {
xmlstring.c:92
92	    if (ret == NULL) {
len = 4
i = 124
96	    for (i = 0;i < len;i++) {
xmlstring.c:96
96	    for (i = 0;i < len;i++) {
len = 4
i = 124
97	        ret[i] = (xmlChar) cur[i];
xmlstring.c:97
97	        ret[i] = (xmlChar) cur[i];
len = 4
i = 0
98	        if (ret[i] == 0) return(ret);
xmlstring.c:98
98	        if (ret[i] == 0) return(ret);
len = 4
i = 0
[Inferior 1 (process 3917) exited with code 01]
