0x43c4a2: file sqlite3.c, line 78104.
[Thread debugging using libthread_db enabled]
Using host libthread_db library "/lib/x86_64-linux-gnu/libthread_db.so.1".
sqlite3.c:78104
78104	  if( pMem->szMalloc>0 && bPreserve && pMem->z==pMem->zMalloc ){
sqlite3.c:78104
78104	  if( pMem->szMalloc>0 && bPreserve && pMem->z==pMem->zMalloc ){
n = 32
bPreserve = 0
No locals.
78114	    if( pMem->szMalloc>0 ) sqlite3DbFreeNN(pMem->db, pMem->zMalloc);
sqlite3.c:78114
78114	    if( pMem->szMalloc>0 ) sqlite3DbFreeNN(pMem->db, pMem->zMalloc);
n = 32
bPreserve = 0
No locals.
78115	    pMem->zMalloc = sqlite3DbMallocRaw(pMem->db, n);
sqlite3.c:78115
78115	    pMem->zMalloc = sqlite3DbMallocRaw(pMem->db, n);
n = 32
bPreserve = 0
No locals.
78117	  if( pMem->zMalloc==0 ){
sqlite3.c:78117
78117	  if( pMem->zMalloc==0 ){
n = 32
bPreserve = 0
No locals.
78123	    pMem->szMalloc = sqlite3DbMallocSize(pMem->db, pMem->zMalloc);
sqlite3.c:78123
78123	    pMem->szMalloc = sqlite3DbMallocSize(pMem->db, pMem->zMalloc);
n = 32
bPreserve = 0
No locals.
78126	  if( bPreserve && pMem->z ){
sqlite3.c:78126
78126	  if( bPreserve && pMem->z ){
n = 32
bPreserve = 0
No locals.
78130	  if( (pMem->flags&MEM_Dyn)!=0 ){
sqlite3.c:78130
78130	  if( (pMem->flags&MEM_Dyn)!=0 ){
n = 32
bPreserve = 0
No locals.
78135	  pMem->z = pMem->zMalloc;
sqlite3.c:78135
78135	  pMem->z = pMem->zMalloc;
n = 32
bPreserve = 0
No locals.
78136	  pMem->flags &= ~(MEM_Dyn|MEM_Ephem|MEM_Static);
sqlite3.c:78136
78136	  pMem->flags &= ~(MEM_Dyn|MEM_Ephem|MEM_Static);
n = 32
bPreserve = 0
No locals.
78137	  return SQLITE_OK;
sqlite3.c:78137
78137	  return SQLITE_OK;
n = 32
bPreserve = 0
No locals.
78138	}
sqlite3.c:78138
78138	}
n = 32
bPreserve = 0
No locals.
sqlite3.c:78163
78163	}
sqlite3.c:78163
78163	}
szNew = 32
No locals.
sqlite3.c:79014
79014	    memcpy(pMem->z, z, nAlloc);
sqlite3.c:79014
79014	    memcpy(pMem->z, z, nAlloc);
n = -1
enc = 1 '\001'
nAlloc = 5
nByte = 4
iLimit = 50000
flags = 514
79015	  }else{
sqlite3.c:79015
79015	  }else{
n = -1
enc = 1 '\001'
nAlloc = 5
nByte = 4
iLimit = 50000
flags = 514
79027	  pMem->n = (int)(nByte & 0x7fffffff);
sqlite3.c:79027
79027	  pMem->n = (int)(nByte & 0x7fffffff);
n = -1
enc = 1 '\001'
nByte = 4
iLimit = 50000
flags = 514
79028	  pMem->flags = flags;
sqlite3.c:79028
79028	  pMem->flags = flags;
n = -1
enc = 1 '\001'
nByte = 4
iLimit = 50000
flags = 514
79029	  if( enc ){
sqlite3.c:79029
79029	  if( enc ){
n = -1
enc = 1 '\001'
nByte = 4
iLimit = 50000
flags = 514
sqlite3.c:78104
78104	  if( pMem->szMalloc>0 && bPreserve && pMem->z==pMem->zMalloc ){
sqlite3.c:78104
78104	  if( pMem->szMalloc>0 && bPreserve && pMem->z==pMem->zMalloc ){
n = 32
bPreserve = 0
No locals.
78114	    if( pMem->szMalloc>0 ) sqlite3DbFreeNN(pMem->db, pMem->zMalloc);
sqlite3.c:78114
78114	    if( pMem->szMalloc>0 ) sqlite3DbFreeNN(pMem->db, pMem->zMalloc);
n = 32
bPreserve = 0
No locals.
78115	    pMem->zMalloc = sqlite3DbMallocRaw(pMem->db, n);
sqlite3.c:78115
78115	    pMem->zMalloc = sqlite3DbMallocRaw(pMem->db, n);
n = 32
bPreserve = 0
No locals.
78117	  if( pMem->zMalloc==0 ){
sqlite3.c:78117
78117	  if( pMem->zMalloc==0 ){
n = 32
bPreserve = 0
No locals.
78123	    pMem->szMalloc = sqlite3DbMallocSize(pMem->db, pMem->zMalloc);
sqlite3.c:78123
78123	    pMem->szMalloc = sqlite3DbMallocSize(pMem->db, pMem->zMalloc);
n = 32
bPreserve = 0
No locals.
78126	  if( bPreserve && pMem->z ){
sqlite3.c:78126
78126	  if( bPreserve && pMem->z ){
n = 32
bPreserve = 0
No locals.
78130	  if( (pMem->flags&MEM_Dyn)!=0 ){
sqlite3.c:78130
78130	  if( (pMem->flags&MEM_Dyn)!=0 ){
n = 32
bPreserve = 0
No locals.
78135	  pMem->z = pMem->zMalloc;
sqlite3.c:78135
78135	  pMem->z = pMem->zMalloc;
n = 32
bPreserve = 0
No locals.
78136	  pMem->flags &= ~(MEM_Dyn|MEM_Ephem|MEM_Static);
sqlite3.c:78136
78136	  pMem->flags &= ~(MEM_Dyn|MEM_Ephem|MEM_Static);
n = 32
bPreserve = 0
No locals.
78137	  return SQLITE_OK;
sqlite3.c:78137
78137	  return SQLITE_OK;
n = 32
bPreserve = 0
No locals.
78138	}
sqlite3.c:78138
78138	}
n = 32
bPreserve = 0
No locals.
sqlite3.c:78163
78163	}
sqlite3.c:78163
78163	}
szNew = 32
No locals.
sqlite3.c:79014
79014	    memcpy(pMem->z, z, nAlloc);
sqlite3.c:79014
79014	    memcpy(pMem->z, z, nAlloc);
n = -1
enc = 1 '\001'
nAlloc = 5
nByte = 4
iLimit = 50000
flags = 514
79015	  }else{
sqlite3.c:79015
79015	  }else{
n = -1
enc = 1 '\001'
nAlloc = 5
nByte = 4
iLimit = 50000
flags = 514
79027	  pMem->n = (int)(nByte & 0x7fffffff);
sqlite3.c:79027
79027	  pMem->n = (int)(nByte & 0x7fffffff);
n = -1
enc = 1 '\001'
nByte = 4
iLimit = 50000
flags = 514
79028	  pMem->flags = flags;
sqlite3.c:79028
79028	  pMem->flags = flags;
n = -1
enc = 1 '\001'
nByte = 4
iLimit = 50000
flags = 514
79029	  if( enc ){
sqlite3.c:79029
79029	  if( enc ){
n = -1
enc = 1 '\001'
nByte = 4
iLimit = 50000
flags = 514
sqlite3.c:78104
78104	  if( pMem->szMalloc>0 && bPreserve && pMem->z==pMem->zMalloc ){
sqlite3.c:78104
78104	  if( pMem->szMalloc>0 && bPreserve && pMem->z==pMem->zMalloc ){
n = 32
bPreserve = 0
No locals.
78114	    if( pMem->szMalloc>0 ) sqlite3DbFreeNN(pMem->db, pMem->zMalloc);
sqlite3.c:78114
78114	    if( pMem->szMalloc>0 ) sqlite3DbFreeNN(pMem->db, pMem->zMalloc);
n = 32
bPreserve = 0
No locals.
78115	    pMem->zMalloc = sqlite3DbMallocRaw(pMem->db, n);
sqlite3.c:78115
78115	    pMem->zMalloc = sqlite3DbMallocRaw(pMem->db, n);
n = 32
bPreserve = 0
No locals.
78117	  if( pMem->zMalloc==0 ){
sqlite3.c:78117
78117	  if( pMem->zMalloc==0 ){
n = 32
bPreserve = 0
No locals.
78123	    pMem->szMalloc = sqlite3DbMallocSize(pMem->db, pMem->zMalloc);
sqlite3.c:78123
78123	    pMem->szMalloc = sqlite3DbMallocSize(pMem->db, pMem->zMalloc);
n = 32
bPreserve = 0
No locals.
78126	  if( bPreserve && pMem->z ){
sqlite3.c:78126
78126	  if( bPreserve && pMem->z ){
n = 32
bPreserve = 0
No locals.
78130	  if( (pMem->flags&MEM_Dyn)!=0 ){
sqlite3.c:78130
78130	  if( (pMem->flags&MEM_Dyn)!=0 ){
n = 32
bPreserve = 0
No locals.
78135	  pMem->z = pMem->zMalloc;
sqlite3.c:78135
78135	  pMem->z = pMem->zMalloc;
n = 32
bPreserve = 0
No locals.
78136	  pMem->flags &= ~(MEM_Dyn|MEM_Ephem|MEM_Static);
sqlite3.c:78136
78136	  pMem->flags &= ~(MEM_Dyn|MEM_Ephem|MEM_Static);
n = 32
bPreserve = 0
No locals.
78137	  return SQLITE_OK;
sqlite3.c:78137
78137	  return SQLITE_OK;
n = 32
bPreserve = 0
No locals.
78138	}
sqlite3.c:78138
78138	}
n = 32
bPreserve = 0
No locals.
sqlite3.c:78163
78163	}
sqlite3.c:78163
78163	}
szNew = 32
No locals.
sqlite3.c:79014
79014	    memcpy(pMem->z, z, nAlloc);
sqlite3.c:79014
79014	    memcpy(pMem->z, z, nAlloc);
n = -1
enc = 1 '\001'
nAlloc = 9
nByte = 8
iLimit = 50000
flags = 514
79015	  }else{
sqlite3.c:79015
79015	  }else{
n = -1
enc = 1 '\001'
nAlloc = 9
nByte = 8
iLimit = 50000
flags = 514
79027	  pMem->n = (int)(nByte & 0x7fffffff);
sqlite3.c:79027
79027	  pMem->n = (int)(nByte & 0x7fffffff);
n = -1
enc = 1 '\001'
nByte = 8
iLimit = 50000
flags = 514
79028	  pMem->flags = flags;
sqlite3.c:79028
79028	  pMem->flags = flags;
n = -1
enc = 1 '\001'
nByte = 8
iLimit = 50000
flags = 514
79029	  if( enc ){
sqlite3.c:79029
79029	  if( enc ){
n = -1
enc = 1 '\001'
nByte = 8
iLimit = 50000
flags = 514
sqlite3.c:78104
78104	  if( pMem->szMalloc>0 && bPreserve && pMem->z==pMem->zMalloc ){
sqlite3.c:78104
78104	  if( pMem->szMalloc>0 && bPreserve && pMem->z==pMem->zMalloc ){
n = 32
bPreserve = 0
No locals.
78114	    if( pMem->szMalloc>0 ) sqlite3DbFreeNN(pMem->db, pMem->zMalloc);
sqlite3.c:78114
78114	    if( pMem->szMalloc>0 ) sqlite3DbFreeNN(pMem->db, pMem->zMalloc);
n = 32
bPreserve = 0
No locals.
78115	    pMem->zMalloc = sqlite3DbMallocRaw(pMem->db, n);
sqlite3.c:78115
78115	    pMem->zMalloc = sqlite3DbMallocRaw(pMem->db, n);
n = 32
bPreserve = 0
No locals.
78117	  if( pMem->zMalloc==0 ){
sqlite3.c:78117
78117	  if( pMem->zMalloc==0 ){
n = 32
bPreserve = 0
No locals.
78123	    pMem->szMalloc = sqlite3DbMallocSize(pMem->db, pMem->zMalloc);
sqlite3.c:78123
78123	    pMem->szMalloc = sqlite3DbMallocSize(pMem->db, pMem->zMalloc);
n = 32
bPreserve = 0
No locals.
78126	  if( bPreserve && pMem->z ){
sqlite3.c:78126
78126	  if( bPreserve && pMem->z ){
n = 32
bPreserve = 0
No locals.
78130	  if( (pMem->flags&MEM_Dyn)!=0 ){
sqlite3.c:78130
78130	  if( (pMem->flags&MEM_Dyn)!=0 ){
n = 32
bPreserve = 0
No locals.
78135	  pMem->z = pMem->zMalloc;
sqlite3.c:78135
78135	  pMem->z = pMem->zMalloc;
n = 32
bPreserve = 0
No locals.
78136	  pMem->flags &= ~(MEM_Dyn|MEM_Ephem|MEM_Static);
sqlite3.c:78136
78136	  pMem->flags &= ~(MEM_Dyn|MEM_Ephem|MEM_Static);
n = 32
bPreserve = 0
No locals.
78137	  return SQLITE_OK;
sqlite3.c:78137
78137	  return SQLITE_OK;
n = 32
bPreserve = 0
No locals.
78138	}
sqlite3.c:78138
78138	}
n = 32
bPreserve = 0
No locals.
sqlite3.c:78163
78163	}
sqlite3.c:78163
78163	}
szNew = 32
No locals.
sqlite3.c:79014
79014	    memcpy(pMem->z, z, nAlloc);
sqlite3.c:79014
79014	    memcpy(pMem->z, z, nAlloc);
n = -1
enc = 1 '\001'
nAlloc = 9
nByte = 8
iLimit = 50000
flags = 514
79015	  }else{
sqlite3.c:79015
79015	  }else{
n = -1
enc = 1 '\001'
nAlloc = 9
nByte = 8
iLimit = 50000
flags = 514
79027	  pMem->n = (int)(nByte & 0x7fffffff);
sqlite3.c:79027
79027	  pMem->n = (int)(nByte & 0x7fffffff);
n = -1
enc = 1 '\001'
nByte = 8
iLimit = 50000
flags = 514
79028	  pMem->flags = flags;
sqlite3.c:79028
79028	  pMem->flags = flags;
n = -1
enc = 1 '\001'
nByte = 8
iLimit = 50000
flags = 514
79029	  if( enc ){
sqlite3.c:79029
79029	  if( enc ){
n = -1
enc = 1 '\001'
nByte = 8
iLimit = 50000
flags = 514
sqlite3.c:78104
78104	  if( pMem->szMalloc>0 && bPreserve && pMem->z==pMem->zMalloc ){
sqlite3.c:78104
78104	  if( pMem->szMalloc>0 && bPreserve && pMem->z==pMem->zMalloc ){
n = 32
bPreserve = 0
No locals.
78114	    if( pMem->szMalloc>0 ) sqlite3DbFreeNN(pMem->db, pMem->zMalloc);
sqlite3.c:78114
78114	    if( pMem->szMalloc>0 ) sqlite3DbFreeNN(pMem->db, pMem->zMalloc);
n = 32
bPreserve = 0
No locals.
78115	    pMem->zMalloc = sqlite3DbMallocRaw(pMem->db, n);
sqlite3.c:78115
78115	    pMem->zMalloc = sqlite3DbMallocRaw(pMem->db, n);
n = 32
bPreserve = 0
No locals.
78117	  if( pMem->zMalloc==0 ){
sqlite3.c:78117
78117	  if( pMem->zMalloc==0 ){
n = 32
bPreserve = 0
No locals.
78123	    pMem->szMalloc = sqlite3DbMallocSize(pMem->db, pMem->zMalloc);
sqlite3.c:78123
78123	    pMem->szMalloc = sqlite3DbMallocSize(pMem->db, pMem->zMalloc);
n = 32
bPreserve = 0
No locals.
78126	  if( bPreserve && pMem->z ){
sqlite3.c:78126
78126	  if( bPreserve && pMem->z ){
n = 32
bPreserve = 0
No locals.
78130	  if( (pMem->flags&MEM_Dyn)!=0 ){
sqlite3.c:78130
78130	  if( (pMem->flags&MEM_Dyn)!=0 ){
n = 32
bPreserve = 0
No locals.
78135	  pMem->z = pMem->zMalloc;
sqlite3.c:78135
78135	  pMem->z = pMem->zMalloc;
n = 32
bPreserve = 0
No locals.
78136	  pMem->flags &= ~(MEM_Dyn|MEM_Ephem|MEM_Static);
sqlite3.c:78136
78136	  pMem->flags &= ~(MEM_Dyn|MEM_Ephem|MEM_Static);
n = 32
bPreserve = 0
No locals.
78137	  return SQLITE_OK;
sqlite3.c:78137
78137	  return SQLITE_OK;
n = 32
bPreserve = 0
No locals.
78138	}
sqlite3.c:78138
78138	}
n = 32
bPreserve = 0
No locals.
sqlite3.c:78163
78163	}
sqlite3.c:78163
78163	}
szNew = 32
No locals.
sqlite3.c:79014
79014	    memcpy(pMem->z, z, nAlloc);
sqlite3.c:79014
79014	    memcpy(pMem->z, z, nAlloc);
n = -1
enc = 1 '\001'
nAlloc = 4
nByte = 3
iLimit = 50000
flags = 514
79015	  }else{
sqlite3.c:79015
79015	  }else{
n = -1
enc = 1 '\001'
nAlloc = 4
nByte = 3
iLimit = 50000
flags = 514
79027	  pMem->n = (int)(nByte & 0x7fffffff);
sqlite3.c:79027
79027	  pMem->n = (int)(nByte & 0x7fffffff);
n = -1
enc = 1 '\001'
nByte = 3
iLimit = 50000
flags = 514
79028	  pMem->flags = flags;
sqlite3.c:79028
79028	  pMem->flags = flags;
n = -1
enc = 1 '\001'
nByte = 3
iLimit = 50000
flags = 514
79029	  if( enc ){
sqlite3.c:79029
79029	  if( enc ){
n = -1
enc = 1 '\001'
nByte = 3
iLimit = 50000
flags = 514
sqlite3.c:78104
78104	  if( pMem->szMalloc>0 && bPreserve && pMem->z==pMem->zMalloc ){
sqlite3.c:78104
78104	  if( pMem->szMalloc>0 && bPreserve && pMem->z==pMem->zMalloc ){
n = 32
bPreserve = 0
No locals.
78114	    if( pMem->szMalloc>0 ) sqlite3DbFreeNN(pMem->db, pMem->zMalloc);
sqlite3.c:78114
78114	    if( pMem->szMalloc>0 ) sqlite3DbFreeNN(pMem->db, pMem->zMalloc);
n = 32
bPreserve = 0
No locals.
78115	    pMem->zMalloc = sqlite3DbMallocRaw(pMem->db, n);
sqlite3.c:78115
78115	    pMem->zMalloc = sqlite3DbMallocRaw(pMem->db, n);
n = 32
bPreserve = 0
No locals.
78117	  if( pMem->zMalloc==0 ){
sqlite3.c:78117
78117	  if( pMem->zMalloc==0 ){
n = 32
bPreserve = 0
No locals.
78123	    pMem->szMalloc = sqlite3DbMallocSize(pMem->db, pMem->zMalloc);
sqlite3.c:78123
78123	    pMem->szMalloc = sqlite3DbMallocSize(pMem->db, pMem->zMalloc);
n = 32
bPreserve = 0
No locals.
78126	  if( bPreserve && pMem->z ){
sqlite3.c:78126
78126	  if( bPreserve && pMem->z ){
n = 32
bPreserve = 0
No locals.
78130	  if( (pMem->flags&MEM_Dyn)!=0 ){
sqlite3.c:78130
78130	  if( (pMem->flags&MEM_Dyn)!=0 ){
n = 32
bPreserve = 0
No locals.
78135	  pMem->z = pMem->zMalloc;
sqlite3.c:78135
78135	  pMem->z = pMem->zMalloc;
n = 32
bPreserve = 0
No locals.
78136	  pMem->flags &= ~(MEM_Dyn|MEM_Ephem|MEM_Static);
sqlite3.c:78136
78136	  pMem->flags &= ~(MEM_Dyn|MEM_Ephem|MEM_Static);
n = 32
bPreserve = 0
No locals.
78137	  return SQLITE_OK;
sqlite3.c:78137
78137	  return SQLITE_OK;
n = 32
bPreserve = 0
No locals.
78138	}
sqlite3.c:78138
78138	}
n = 32
bPreserve = 0
No locals.
sqlite3.c:78163
78163	}
sqlite3.c:78163
78163	}
szNew = 32
No locals.
sqlite3.c:79014
79014	    memcpy(pMem->z, z, nAlloc);
sqlite3.c:79014
79014	    memcpy(pMem->z, z, nAlloc);
n = -1
enc = 1 '\001'
nAlloc = 5
nByte = 4
iLimit = 50000
flags = 514
79015	  }else{
sqlite3.c:79015
79015	  }else{
n = -1
enc = 1 '\001'
nAlloc = 5
nByte = 4
iLimit = 50000
flags = 514
79027	  pMem->n = (int)(nByte & 0x7fffffff);
sqlite3.c:79027
79027	  pMem->n = (int)(nByte & 0x7fffffff);
n = -1
enc = 1 '\001'
nByte = 4
iLimit = 50000
flags = 514
79028	  pMem->flags = flags;
sqlite3.c:79028
79028	  pMem->flags = flags;
n = -1
enc = 1 '\001'
nByte = 4
iLimit = 50000
flags = 514
79029	  if( enc ){
sqlite3.c:79029
79029	  if( enc ){
n = -1
enc = 1 '\001'
nByte = 4
iLimit = 50000
flags = 514
sqlite3.c:78104
78104	  if( pMem->szMalloc>0 && bPreserve && pMem->z==pMem->zMalloc ){
sqlite3.c:78104
78104	  if( pMem->szMalloc>0 && bPreserve && pMem->z==pMem->zMalloc ){
n = 32
bPreserve = 0
No locals.
78114	    if( pMem->szMalloc>0 ) sqlite3DbFreeNN(pMem->db, pMem->zMalloc);
sqlite3.c:78114
78114	    if( pMem->szMalloc>0 ) sqlite3DbFreeNN(pMem->db, pMem->zMalloc);
n = 32
bPreserve = 0
No locals.
78115	    pMem->zMalloc = sqlite3DbMallocRaw(pMem->db, n);
sqlite3.c:78115
78115	    pMem->zMalloc = sqlite3DbMallocRaw(pMem->db, n);
n = 32
bPreserve = 0
No locals.
78117	  if( pMem->zMalloc==0 ){
sqlite3.c:78117
78117	  if( pMem->zMalloc==0 ){
n = 32
bPreserve = 0
No locals.
78123	    pMem->szMalloc = sqlite3DbMallocSize(pMem->db, pMem->zMalloc);
sqlite3.c:78123
78123	    pMem->szMalloc = sqlite3DbMallocSize(pMem->db, pMem->zMalloc);
n = 32
bPreserve = 0
No locals.
78126	  if( bPreserve && pMem->z ){
sqlite3.c:78126
78126	  if( bPreserve && pMem->z ){
n = 32
bPreserve = 0
No locals.
78130	  if( (pMem->flags&MEM_Dyn)!=0 ){
sqlite3.c:78130
78130	  if( (pMem->flags&MEM_Dyn)!=0 ){
n = 32
bPreserve = 0
No locals.
78135	  pMem->z = pMem->zMalloc;
sqlite3.c:78135
78135	  pMem->z = pMem->zMalloc;
n = 32
bPreserve = 0
No locals.
78136	  pMem->flags &= ~(MEM_Dyn|MEM_Ephem|MEM_Static);
sqlite3.c:78136
78136	  pMem->flags &= ~(MEM_Dyn|MEM_Ephem|MEM_Static);
n = 32
bPreserve = 0
No locals.
78137	  return SQLITE_OK;
sqlite3.c:78137
78137	  return SQLITE_OK;
n = 32
bPreserve = 0
No locals.
78138	}
sqlite3.c:78138
78138	}
n = 32
bPreserve = 0
No locals.
sqlite3.c:78163
78163	}
sqlite3.c:78163
78163	}
szNew = 32
No locals.
sqlite3.c:79014
79014	    memcpy(pMem->z, z, nAlloc);
sqlite3.c:79014
79014	    memcpy(pMem->z, z, nAlloc);
n = -1
enc = 1 '\001'
nAlloc = 5
nByte = 4
iLimit = 50000
flags = 514
79015	  }else{
sqlite3.c:79015
79015	  }else{
n = -1
enc = 1 '\001'
nAlloc = 5
nByte = 4
iLimit = 50000
flags = 514
79027	  pMem->n = (int)(nByte & 0x7fffffff);
sqlite3.c:79027
79027	  pMem->n = (int)(nByte & 0x7fffffff);
n = -1
enc = 1 '\001'
nByte = 4
iLimit = 50000
flags = 514
79028	  pMem->flags = flags;
sqlite3.c:79028
79028	  pMem->flags = flags;
n = -1
enc = 1 '\001'
nByte = 4
iLimit = 50000
flags = 514
79029	  if( enc ){
sqlite3.c:79029
79029	  if( enc ){
n = -1
enc = 1 '\001'
nByte = 4
iLimit = 50000
flags = 514
sqlite3.c:78104
78104	  if( pMem->szMalloc>0 && bPreserve && pMem->z==pMem->zMalloc ){
sqlite3.c:78104
78104	  if( pMem->szMalloc>0 && bPreserve && pMem->z==pMem->zMalloc ){
n = 32
bPreserve = 0
No locals.
78114	    if( pMem->szMalloc>0 ) sqlite3DbFreeNN(pMem->db, pMem->zMalloc);
sqlite3.c:78114
78114	    if( pMem->szMalloc>0 ) sqlite3DbFreeNN(pMem->db, pMem->zMalloc);
n = 32
bPreserve = 0
No locals.
78115	    pMem->zMalloc = sqlite3DbMallocRaw(pMem->db, n);
sqlite3.c:78115
78115	    pMem->zMalloc = sqlite3DbMallocRaw(pMem->db, n);
n = 32
bPreserve = 0
No locals.
78117	  if( pMem->zMalloc==0 ){
sqlite3.c:78117
78117	  if( pMem->zMalloc==0 ){
n = 32
bPreserve = 0
No locals.
78123	    pMem->szMalloc = sqlite3DbMallocSize(pMem->db, pMem->zMalloc);
sqlite3.c:78123
78123	    pMem->szMalloc = sqlite3DbMallocSize(pMem->db, pMem->zMalloc);
n = 32
bPreserve = 0
No locals.
78126	  if( bPreserve && pMem->z ){
sqlite3.c:78126
78126	  if( bPreserve && pMem->z ){
n = 32
bPreserve = 0
No locals.
78130	  if( (pMem->flags&MEM_Dyn)!=0 ){
sqlite3.c:78130
78130	  if( (pMem->flags&MEM_Dyn)!=0 ){
n = 32
bPreserve = 0
No locals.
78135	  pMem->z = pMem->zMalloc;
sqlite3.c:78135
78135	  pMem->z = pMem->zMalloc;
n = 32
bPreserve = 0
No locals.
78136	  pMem->flags &= ~(MEM_Dyn|MEM_Ephem|MEM_Static);
sqlite3.c:78136
78136	  pMem->flags &= ~(MEM_Dyn|MEM_Ephem|MEM_Static);
n = 32
bPreserve = 0
No locals.
78137	  return SQLITE_OK;
sqlite3.c:78137
78137	  return SQLITE_OK;
n = 32
bPreserve = 0
No locals.
78138	}
sqlite3.c:78138
78138	}
n = 32
bPreserve = 0
No locals.
sqlite3.c:78163
78163	}
sqlite3.c:78163
78163	}
szNew = 32
No locals.
sqlite3.c:79014
79014	    memcpy(pMem->z, z, nAlloc);
sqlite3.c:79014
79014	    memcpy(pMem->z, z, nAlloc);
n = -1
enc = 1 '\001'
nAlloc = 5
nByte = 4
iLimit = 50000
flags = 514
79015	  }else{
sqlite3.c:79015
79015	  }else{
n = -1
enc = 1 '\001'
nAlloc = 5
nByte = 4
iLimit = 50000
flags = 514
79027	  pMem->n = (int)(nByte & 0x7fffffff);
sqlite3.c:79027
79027	  pMem->n = (int)(nByte & 0x7fffffff);
n = -1
enc = 1 '\001'
nByte = 4
iLimit = 50000
flags = 514
79028	  pMem->flags = flags;
sqlite3.c:79028
79028	  pMem->flags = flags;
n = -1
enc = 1 '\001'
nByte = 4
iLimit = 50000
flags = 514
79029	  if( enc ){
sqlite3.c:79029
79029	  if( enc ){
n = -1
enc = 1 '\001'
nByte = 4
iLimit = 50000
flags = 514
sqlite3.c:78104
78104	  if( pMem->szMalloc>0 && bPreserve && pMem->z==pMem->zMalloc ){
sqlite3.c:78104
78104	  if( pMem->szMalloc>0 && bPreserve && pMem->z==pMem->zMalloc ){
n = 32
bPreserve = 0
No locals.
78114	    if( pMem->szMalloc>0 ) sqlite3DbFreeNN(pMem->db, pMem->zMalloc);
sqlite3.c:78114
78114	    if( pMem->szMalloc>0 ) sqlite3DbFreeNN(pMem->db, pMem->zMalloc);
n = 32
bPreserve = 0
No locals.
78115	    pMem->zMalloc = sqlite3DbMallocRaw(pMem->db, n);
sqlite3.c:78115
78115	    pMem->zMalloc = sqlite3DbMallocRaw(pMem->db, n);
n = 32
bPreserve = 0
No locals.
78117	  if( pMem->zMalloc==0 ){
sqlite3.c:78117
78117	  if( pMem->zMalloc==0 ){
n = 32
bPreserve = 0
No locals.
78123	    pMem->szMalloc = sqlite3DbMallocSize(pMem->db, pMem->zMalloc);
sqlite3.c:78123
78123	    pMem->szMalloc = sqlite3DbMallocSize(pMem->db, pMem->zMalloc);
n = 32
bPreserve = 0
No locals.
78126	  if( bPreserve && pMem->z ){
sqlite3.c:78126
78126	  if( bPreserve && pMem->z ){
n = 32
bPreserve = 0
No locals.
78130	  if( (pMem->flags&MEM_Dyn)!=0 ){
sqlite3.c:78130
78130	  if( (pMem->flags&MEM_Dyn)!=0 ){
n = 32
bPreserve = 0
No locals.
78135	  pMem->z = pMem->zMalloc;
sqlite3.c:78135
78135	  pMem->z = pMem->zMalloc;
n = 32
bPreserve = 0
No locals.
78136	  pMem->flags &= ~(MEM_Dyn|MEM_Ephem|MEM_Static);
sqlite3.c:78136
78136	  pMem->flags &= ~(MEM_Dyn|MEM_Ephem|MEM_Static);
n = 32
bPreserve = 0
No locals.
78137	  return SQLITE_OK;
sqlite3.c:78137
78137	  return SQLITE_OK;
n = 32
bPreserve = 0
No locals.
78138	}
sqlite3.c:78138
78138	}
n = 32
bPreserve = 0
No locals.
sqlite3.c:78163
78163	}
sqlite3.c:78163
78163	}
szNew = 32
No locals.
sqlite3.c:79014
79014	    memcpy(pMem->z, z, nAlloc);
sqlite3.c:79014
79014	    memcpy(pMem->z, z, nAlloc);
n = -1
enc = 1 '\001'
nAlloc = 4
nByte = 3
iLimit = 50000
flags = 514
79015	  }else{
sqlite3.c:79015
79015	  }else{
n = -1
enc = 1 '\001'
nAlloc = 4
nByte = 3
iLimit = 50000
flags = 514
79027	  pMem->n = (int)(nByte & 0x7fffffff);
sqlite3.c:79027
79027	  pMem->n = (int)(nByte & 0x7fffffff);
n = -1
enc = 1 '\001'
nByte = 3
iLimit = 50000
flags = 514
79028	  pMem->flags = flags;
sqlite3.c:79028
79028	  pMem->flags = flags;
n = -1
enc = 1 '\001'
nByte = 3
iLimit = 50000
flags = 514
79029	  if( enc ){
sqlite3.c:79029
79029	  if( enc ){
n = -1
enc = 1 '\001'
nByte = 3
iLimit = 50000
flags = 514
sqlite3.c:78104
78104	  if( pMem->szMalloc>0 && bPreserve && pMem->z==pMem->zMalloc ){
sqlite3.c:78104
78104	  if( pMem->szMalloc>0 && bPreserve && pMem->z==pMem->zMalloc ){
n = 32
bPreserve = 0
No locals.
78114	    if( pMem->szMalloc>0 ) sqlite3DbFreeNN(pMem->db, pMem->zMalloc);
sqlite3.c:78114
78114	    if( pMem->szMalloc>0 ) sqlite3DbFreeNN(pMem->db, pMem->zMalloc);
n = 32
bPreserve = 0
No locals.
78115	    pMem->zMalloc = sqlite3DbMallocRaw(pMem->db, n);
sqlite3.c:78115
78115	    pMem->zMalloc = sqlite3DbMallocRaw(pMem->db, n);
n = 32
bPreserve = 0
No locals.
78117	  if( pMem->zMalloc==0 ){
sqlite3.c:78117
78117	  if( pMem->zMalloc==0 ){
n = 32
bPreserve = 0
No locals.
78123	    pMem->szMalloc = sqlite3DbMallocSize(pMem->db, pMem->zMalloc);
sqlite3.c:78123
78123	    pMem->szMalloc = sqlite3DbMallocSize(pMem->db, pMem->zMalloc);
n = 32
bPreserve = 0
No locals.
78126	  if( bPreserve && pMem->z ){
sqlite3.c:78126
78126	  if( bPreserve && pMem->z ){
n = 32
bPreserve = 0
No locals.
78130	  if( (pMem->flags&MEM_Dyn)!=0 ){
sqlite3.c:78130
78130	  if( (pMem->flags&MEM_Dyn)!=0 ){
n = 32
bPreserve = 0
No locals.
78135	  pMem->z = pMem->zMalloc;
sqlite3.c:78135
78135	  pMem->z = pMem->zMalloc;
n = 32
bPreserve = 0
No locals.
78136	  pMem->flags &= ~(MEM_Dyn|MEM_Ephem|MEM_Static);
sqlite3.c:78136
78136	  pMem->flags &= ~(MEM_Dyn|MEM_Ephem|MEM_Static);
n = 32
bPreserve = 0
No locals.
78137	  return SQLITE_OK;
sqlite3.c:78137
78137	  return SQLITE_OK;
n = 32
bPreserve = 0
No locals.
78138	}
sqlite3.c:78138
78138	}
n = 32
bPreserve = 0
No locals.
sqlite3.c:78163
78163	}
sqlite3.c:78163
78163	}
szNew = 32
No locals.
sqlite3.c:79014
79014	    memcpy(pMem->z, z, nAlloc);
sqlite3.c:79014
79014	    memcpy(pMem->z, z, nAlloc);
n = -1
enc = 1 '\001'
nAlloc = 5
nByte = 4
iLimit = 50000
flags = 514
79015	  }else{
sqlite3.c:79015
79015	  }else{
n = -1
enc = 1 '\001'
nAlloc = 5
nByte = 4
iLimit = 50000
flags = 514
79027	  pMem->n = (int)(nByte & 0x7fffffff);
sqlite3.c:79027
79027	  pMem->n = (int)(nByte & 0x7fffffff);
n = -1
enc = 1 '\001'
nByte = 4
iLimit = 50000
flags = 514
79028	  pMem->flags = flags;
sqlite3.c:79028
79028	  pMem->flags = flags;
n = -1
enc = 1 '\001'
nByte = 4
iLimit = 50000
flags = 514
79029	  if( enc ){
sqlite3.c:79029
79029	  if( enc ){
n = -1
enc = 1 '\001'
nByte = 4
iLimit = 50000
flags = 514
